# MagicaVoxel @ Ephtracy

# material
mtllib HEAVY02-02.mtl
usemtl palette

# normals
vn -1 0 0
vn 1 0 0
vn 0 0 1
vn 0 0 -1
vn 0 -1 0
vn 0 1 0

# texcoords
vt 0.0566406 0.5
vt 0.0605469 0.5
vt 0.0761719 0.5
vt 0.173828 0.5
vt 0.373047 0.5
vt 0.427734 0.5
vt 0.482422 0.5
vt 0.677734 0.5
vt 0.689453 0.5
vt 0.728516 0.5
vt 0.912109 0.5
vt 0.935547 0.5
vt 0.982422 0.5
vt 0.986328 0.5
vt 0.994141 0.5

# verts
v -11 9 2
v -11 9 -2
v -11 10 2
v -11 10 1
v -11 10 -1
v -11 10 -2
v -11 12 1
v -11 12 -1
v -11 13 1
v -11 13 -0
v -11 14 1
v -11 14 -0
v -11 14 -1
v -11 16 1
v -11 16 -0
v -11 16 -1
v -9 2 -8
v -9 2 -10
v -9 7 3
v -9 7 -3
v -9 7 -8
v -9 7 -10
v -9 9 3
v -9 9 2
v -9 9 -2
v -9 10 3
v -9 10 2
v -9 10 1
v -9 10 -1
v -9 10 -2
v -9 12 1
v -9 12 -1
v -9 13 -2
v -9 13 -3
v -9 14 3
v -9 14 1
v -9 14 -1
v -9 14 -2
v -9 14 -3
v -8 0 -8
v -8 0 -9
v -8 0 -10
v -8 2 -8
v -8 2 -9
v -8 2 -10
v -8 7 -8
v -8 7 -10
v -8 9 5
v -8 9 3
v -8 9 -3
v -8 9 -5
v -8 10 6
v -8 10 5
v -8 10 3
v -8 10 -5
v -8 10 -6
v -8 10 -8
v -8 10 -10
v -8 11 4
v -8 11 3
v -8 12 4
v -8 12 3
v -8 13 6
v -8 13 3
v -8 13 -3
v -8 13 -6
v -8 17 7
v -8 17 6
v -8 17 5
v -8 17 -5
v -8 17 -6
v -8 17 -7
v -8 18 6
v -8 18 5
v -8 18 -5
v -8 18 -6
v -8 20 7
v -8 20 6
v -8 20 5
v -8 20 -5
v -8 20 -6
v -8 20 -7
v -6 7 10
v -6 7 8
v -6 9 8
v -6 9 6
v -6 9 5
v -6 9 -5
v -6 9 -6
v -6 9 -8
v -6 10 6
v -6 10 5
v -6 10 -5
v -6 10 -6
v -6 10 -8
v -6 10 -10
v -6 12 8
v -6 12 6
v -6 12 -6
v -6 12 -8
v -6 13 10
v -6 13 8
v -6 13 5
v -6 13 3
v -6 13 -3
v -6 13 -5
v -6 13 -8
v -6 13 -10
v -6 14 5
v -6 14 3
v -6 14 -3
v -6 14 -5
v -5 6 10
v -5 6 8
v -5 7 10
v -5 7 8
v -4 0 10
v -4 0 8
v -4 2 10
v -4 2 8
v -4 6 10
v -4 6 8
v -4 14 3
v -4 14 -2
v -4 14 -3
v -4 16 9
v -4 16 5
v -4 16 3
v -4 16 -3
v -4 16 -5
v -4 16 -8
v -4 17 7
v -4 17 5
v -4 17 -5
v -4 17 -7
v -4 20 9
v -4 20 7
v -4 20 -7
v -4 20 -8
v 1 14 6
v 1 14 5
v 1 14 -5
v 1 14 -6
v 1 16 6
v 1 16 5
v 1 16 3
v 1 16 2
v 1 16 -2
v 1 16 -3
v 1 16 -5
v 1 16 -6
v 1 17 5
v 1 17 2
v 1 17 -2
v 1 17 -5
v 2 13 6
v 2 13 5
v 2 13 -5
v 2 13 -6
v 2 14 6
v 2 14 5
v 2 14 3
v 2 14 -3
v 2 14 -5
v 2 14 -6
v 2 16 5
v 2 16 3
v 2 16 -3
v 2 16 -5
v 3 0 11
v 3 0 9
v 3 2 11
v 3 2 9
v 3 7 11
v 3 7 9
v 3 13 7
v 3 13 6
v 3 13 -6
v 3 13 -7
v 3 14 -6
v 3 16 7
v 3 16 6
v 3 16 5
v 3 16 3
v 3 16 -3
v 3 16 -5
v 3 16 -6
v 3 16 -7
v 3 17 5
v 3 17 3
v 3 17 -3
v 3 17 -5
v 4 7 11
v 4 7 9
v 4 8 11
v 4 8 9
v 5 6 9
v 5 6 8
v 5 8 10
v 5 8 9
v 5 10 10
v 5 10 8
v 6 7 -8
v 6 7 -10
v 6 8 11
v 6 8 10
v 6 9 8
v 6 9 6
v 6 9 5
v 6 9 -5
v 6 9 -6
v 6 9 -8
v 6 10 11
v 6 10 10
v 6 10 8
v 6 10 6
v 6 10 5
v 6 10 -5
v 6 10 -6
v 6 12 8
v 6 12 6
v 6 12 -6
v 6 12 -8
v 6 13 10
v 6 13 8
v 6 13 -8
v 6 13 -10
v 6 17 3
v 6 17 2
v 6 19 3
v 6 19 2
v 7 6 -9
v 7 6 -10
v 7 7 -9
v 7 7 -10
v 7 19 3
v 7 19 2
v 7 21 3
v 7 21 2
v 7 22 3
v 7 22 2
v 8 3 -9
v 8 3 -10
v 8 4 -10
v 8 4 -11
v 8 6 -8
v 8 6 -9
v 8 6 -10
v 8 7 -8
v 8 7 -9
v 8 10 -10
v 8 10 -11
v 9 0 -9
v 9 0 -10
v 9 0 -11
v 9 2 -9
v 9 2 -10
v 9 3 -9
v 9 3 -10
v 9 4 -10
v 9 4 -11
v -6 0 -8
v -6 0 -10
v -6 6 -8
v -6 6 -10
v -6 7 3
v -6 7 2
v -6 7 -2
v -6 7 -3
v -6 9 3
v -6 9 2
v -6 9 -2
v -6 9 -3
v -6 14 1
v -6 14 -1
v -6 16 1
v -6 16 -1
v -5 6 -8
v -5 6 -10
v -5 7 -8
v -5 7 -10
v -4 7 2
v -4 7 -2
v -4 7 -8
v -4 7 -10
v -4 9 10
v -4 9 8
v -4 9 6
v -4 9 5
v -4 9 2
v -4 9 -2
v -4 9 -5
v -4 9 -6
v -4 9 -8
v -4 10 6
v -4 10 5
v -4 10 -5
v -4 10 -6
v -4 12 8
v -4 12 6
v -4 12 -6
v -4 12 -8
v -4 13 10
v -4 13 8
v -4 13 -8
v -4 13 -10
v -2 0 10
v -2 0 8
v -2 2 10
v -2 2 8
v -2 7 10
v -2 7 8
v -2 9 10
v -2 9 8
v -1 2 10
v -1 2 8
v -1 7 10
v -1 7 8
v 2 16 5
v 2 16 3
v 2 16 -3
v 2 16 -5
v 2 17 5
v 2 17 3
v 2 17 -3
v 2 17 -5
v 5 0 11
v 5 0 9
v 5 2 11
v 5 2 9
v 5 3 11
v 5 3 9
v 6 3 11
v 6 3 9
v 6 6 11
v 6 6 9
v 6 13 7
v 6 13 6
v 6 13 5
v 6 13 -5
v 6 13 -6
v 6 13 -7
v 6 14 6
v 6 14 5
v 6 14 3
v 6 14 -3
v 6 14 -5
v 6 14 -6
v 6 16 7
v 6 16 6
v 6 16 5
v 6 16 3
v 6 16 -2
v 6 16 -3
v 6 16 -5
v 6 16 -6
v 6 16 -7
v 6 17 5
v 6 17 3
v 6 17 -2
v 6 17 -5
v 7 16 3
v 7 16 2
v 7 17 3
v 7 17 2
v 8 6 11
v 8 6 8
v 8 7 10
v 8 7 8
v 8 10 11
v 8 10 10
v 8 14 6
v 8 14 5
v 8 14 1
v 8 14 -1
v 8 14 -5
v 8 14 -6
v 8 16 6
v 8 16 5
v 8 16 1
v 8 16 -1
v 8 16 -5
v 8 16 -6
v 8 17 3
v 8 17 2
v 8 21 3
v 8 21 2
v 8 22 3
v 8 22 2
v 9 7 10
v 9 7 8
v 9 9 8
v 9 9 6
v 9 9 5
v 9 9 3
v 9 9 -3
v 9 9 -6
v 9 9 -8
v 9 10 5
v 9 10 3
v 9 10 -3
v 9 10 -5
v 9 10 -6
v 9 10 -8
v 9 10 -10
v 9 11 -5
v 9 12 8
v 9 12 6
v 9 12 5
v 9 12 -5
v 9 12 -6
v 9 12 -8
v 9 13 10
v 9 13 8
v 9 13 -8
v 9 13 -10
v 9 14 3
v 9 14 2
v 9 14 1
v 9 14 -1
v 9 14 -2
v 9 14 -3
v 9 16 9
v 9 16 7
v 9 16 3
v 9 16 2
v 9 16 1
v 9 16 -1
v 9 16 -2
v 9 16 -3
v 9 16 -7
v 9 16 -8
v 9 20 9
v 9 20 7
v 9 20 -7
v 9 20 -8
v 10 0 -9
v 10 0 -10
v 10 0 -11
v 10 2 -9
v 10 2 -10
v 10 2 -11
v 10 6 -8
v 10 6 -9
v 10 7 -9
v 10 7 -11
v 10 9 3
v 10 9 -3
v 10 10 5
v 10 10 3
v 10 10 2
v 10 10 -2
v 10 10 -3
v 10 10 -5
v 10 10 -8
v 10 10 -11
v 10 11 4
v 10 11 3
v 10 11 2
v 10 11 1
v 10 11 -1
v 10 11 -2
v 10 11 -3
v 10 11 -5
v 10 12 6
v 10 12 5
v 10 12 4
v 10 12 3
v 10 12 -3
v 10 12 -4
v 10 12 -5
v 10 12 -6
v 10 13 6
v 10 13 5
v 10 13 4
v 10 13 1
v 10 13 -1
v 10 13 -4
v 10 13 -5
v 10 13 -6
v 10 14 5
v 10 14 -5
v 10 16 7
v 10 16 5
v 10 16 -5
v 10 16 -7
v 10 17 6
v 10 17 5
v 10 17 -5
v 10 17 -6
v 10 19 7
v 10 19 6
v 10 19 -6
v 10 19 -7
v 11 2 -9
v 11 2 -10
v 11 2 -11
v 11 3 -9
v 11 3 -10
v 11 7 -9
v 11 7 -11
v 11 17 6
v 11 17 5
v 11 17 -5
v 11 17 -6
v 11 19 7
v 11 19 6
v 11 19 -6
v 11 19 -7
v 11 20 7
v 11 20 5
v 11 20 -5
v 11 20 -7
v 3 0 11
v 3 2 11
v 3 7 11
v 4 7 11
v 4 8 11
v 5 0 11
v 5 2 11
v 5 3 11
v 6 3 11
v 6 6 11
v 6 8 11
v 6 10 11
v 8 6 11
v 8 10 11
v -6 7 10
v -6 13 10
v -5 6 10
v -5 7 10
v -4 0 10
v -4 2 10
v -4 6 10
v -4 9 10
v -4 13 10
v -2 0 10
v -2 2 10
v -2 7 10
v -2 9 10
v -1 2 10
v -1 7 10
v 5 8 10
v 5 10 10
v 6 8 10
v 6 10 10
v 6 13 10
v 8 7 10
v 8 10 10
v 9 7 10
v 9 13 10
v -4 16 9
v -4 20 9
v -1 19 9
v -1 20 9
v 2 19 9
v 2 20 9
v 5 17 9
v 5 19 9
v 6 17 9
v 6 19 9
v 9 16 9
v 9 20 9
v -8 17 7
v -8 20 7
v -6 17 7
v -6 20 7
v -5 17 7
v -5 20 7
v -4 17 7
v -4 20 7
v 3 13 7
v 3 16 7
v 6 13 7
v 6 16 7
v 9 16 7
v 9 20 7
v 10 16 7
v 10 19 7
v 11 19 7
v 11 20 7
v -8 10 6
v -8 13 6
v -6 10 6
v -6 12 6
v -4 10 6
v -4 12 6
v -1 10 6
v -1 12 6
v 1 10 6
v 1 12 6
v 1 14 6
v 1 16 6
v 2 13 6
v 2 14 6
v 2 16 6
v 3 13 6
v 3 16 6
v 5 10 6
v 5 13 6
v 6 10 6
v 6 12 6
v 6 13 6
v 6 14 6
v 6 16 6
v 8 14 6
v 8 16 6
v 9 12 6
v 10 12 6
v 10 13 6
v 10 17 6
v 10 19 6
v 11 17 6
v 11 19 6
v -8 9 5
v -8 10 5
v -6 9 5
v -6 10 5
v -6 13 5
v -6 14 5
v -4 9 5
v -4 10 5
v -1 10 5
v 1 9 5
v 1 10 5
v 1 14 5
v 2 9 5
v 2 10 5
v 2 13 5
v 2 14 5
v 5 9 5
v 5 10 5
v 6 9 5
v 6 10 5
v 6 13 5
v 6 14 5
v 8 14 5
v 9 10 5
v 9 12 5
v 10 10 5
v 10 12 5
v 10 13 5
v 10 14 5
v -9 7 3
v -9 9 3
v -9 10 3
v -9 14 3
v -8 9 3
v -8 10 3
v -8 11 3
v -8 12 3
v -8 13 3
v -6 7 3
v -6 9 3
v -6 13 3
v -6 14 3
v -4 14 3
v -4 16 3
v -1 15 3
v -1 16 3
v 1 15 3
v 1 16 3
v 2 14 3
v 2 16 3
v 2 17 3
v 3 16 3
v 3 17 3
v 6 14 3
v 6 16 3
v 6 17 3
v 6 19 3
v 7 16 3
v 7 17 3
v 7 19 3
v 7 21 3
v 7 22 3
v 8 17 3
v 8 21 3
v 8 22 3
v 9 9 3
v 9 10 3
v 9 14 3
v 9 16 3
v 10 9 3
v 10 10 3
v -11 9 2
v -11 10 2
v -9 9 2
v -9 10 2
v -6 7 2
v -6 9 2
v -4 7 2
v -4 9 2
v -11 10 1
v -11 12 1
v -11 13 1
v -11 14 1
v -11 16 1
v -10 13 1
v -10 14 1
v -10 16 1
v -9 10 1
v -9 12 1
v -9 14 1
v -9 16 1
v -8 14 1
v -8 16 1
v -6 14 1
v -6 16 1
v 8 14 -1
v 8 16 -1
v 9 14 -1
v 9 16 -1
v 1 16 -2
v 1 17 -2
v 2 16 -2
v 5 16 -2
v 6 16 -2
v 6 17 -2
v -8 17 -5
v -8 18 -5
v -8 20 -5
v -7 17 -5
v -7 18 -5
v -7 20 -5
v -6 17 -5
v -6 18 -5
v -6 20 -5
v -5 17 -5
v -5 20 -5
v -4 16 -5
v -4 17 -5
v -4 19 -5
v -4 20 -5
v -1 19 -5
v -1 20 -5
v 1 14 -5
v 1 16 -5
v 1 17 -5
v 2 14 -5
v 2 16 -5
v 2 17 -5
v 2 19 -5
v 3 16 -5
v 3 17 -5
v 3 19 -5
v 6 14 -5
v 6 16 -5
v 6 17 -5
v 8 14 -5
v 8 16 -5
v 9 16 -5
v 9 17 -5
v 9 20 -5
v 10 16 -5
v 10 17 -5
v 11 17 -5
v 11 20 -5
v -9 2 -8
v -9 7 -8
v -8 0 -8
v -8 2 -8
v -8 7 -8
v -8 10 -8
v -7 0 -8
v -7 2 -8
v -6 0 -8
v -6 6 -8
v -6 9 -8
v -6 10 -8
v -6 12 -8
v -6 13 -8
v -5 6 -8
v -5 7 -8
v -4 7 -8
v -4 9 -8
v -4 12 -8
v -4 13 -8
v 6 7 -8
v 6 9 -8
v 6 12 -8
v 6 13 -8
v 8 6 -8
v 8 7 -8
v 9 9 -8
v 9 10 -8
v 9 12 -8
v 9 13 -8
v 10 6 -8
v 10 10 -8
v 7 6 -9
v 7 7 -9
v 8 3 -9
v 8 6 -9
v 8 7 -9
v 9 0 -9
v 9 2 -9
v 9 3 -9
v 10 0 -9
v 10 2 -9
v 10 3 -9
v 10 6 -9
v 10 7 -9
v 11 2 -9
v 11 3 -9
v 11 7 -9
v 3 0 9
v 3 2 9
v 3 7 9
v 4 7 9
v 4 8 9
v 5 0 9
v 5 2 9
v 5 3 9
v 5 6 9
v 5 8 9
v 6 3 9
v 6 6 9
v -6 7 8
v -6 9 8
v -6 12 8
v -6 13 8
v -5 6 8
v -5 7 8
v -4 0 8
v -4 2 8
v -4 6 8
v -4 9 8
v -4 12 8
v -4 13 8
v -2 0 8
v -2 2 8
v -2 7 8
v -2 9 8
v -1 2 8
v -1 7 8
v 5 6 8
v 5 10 8
v 6 9 8
v 6 10 8
v 6 12 8
v 6 13 8
v 8 6 8
v 8 7 8
v 9 7 8
v 9 9 8
v 9 12 8
v 9 13 8
v -8 17 5
v -8 18 5
v -8 20 5
v -7 17 5
v -7 18 5
v -7 20 5
v -6 17 5
v -6 18 5
v -6 20 5
v -5 17 5
v -5 20 5
v -4 16 5
v -4 17 5
v -4 20 5
v -1 16 5
v -1 17 5
v 1 14 5
v 1 16 5
v 1 17 5
v 2 14 5
v 2 16 5
v 2 17 5
v 3 16 5
v 3 17 5
v 6 14 5
v 6 16 5
v 6 17 5
v 8 14 5
v 8 16 5
v 9 16 5
v 9 20 5
v 10 16 5
v 10 17 5
v 11 17 5
v 11 20 5
v 1 16 2
v 1 17 2
v 2 16 2
v 6 16 2
v 6 17 2
v 6 19 2
v 7 16 2
v 7 17 2
v 7 19 2
v 7 21 2
v 7 22 2
v 8 17 2
v 8 21 2
v 8 22 2
v 8 14 1
v 8 16 1
v 9 14 1
v 9 16 1
v -11 10 -1
v -11 12 -1
v -11 14 -1
v -11 16 -1
v -9 10 -1
v -9 12 -1
v -9 14 -1
v -9 16 -1
v -8 14 -1
v -8 16 -1
v -6 14 -1
v -6 16 -1
v -11 9 -2
v -11 10 -2
v -9 9 -2
v -9 10 -2
v -6 7 -2
v -6 9 -2
v -4 7 -2
v -4 9 -2
v -9 7 -3
v -9 13 -3
v -9 14 -3
v -8 9 -3
v -8 13 -3
v -6 7 -3
v -6 9 -3
v -6 13 -3
v -6 14 -3
v -4 14 -3
v -4 16 -3
v 1 16 -3
v 2 14 -3
v 2 16 -3
v 2 17 -3
v 3 16 -3
v 3 17 -3
v 6 14 -3
v 6 16 -3
v 9 9 -3
v 9 10 -3
v 9 14 -3
v 9 16 -3
v 10 9 -3
v 10 10 -3
v -8 9 -5
v -8 10 -5
v -6 9 -5
v -6 10 -5
v -6 13 -5
v -6 14 -5
v -4 9 -5
v -4 10 -5
v 1 14 -5
v 2 13 -5
v 2 14 -5
v 5 9 -5
v 5 10 -5
v 6 9 -5
v 6 10 -5
v 6 13 -5
v 6 14 -5
v 8 14 -5
v 9 10 -5
v 9 11 -5
v 9 12 -5
v 10 10 -5
v 10 11 -5
v 10 12 -5
v 10 13 -5
v 10 14 -5
v -8 10 -6
v -8 13 -6
v -6 10 -6
v -6 12 -6
v -4 10 -6
v -4 12 -6
v 1 14 -6
v 1 16 -6
v 2 13 -6
v 2 14 -6
v 2 16 -6
v 3 13 -6
v 3 14 -6
v 3 16 -6
v 5 10 -6
v 5 13 -6
v 6 10 -6
v 6 12 -6
v 6 13 -6
v 6 14 -6
v 6 16 -6
v 8 14 -6
v 8 16 -6
v 9 12 -6
v 10 12 -6
v 10 13 -6
v 10 17 -6
v 10 19 -6
v 11 17 -6
v 11 19 -6
v -8 17 -7
v -8 20 -7
v -6 17 -7
v -6 20 -7
v -5 17 -7
v -5 20 -7
v -4 17 -7
v -4 20 -7
v 3 13 -7
v 3 16 -7
v 6 13 -7
v 6 16 -7
v 9 16 -7
v 9 20 -7
v 10 16 -7
v 10 19 -7
v 11 19 -7
v 11 20 -7
v -4 16 -8
v -4 20 -8
v -1 19 -8
v -1 20 -8
v 2 19 -8
v 2 20 -8
v 3 17 -8
v 3 19 -8
v 5 17 -8
v 5 19 -8
v 9 16 -8
v 9 20 -8
v -9 2 -10
v -9 7 -10
v -8 0 -10
v -8 2 -10
v -8 7 -10
v -8 10 -10
v -6 0 -10
v -6 6 -10
v -6 10 -10
v -6 13 -10
v -5 6 -10
v -5 7 -10
v -4 7 -10
v -4 13 -10
v 6 7 -10
v 6 13 -10
v 7 6 -10
v 7 7 -10
v 8 3 -10
v 8 4 -10
v 8 6 -10
v 8 10 -10
v 9 3 -10
v 9 4 -10
v 9 10 -10
v 9 13 -10
v 8 4 -11
v 8 10 -11
v 9 0 -11
v 9 4 -11
v 10 0 -11
v 10 2 -11
v 10 7 -11
v 10 10 -11
v 11 2 -11
v 11 7 -11
v 3 0 11
v 5 0 11
v -4 0 10
v -2 0 10
v 3 0 9
v 5 0 9
v -4 0 8
v -2 0 8
v -8 0 -8
v -7 0 -8
v -6 0 -8
v -8 0 -9
v -7 0 -9
v 9 0 -9
v 10 0 -9
v -8 0 -10
v -6 0 -10
v 9 0 -10
v 10 0 -10
v 9 0 -11
v 10 0 -11
v -2 2 10
v -1 2 10
v -2 2 8
v -1 2 8
v -9 2 -8
v -8 2 -8
v -8 2 -9
v 10 2 -9
v 11 2 -9
v -9 2 -10
v -8 2 -10
v 10 2 -10
v 11 2 -10
v 10 2 -11
v 11 2 -11
v 5 3 11
v 6 3 11
v 5 3 9
v 6 3 9
v 8 3 -9
v 9 3 -9
v 8 3 -10
v 9 3 -10
v 8 4 -10
v 9 4 -10
v 8 4 -11
v 9 4 -11
v 6 6 11
v 8 6 11
v -5 6 10
v -4 6 10
v 5 6 9
v 6 6 9
v -5 6 8
v -4 6 8
v 5 6 8
v 8 6 8
v -6 6 -8
v -5 6 -8
v 8 6 -8
v 10 6 -8
v 7 6 -9
v 8 6 -9
v 10 6 -9
v -6 6 -10
v -5 6 -10
v 7 6 -10
v 8 6 -10
v -6 7 10
v -5 7 10
v 8 7 10
v 9 7 10
v -6 7 8
v -5 7 8
v 8 7 8
v 9 7 8
v -9 7 3
v -6 7 3
v -6 7 2
v -4 7 2
v -6 7 -2
v -4 7 -2
v -9 7 -3
v -6 7 -3
v -5 7 -8
v -4 7 -8
v 6 7 -8
v 8 7 -8
v 7 7 -9
v 8 7 -9
v -5 7 -10
v -4 7 -10
v 6 7 -10
v 7 7 -10
v -6 9 8
v -4 9 8
v 6 9 8
v 9 9 8
v -6 9 6
v -4 9 6
v 6 9 6
v 9 9 6
v -8 9 5
v -6 9 5
v -4 9 5
v 1 9 5
v 2 9 5
v 5 9 5
v 6 9 5
v 8 9 5
v 9 9 5
v 5 9 4
v 6 9 4
v -8 9 3
v -6 9 3
v -4 9 3
v -3 9 3
v -2 9 3
v 0 9 3
v 1 9 3
v 2 9 3
v 5 9 3
v 6 9 3
v 9 9 3
v 10 9 3
v -11 9 2
v -9 9 2
v -6 9 2
v -4 9 2
v -3 9 2
v -2 9 2
v -1 9 2
v 0 9 2
v 3 9 2
v 8 9 2
v 9 9 2
v -1 9 1
v 3 9 1
v 1 9 -0
v 3 9 -0
v -2 9 -1
v -1 9 -1
v 1 9 -1
v 3 9 -1
v -11 9 -2
v -9 9 -2
v -6 9 -2
v -4 9 -2
v -2 9 -2
v -1 9 -2
v 3 9 -2
v 5 9 -2
v 6 9 -2
v 8 9 -2
v -8 9 -3
v -6 9 -3
v 3 9 -3
v 5 9 -3
v 6 9 -3
v 7 9 -3
v 8 9 -3
v 9 9 -3
v 10 9 -3
v 7 9 -4
v 8 9 -4
v -8 9 -5
v -6 9 -5
v -4 9 -5
v 5 9 -5
v 6 9 -5
v -6 9 -6
v -4 9 -6
v 6 9 -6
v 8 9 -6
v 9 9 -6
v -6 9 -8
v -4 9 -8
v 6 9 -8
v 9 9 -8
v -8 10 6
v -6 10 6
v -4 10 6
v -1 10 6
v 1 10 6
v 5 10 6
v 6 10 6
v -8 10 5
v -6 10 5
v -4 10 5
v -1 10 5
v 1 10 5
v 2 10 5
v 5 10 5
v 6 10 5
v 9 10 5
v 10 10 5
v 9 10 3
v 10 10 3
v 9 10 -3
v 10 10 -3
v -8 10 -5
v -6 10 -5
v -4 10 -5
v 5 10 -5
v 6 10 -5
v 9 10 -5
v 10 10 -5
v -8 10 -6
v -6 10 -6
v -4 10 -6
v 5 10 -6
v 6 10 -6
v 9 12 6
v 10 12 6
v 9 12 5
v 10 12 5
v 9 12 -5
v 10 12 -5
v 9 12 -6
v 10 12 -6
v 3 13 7
v 6 13 7
v 3 13 6
v 5 13 6
v 6 13 6
v 3 13 -6
v 5 13 -6
v 6 13 -6
v 3 13 -7
v 6 13 -7
v 1 14 6
v 2 14 6
v 6 14 6
v 8 14 6
v 1 14 5
v 2 14 5
v 6 14 5
v 8 14 5
v 1 14 -5
v 2 14 -5
v 6 14 -5
v 8 14 -5
v 1 14 -6
v 2 14 -6
v 6 14 -6
v 8 14 -6
v -4 16 9
v 9 16 9
v 3 16 7
v 6 16 7
v 9 16 7
v 10 16 7
v -1 16 6
v 1 16 6
v 2 16 6
v 3 16 6
v 6 16 6
v 8 16 6
v -4 16 5
v -1 16 5
v 1 16 5
v 2 16 5
v 8 16 5
v 9 16 5
v 10 16 5
v 1 16 3
v 2 16 3
v 1 16 -3
v 2 16 -3
v -4 16 -5
v 1 16 -5
v 2 16 -5
v 8 16 -5
v 9 16 -5
v 10 16 -5
v 1 16 -6
v 2 16 -6
v 3 16 -6
v 6 16 -6
v 8 16 -6
v 9 16 -6
v 3 16 -7
v 6 16 -7
v 9 16 -7
v 10 16 -7
v -4 16 -8
v 9 16 -8
v -8 17 7
v -6 17 7
v -5 17 7
v -4 17 7
v -8 17 6
v -7 17 6
v 10 17 6
v 11 17 6
v -8 17 5
v -7 17 5
v -6 17 5
v -5 17 5
v -4 17 5
v 10 17 5
v 11 17 5
v 7 17 3
v 8 17 3
v 7 17 2
v 8 17 2
v -8 17 -5
v -7 17 -5
v -6 17 -5
v -5 17 -5
v -4 17 -5
v 10 17 -5
v 11 17 -5
v -8 17 -6
v -7 17 -6
v 10 17 -6
v 11 17 -6
v -8 17 -7
v -6 17 -7
v -5 17 -7
v -4 17 -7
v 10 19 7
v 11 19 7
v 10 19 6
v 11 19 6
v 10 19 -6
v 11 19 -6
v 10 19 -7
v 11 19 -7
v 3 7 11
v 4 7 11
v -2 7 10
v -1 7 10
v 3 7 9
v 4 7 9
v -2 7 8
v -1 7 8
v -9 7 -8
v -8 7 -8
v 10 7 -9
v 11 7 -9
v -9 7 -10
v -8 7 -10
v 10 7 -11
v 11 7 -11
v 4 8 11
v 6 8 11
v 5 8 10
v 6 8 10
v 4 8 9
v 5 8 9
v -4 9 10
v -2 9 10
v -4 9 8
v -2 9 8
v 6 10 11
v 8 10 11
v 5 10 10
v 6 10 10
v 8 10 10
v 5 10 8
v 6 10 8
v -11 10 2
v -9 10 2
v -11 10 1
v -9 10 1
v -11 10 -1
v -9 10 -1
v -11 10 -2
v -9 10 -2
v -8 10 -8
v -6 10 -8
v 9 10 -8
v 10 10 -8
v -8 10 -10
v -6 10 -10
v 8 10 -10
v 9 10 -10
v 8 10 -11
v 10 10 -11
v -6 12 8
v -4 12 8
v 6 12 8
v 9 12 8
v -6 12 6
v -4 12 6
v 6 12 6
v 9 12 6
v -6 12 -6
v -4 12 -6
v 6 12 -6
v 9 12 -6
v -6 12 -8
v -4 12 -8
v 6 12 -8
v 9 12 -8
v -6 13 10
v -4 13 10
v 6 13 10
v 9 13 10
v -6 13 8
v -4 13 8
v 6 13 8
v 9 13 8
v -8 13 6
v 2 13 6
v 6 13 6
v 10 13 6
v -6 13 5
v 2 13 5
v 6 13 5
v 10 13 5
v -8 13 3
v -6 13 3
v -8 13 -3
v -6 13 -3
v -6 13 -5
v 2 13 -5
v 6 13 -5
v 10 13 -5
v -8 13 -6
v 2 13 -6
v 6 13 -6
v 10 13 -6
v -6 13 -8
v -4 13 -8
v 6 13 -8
v 9 13 -8
v -6 13 -10
v -4 13 -10
v 6 13 -10
v 9 13 -10
v -6 14 5
v 1 14 5
v 2 14 5
v 6 14 5
v 8 14 5
v 10 14 5
v -9 14 3
v -6 14 3
v -4 14 3
v 2 14 3
v 6 14 3
v 9 14 3
v 9 14 2
v -9 14 1
v -8 14 1
v -6 14 1
v 8 14 1
v 9 14 1
v -9 14 -1
v -8 14 -1
v -6 14 -1
v 8 14 -1
v 9 14 -1
v -9 14 -2
v -6 14 -2
v -5 14 -2
v -4 14 -2
v 9 14 -2
v -9 14 -3
v -6 14 -3
v -5 14 -3
v -4 14 -3
v 2 14 -3
v 6 14 -3
v 9 14 -3
v -6 14 -5
v 1 14 -5
v 2 14 -5
v 6 14 -5
v 8 14 -5
v 10 14 -5
v 2 16 5
v 3 16 5
v -4 16 3
v -1 16 3
v 1 16 3
v 2 16 3
v 3 16 3
v 7 16 3
v 9 16 3
v -1 16 2
v 0 16 2
v 1 16 2
v 2 16 2
v 6 16 2
v 7 16 2
v 8 16 2
v 9 16 2
v -11 16 1
v -10 16 1
v -9 16 1
v -8 16 1
v -6 16 1
v -2 16 1
v -1 16 1
v 0 16 1
v 2 16 1
v 8 16 1
v 9 16 1
v -11 16 -0
v -10 16 -0
v -11 16 -1
v -9 16 -1
v -8 16 -1
v -6 16 -1
v -2 16 -1
v -1 16 -1
v 2 16 -1
v 5 16 -1
v 8 16 -1
v 9 16 -1
v 1 16 -2
v 2 16 -2
v 5 16 -2
v 6 16 -2
v 8 16 -2
v 9 16 -2
v -4 16 -3
v 1 16 -3
v 2 16 -3
v 3 16 -3
v 6 16 -3
v 9 16 -3
v 2 16 -5
v 3 16 -5
v 1 17 5
v 2 17 5
v 3 17 5
v 6 17 5
v 2 17 3
v 3 17 3
v 6 17 3
v 1 17 2
v 6 17 2
v 1 17 -2
v 6 17 -2
v 2 17 -3
v 3 17 -3
v 1 17 -5
v 2 17 -5
v 3 17 -5
v 6 17 -5
v 6 19 3
v 7 19 3
v 6 19 2
v 7 19 2
v -4 20 9
v -1 20 9
v 2 20 9
v 9 20 9
v -8 20 7
v -6 20 7
v -5 20 7
v -4 20 7
v -1 20 7
v 2 20 7
v 9 20 7
v 11 20 7
v -8 20 6
v -7 20 6
v -6 20 6
v -8 20 5
v -7 20 5
v -6 20 5
v -5 20 5
v -4 20 5
v 9 20 5
v 11 20 5
v -8 20 -5
v -7 20 -5
v -6 20 -5
v -5 20 -5
v -4 20 -5
v -1 20 -5
v 9 20 -5
v 11 20 -5
v -8 20 -6
v -7 20 -6
v -6 20 -6
v -4 20 -6
v -1 20 -6
v -8 20 -7
v -6 20 -7
v -5 20 -7
v -4 20 -7
v -1 20 -7
v 2 20 -7
v 9 20 -7
v 11 20 -7
v -4 20 -8
v -1 20 -8
v 2 20 -8
v 9 20 -8
v 7 22 3
v 8 22 3
v 7 22 2
v 8 22 2

# faces
f 3/12/1 2/12/1 1/12/1
f 4/12/1 2/12/1 3/12/1
f 5/12/1 2/12/1 4/12/1
f 6/12/1 2/12/1 5/12/1
f 7/10/1 5/10/1 4/10/1
f 8/10/1 5/10/1 7/10/1
f 9/9/1 8/9/1 7/9/1
f 10/9/1 8/9/1 9/9/1
f 11/8/1 10/8/1 9/8/1
f 12/9/1 8/9/1 10/9/1
f 12/8/1 10/8/1 11/8/1
f 13/9/1 8/9/1 12/9/1
f 14/11/1 12/11/1 11/11/1
f 15/8/1 13/8/1 12/8/1
f 15/11/1 12/11/1 14/11/1
f 16/8/1 13/8/1 15/8/1
f 21/12/1 18/12/1 17/12/1
f 22/12/1 18/12/1 21/12/1
f 23/2/1 20/2/1 19/2/1
f 24/2/1 20/2/1 23/2/1
f 25/2/1 20/2/1 24/2/1
f 26/3/1 24/3/1 23/3/1
f 27/3/1 24/3/1 26/3/1
f 30/2/1 20/2/1 25/2/1
f 31/2/1 28/2/1 27/2/1
f 31/2/1 27/2/1 26/2/1
f 32/2/1 30/2/1 29/2/1
f 33/2/1 20/2/1 30/2/1
f 33/2/1 30/2/1 32/2/1
f 34/2/1 20/2/1 33/2/1
f 35/2/1 31/2/1 26/2/1
f 36/2/1 31/2/1 35/2/1
f 37/2/1 33/2/1 32/2/1
f 38/3/1 34/3/1 33/3/1
f 38/2/1 33/2/1 37/2/1
f 39/3/1 34/3/1 38/3/1
f 43/13/1 41/13/1 40/13/1
f 44/12/1 42/12/1 41/12/1
f 44/13/1 41/13/1 43/13/1
f 45/12/1 42/12/1 44/12/1
f 53/12/1 49/12/1 48/12/1
f 54/12/1 49/12/1 53/12/1
f 55/12/1 51/12/1 50/12/1
f 57/12/1 47/12/1 46/12/1
f 58/12/1 47/12/1 57/12/1
f 59/12/1 54/12/1 53/12/1
f 59/12/1 53/12/1 52/12/1
f 60/12/1 54/12/1 59/12/1
f 61/12/1 59/12/1 52/12/1
f 61/13/1 60/13/1 59/13/1
f 62/13/1 60/13/1 61/13/1
f 63/12/1 61/12/1 52/12/1
f 63/12/1 62/12/1 61/12/1
f 64/12/1 62/12/1 63/12/1
f 65/12/1 56/12/1 55/12/1
f 65/12/1 55/12/1 50/12/1
f 66/12/1 56/12/1 65/12/1
f 73/4/1 68/4/1 67/4/1
f 73/5/1 69/5/1 68/5/1
f 74/5/1 69/5/1 73/5/1
f 75/5/1 71/5/1 70/5/1
f 76/4/1 72/4/1 71/4/1
f 76/5/1 71/5/1 75/5/1
f 77/4/1 73/4/1 67/4/1
f 78/6/1 74/6/1 73/6/1
f 78/4/1 73/4/1 77/4/1
f 79/6/1 74/6/1 78/6/1
f 80/6/1 76/6/1 75/6/1
f 81/4/1 72/4/1 76/4/1
f 81/6/1 76/6/1 80/6/1
f 82/4/1 72/4/1 81/4/1
f 85/12/1 84/12/1 83/12/1
f 91/15/1 86/15/1 85/15/1
f 91/12/1 87/12/1 86/12/1
f 92/12/1 87/12/1 91/12/1
f 93/12/1 89/12/1 88/12/1
f 94/15/1 90/15/1 89/15/1
f 94/12/1 89/12/1 93/12/1
f 95/15/1 90/15/1 94/15/1
f 97/12/1 85/12/1 83/12/1
f 97/15/1 91/15/1 85/15/1
f 98/15/1 91/15/1 97/15/1
f 99/15/1 95/15/1 94/15/1
f 100/12/1 96/12/1 95/12/1
f 100/15/1 95/15/1 99/15/1
f 101/12/1 97/12/1 83/12/1
f 102/12/1 97/12/1 101/12/1
f 107/12/1 96/12/1 100/12/1
f 108/12/1 96/12/1 107/12/1
f 109/12/1 104/12/1 103/12/1
f 110/12/1 104/12/1 109/12/1
f 111/12/1 106/12/1 105/12/1
f 112/12/1 106/12/1 111/12/1
f 115/12/1 114/12/1 113/12/1
f 116/12/1 114/12/1 115/12/1
f 119/13/1 118/13/1 117/13/1
f 120/13/1 118/13/1 119/13/1
f 121/12/1 120/12/1 119/12/1
f 122/12/1 120/12/1 121/12/1
f 128/2/1 124/2/1 123/2/1
f 128/2/1 125/2/1 124/2/1
f 129/2/1 125/2/1 128/2/1
f 132/2/1 127/2/1 126/2/1
f 133/2/1 127/2/1 132/2/1
f 134/2/1 131/2/1 130/2/1
f 135/2/1 131/2/1 134/2/1
f 136/2/1 132/2/1 126/2/1
f 137/2/1 132/2/1 136/2/1
f 138/2/1 131/2/1 135/2/1
f 139/2/1 131/2/1 138/2/1
f 144/13/1 141/13/1 140/13/1
f 145/13/1 141/13/1 144/13/1
f 150/12/1 143/12/1 142/12/1
f 151/12/1 143/12/1 150/12/1
f 152/13/1 146/13/1 145/13/1
f 152/13/1 147/13/1 146/13/1
f 153/13/1 147/13/1 152/13/1
f 154/13/1 149/13/1 148/13/1
f 154/13/1 150/13/1 149/13/1
f 155/13/1 150/13/1 154/13/1
f 160/12/1 157/12/1 156/12/1
f 161/12/1 157/12/1 160/12/1
f 164/12/1 159/12/1 158/12/1
f 165/12/1 159/12/1 164/12/1
f 166/12/1 162/12/1 161/12/1
f 167/12/1 162/12/1 166/12/1
f 168/12/1 164/12/1 163/12/1
f 169/12/1 164/12/1 168/12/1
f 172/13/1 171/13/1 170/13/1
f 173/13/1 171/13/1 172/13/1
f 174/12/1 173/12/1 172/12/1
f 175/12/1 173/12/1 174/12/1
f 180/12/1 179/12/1 178/12/1
f 181/12/1 177/12/1 176/12/1
f 182/12/1 177/12/1 181/12/1
f 187/12/1 179/12/1 180/12/1
f 188/12/1 179/12/1 187/12/1
f 189/13/1 184/13/1 183/13/1
f 190/13/1 184/13/1 189/13/1
f 191/13/1 186/13/1 185/13/1
f 192/13/1 186/13/1 191/13/1
f 195/12/1 194/12/1 193/12/1
f 196/12/1 194/12/1 195/12/1
f 200/12/1 198/12/1 197/12/1
f 201/12/1 200/12/1 199/12/1
f 202/12/1 198/12/1 200/12/1
f 202/12/1 200/12/1 201/12/1
f 212/12/1 204/12/1 203/12/1
f 213/12/1 206/12/1 205/12/1
f 214/12/1 206/12/1 213/12/1
f 215/15/1 208/15/1 207/15/1
f 216/2/1 209/2/1 208/2/1
f 216/15/1 208/15/1 215/15/1
f 217/2/1 209/2/1 216/2/1
f 218/2/1 211/2/1 210/2/1
f 219/15/1 212/15/1 211/15/1
f 219/2/1 211/2/1 218/2/1
f 220/15/1 216/15/1 215/15/1
f 220/12/1 215/12/1 214/12/1
f 221/15/1 216/15/1 220/15/1
f 222/15/1 212/15/1 219/15/1
f 223/12/1 204/12/1 212/12/1
f 223/15/1 212/15/1 222/15/1
f 224/12/1 220/12/1 214/12/1
f 225/12/1 220/12/1 224/12/1
f 226/12/1 204/12/1 223/12/1
f 227/12/1 204/12/1 226/12/1
f 230/12/1 229/12/1 228/12/1
f 231/12/1 229/12/1 230/12/1
f 234/12/1 233/12/1 232/12/1
f 235/12/1 233/12/1 234/12/1
f 238/12/1 237/12/1 236/12/1
f 239/12/1 237/12/1 238/12/1
f 240/1/1 239/1/1 238/1/1
f 241/1/1 239/1/1 240/1/1
f 244/12/1 243/12/1 242/12/1
f 247/12/1 244/12/1 242/12/1
f 247/12/1 245/12/1 244/12/1
f 248/12/1 245/12/1 247/12/1
f 249/12/1 247/12/1 246/12/1
f 250/12/1 247/12/1 249/12/1
f 251/12/1 245/12/1 248/12/1
f 252/12/1 245/12/1 251/12/1
f 256/13/1 254/13/1 253/13/1
f 257/12/1 255/12/1 254/12/1
f 257/13/1 254/13/1 256/13/1
f 258/12/1 257/12/1 256/12/1
f 259/12/1 255/12/1 257/12/1
f 259/12/1 257/12/1 258/12/1
f 260/12/1 255/12/1 259/12/1
f 261/12/1 255/12/1 260/12/1
f 262/12/2 263/12/2 264/12/2
f 264/12/2 263/12/2 265/12/2
f 266/2/2 267/2/2 270/2/2
f 270/2/2 267/2/2 271/2/2
f 268/2/2 269/2/2 272/2/2
f 272/2/2 269/2/2 273/2/2
f 274/10/2 275/10/2 276/10/2
f 276/10/2 275/10/2 277/10/2
f 278/12/2 279/12/2 280/12/2
f 280/12/2 279/12/2 281/12/2
f 282/2/2 283/2/2 290/2/2
f 290/2/2 283/2/2 291/2/2
f 284/12/2 285/12/2 294/12/2
f 288/12/2 289/12/2 295/12/2
f 287/15/2 288/15/2 295/15/2
f 295/12/2 289/12/2 296/12/2
f 292/12/2 293/12/2 297/12/2
f 293/15/2 294/15/2 298/15/2
f 297/12/2 293/12/2 298/12/2
f 286/12/2 287/12/2 299/12/2
f 287/15/2 295/15/2 299/15/2
f 299/15/2 295/15/2 300/15/2
f 298/15/2 294/15/2 301/15/2
f 294/12/2 285/12/2 302/12/2
f 301/15/2 294/15/2 302/15/2
f 286/12/2 299/12/2 303/12/2
f 303/12/2 299/12/2 304/12/2
f 302/12/2 285/12/2 305/12/2
f 305/12/2 285/12/2 306/12/2
f 307/13/2 308/13/2 309/13/2
f 309/13/2 308/13/2 310/13/2
f 311/12/2 312/12/2 313/12/2
f 313/12/2 312/12/2 314/12/2
f 315/12/2 316/12/2 317/12/2
f 317/12/2 316/12/2 318/12/2
f 319/13/2 320/13/2 323/13/2
f 323/13/2 320/13/2 324/13/2
f 321/13/2 322/13/2 325/13/2
f 325/13/2 322/13/2 326/13/2
f 327/13/2 328/13/2 329/13/2
f 329/13/2 328/13/2 330/13/2
f 329/12/2 330/12/2 331/12/2
f 331/12/2 330/12/2 332/12/2
f 333/12/2 334/12/2 335/12/2
f 335/12/2 334/12/2 336/12/2
f 337/12/2 338/12/2 343/12/2
f 338/2/2 339/2/2 343/2/2
f 343/2/2 339/2/2 344/2/2
f 340/2/2 341/2/2 347/2/2
f 341/12/2 342/12/2 348/12/2
f 347/2/2 341/2/2 348/2/2
f 337/12/2 343/12/2 349/12/2
f 349/12/2 343/12/2 350/12/2
f 344/12/2 345/12/2 351/12/2
f 351/12/2 345/12/2 352/12/2
f 346/12/2 347/12/2 354/12/2
f 354/12/2 347/12/2 355/12/2
f 348/12/2 342/12/2 356/12/2
f 356/12/2 342/12/2 357/12/2
f 351/13/2 352/13/2 358/13/2
f 358/13/2 352/13/2 359/13/2
f 354/13/2 355/13/2 360/13/2
f 353/13/2 354/13/2 360/13/2
f 360/13/2 355/13/2 361/13/2
f 362/12/2 363/12/2 364/12/2
f 364/12/2 363/12/2 365/12/2
f 366/12/2 367/12/2 368/12/2
f 368/12/2 367/12/2 369/12/2
f 366/12/2 368/12/2 370/12/2
f 370/12/2 368/12/2 371/12/2
f 372/12/2 373/12/2 378/12/2
f 378/12/2 373/12/2 379/12/2
f 374/2/2 375/2/2 380/2/2
f 380/2/2 375/2/2 381/2/2
f 376/12/2 377/12/2 382/12/2
f 382/12/2 377/12/2 383/12/2
f 384/12/2 385/12/2 386/12/2
f 386/12/2 385/12/2 387/12/2
f 386/1/2 387/1/2 388/1/2
f 388/1/2 387/1/2 389/1/2
f 390/12/2 391/12/2 392/12/2
f 393/2/2 394/2/2 399/2/2
f 394/3/2 395/3/2 399/3/2
f 399/3/2 395/3/2 400/3/2
f 396/3/2 397/3/2 401/3/2
f 401/3/2 397/3/2 402/3/2
f 397/15/2 398/15/2 403/15/2
f 402/3/2 397/3/2 403/3/2
f 403/15/2 398/15/2 404/15/2
f 402/2/2 403/2/2 406/2/2
f 390/12/2 392/12/2 407/12/2
f 392/15/2 393/15/2 407/15/2
f 393/2/2 399/2/2 408/2/2
f 407/15/2 393/15/2 408/15/2
f 408/2/2 399/2/2 409/2/2
f 406/2/2 403/2/2 410/2/2
f 403/15/2 404/15/2 411/15/2
f 410/2/2 403/2/2 411/2/2
f 404/12/2 405/12/2 412/12/2
f 411/15/2 404/15/2 412/15/2
f 390/12/2 407/12/2 413/12/2
f 413/12/2 407/12/2 414/12/2
f 412/12/2 405/12/2 415/12/2
f 415/12/2 405/12/2 416/12/2
f 417/2/2 418/2/2 425/2/2
f 418/3/2 419/3/2 426/3/2
f 425/2/2 418/2/2 426/2/2
f 426/3/2 419/3/2 427/3/2
f 420/3/2 421/3/2 428/3/2
f 421/2/2 422/2/2 429/2/2
f 428/3/2 421/3/2 429/3/2
f 429/2/2 422/2/2 430/2/2
f 423/2/2 424/2/2 433/2/2
f 433/2/2 424/2/2 434/2/2
f 431/2/2 432/2/2 435/2/2
f 435/2/2 432/2/2 436/2/2
f 437/13/2 438/13/2 440/13/2
f 438/12/2 439/12/2 441/12/2
f 440/13/2 438/13/2 441/13/2
f 441/12/2 439/12/2 442/12/2
f 443/12/2 444/12/2 445/12/2
f 447/2/2 448/2/2 450/2/2
f 450/2/2 448/2/2 451/2/2
f 451/2/2 448/2/2 452/2/2
f 452/2/2 448/2/2 453/2/2
f 443/12/2 445/12/2 455/12/2
f 445/12/2 446/12/2 455/12/2
f 455/12/2 446/12/2 456/12/2
f 449/2/2 450/2/2 457/2/2
f 450/7/2 451/7/2 458/7/2
f 457/2/2 450/2/2 458/2/2
f 451/2/2 452/2/2 459/2/2
f 458/7/2 451/7/2 459/7/2
f 459/2/2 452/2/2 460/2/2
f 460/2/2 452/2/2 461/2/2
f 452/7/2 453/7/2 462/7/2
f 461/2/2 452/2/2 462/2/2
f 453/3/2 454/3/2 463/3/2
f 462/7/2 453/7/2 463/7/2
f 463/3/2 454/3/2 464/3/2
f 449/2/2 457/2/2 466/2/2
f 457/3/2 458/3/2 467/3/2
f 466/2/2 457/2/2 467/2/2
f 458/7/2 459/7/2 468/7/2
f 467/3/2 458/3/2 468/3/2
f 459/7/2 460/7/2 468/7/2
f 461/7/2 462/7/2 469/7/2
f 462/7/2 463/7/2 469/7/2
f 463/2/2 464/2/2 469/2/2
f 469/2/2 464/2/2 470/2/2
f 470/2/2 464/2/2 471/2/2
f 465/2/2 466/2/2 473/2/2
f 466/2/2 467/2/2 473/2/2
f 473/2/2 467/2/2 474/2/2
f 467/7/2 468/7/2 475/7/2
f 474/2/2 467/2/2 475/2/2
f 468/7/2 460/7/2 476/7/2
f 475/7/2 468/7/2 476/7/2
f 460/2/2 461/2/2 476/2/2
f 469/7/2 470/7/2 477/7/2
f 476/2/2 461/2/2 477/2/2
f 461/7/2 469/7/2 477/7/2
f 470/2/2 471/2/2 478/2/2
f 477/7/2 470/7/2 478/7/2
f 471/2/2 472/2/2 478/2/2
f 478/2/2 472/2/2 479/2/2
f 479/2/2 472/2/2 480/2/2
f 474/2/2 475/2/2 481/2/2
f 476/2/2 477/2/2 481/2/2
f 478/2/2 479/2/2 481/2/2
f 477/2/2 478/2/2 481/2/2
f 475/2/2 476/2/2 481/2/2
f 481/2/2 479/2/2 482/2/2
f 483/12/2 484/12/2 487/12/2
f 487/12/2 484/12/2 488/12/2
f 485/12/2 486/12/2 489/12/2
f 489/12/2 486/12/2 490/12/2
f 483/12/2 487/12/2 491/12/2
f 491/12/2 487/12/2 492/12/2
f 490/12/2 486/12/2 493/12/2
f 493/12/2 486/12/2 494/12/2
f 495/13/2 496/13/2 498/13/2
f 496/12/2 497/12/2 499/12/2
f 498/13/2 496/13/2 499/13/2
f 498/12/2 499/12/2 500/12/2
f 499/12/2 497/12/2 501/12/2
f 500/12/2 499/12/2 501/12/2
f 502/12/2 503/12/2 507/12/2
f 504/12/2 505/12/2 508/12/2
f 506/12/2 507/12/2 510/12/2
f 507/12/2 503/12/2 511/12/2
f 510/12/2 507/12/2 511/12/2
f 508/12/2 509/12/2 512/12/2
f 504/12/2 508/12/2 512/12/2
f 512/12/2 509/12/2 513/12/2
f 517/12/3 516/12/3 515/12/3
f 519/13/3 515/13/3 514/13/3
f 520/12/3 518/12/3 517/12/3
f 520/13/3 515/13/3 519/13/3
f 520/12/3 517/12/3 515/12/3
f 521/12/3 518/12/3 520/12/3
f 522/12/3 518/12/3 521/12/3
f 523/12/3 518/12/3 522/12/3
f 524/12/3 518/12/3 523/12/3
f 526/12/3 525/12/3 524/12/3
f 526/12/3 524/12/3 523/12/3
f 527/12/3 525/12/3 526/12/3
f 531/12/3 529/12/3 528/12/3
f 534/12/3 531/12/3 530/12/3
f 535/12/3 529/12/3 531/12/3
f 535/12/3 531/12/3 534/12/3
f 536/12/3 529/12/3 535/12/3
f 537/13/3 533/13/3 532/13/3
f 538/12/3 534/12/3 533/12/3
f 538/13/3 533/13/3 537/13/3
f 538/12/3 535/12/3 534/12/3
f 539/12/3 535/12/3 538/12/3
f 540/12/3 535/12/3 539/12/3
f 541/12/3 539/12/3 538/12/3
f 542/12/3 539/12/3 541/12/3
f 545/12/3 544/12/3 543/12/3
f 546/12/3 544/12/3 545/12/3
f 549/12/3 547/12/3 546/12/3
f 550/12/3 549/12/3 548/12/3
f 551/12/3 547/12/3 549/12/3
f 551/12/3 549/12/3 550/12/3
f 554/2/3 553/2/3 552/2/3
f 555/2/3 553/2/3 554/2/3
f 556/2/3 554/2/3 552/2/3
f 556/3/3 555/3/3 554/3/3
f 557/3/3 555/3/3 556/3/3
f 558/2/3 556/2/3 552/2/3
f 558/2/3 557/2/3 556/2/3
f 559/2/3 557/2/3 558/2/3
f 560/2/3 558/2/3 552/2/3
f 560/3/3 559/3/3 558/3/3
f 561/2/3 557/2/3 559/2/3
f 561/3/3 559/3/3 560/3/3
f 562/2/3 560/2/3 552/2/3
f 562/2/3 561/2/3 560/2/3
f 563/2/3 557/2/3 561/2/3
f 563/2/3 561/2/3 562/2/3
f 566/4/3 565/4/3 564/4/3
f 567/4/3 565/4/3 566/4/3
f 568/14/3 567/14/3 566/14/3
f 569/14/3 567/14/3 568/14/3
f 570/13/3 569/13/3 568/13/3
f 571/13/3 569/13/3 570/13/3
f 574/12/3 573/12/3 572/12/3
f 575/12/3 573/12/3 574/12/3
f 578/12/3 577/12/3 576/12/3
f 579/12/3 577/12/3 578/12/3
f 580/12/3 577/12/3 579/12/3
f 581/12/3 577/12/3 580/12/3
f 584/12/3 583/12/3 582/12/3
f 585/12/3 583/12/3 584/12/3
f 587/12/3 583/12/3 585/12/3
f 588/12/3 587/12/3 586/12/3
f 589/12/3 583/12/3 587/12/3
f 589/12/3 587/12/3 588/12/3
f 590/13/3 589/13/3 588/13/3
f 591/12/3 583/12/3 589/12/3
f 591/13/3 589/13/3 590/13/3
f 594/12/3 591/12/3 590/12/3
f 594/12/3 583/12/3 591/12/3
f 595/13/3 593/13/3 592/13/3
f 596/13/3 593/13/3 595/13/3
f 597/12/3 594/12/3 590/12/3
f 597/12/3 595/12/3 594/12/3
f 597/12/3 596/12/3 595/12/3
f 598/12/3 596/12/3 597/12/3
f 599/12/3 597/12/3 590/12/3
f 600/12/3 597/12/3 599/12/3
f 601/2/3 600/2/3 599/2/3
f 602/2/3 600/2/3 601/2/3
f 603/2/3 600/2/3 602/2/3
f 606/12/3 605/12/3 604/12/3
f 607/12/3 605/12/3 606/12/3
f 608/2/3 603/2/3 602/2/3
f 609/2/3 603/2/3 608/2/3
f 610/2/3 603/2/3 609/2/3
f 613/12/3 612/12/3 611/12/3
f 614/12/3 612/12/3 613/12/3
f 617/12/3 616/12/3 615/12/3
f 618/12/3 616/12/3 617/12/3
f 623/12/3 622/12/3 621/12/3
f 624/12/3 623/12/3 621/12/3
f 625/12/3 623/12/3 624/12/3
f 626/12/3 620/12/3 619/12/3
f 627/13/3 625/13/3 624/13/3
f 628/13/3 625/13/3 627/13/3
f 629/12/3 626/12/3 619/12/3
f 630/12/3 626/12/3 629/12/3
f 631/12/3 628/12/3 627/12/3
f 632/12/3 628/12/3 631/12/3
f 633/2/3 632/2/3 631/2/3
f 634/2/3 632/2/3 633/2/3
f 637/2/3 636/2/3 635/2/3
f 640/2/3 639/2/3 638/2/3
f 641/2/3 639/2/3 640/2/3
f 642/2/3 637/2/3 635/2/3
f 643/2/3 637/2/3 642/2/3
f 648/2/3 645/2/3 644/2/3
f 648/3/3 646/3/3 645/3/3
f 649/2/3 647/2/3 646/2/3
f 649/3/3 646/3/3 648/3/3
f 650/2/3 647/2/3 649/2/3
f 651/2/3 647/2/3 650/2/3
f 652/2/3 647/2/3 651/2/3
f 653/2/3 648/2/3 644/2/3
f 654/2/3 648/2/3 653/2/3
f 655/2/3 647/2/3 652/2/3
f 656/2/3 647/2/3 655/2/3
f 659/2/3 658/2/3 657/2/3
f 660/2/3 658/2/3 659/2/3
f 661/2/3 659/2/3 657/2/3
f 661/3/3 660/3/3 659/3/3
f 662/3/3 660/3/3 661/3/3
f 663/2/3 661/2/3 657/2/3
f 663/2/3 662/2/3 661/2/3
f 664/2/3 662/2/3 663/2/3
f 666/13/3 665/13/3 664/13/3
f 667/13/3 665/13/3 666/13/3
f 672/12/3 670/12/3 669/12/3
f 672/12/3 671/12/3 670/12/3
f 672/2/3 669/2/3 668/2/3
f 673/12/3 671/12/3 672/12/3
f 674/12/3 671/12/3 673/12/3
f 677/12/3 674/12/3 673/12/3
f 677/12/3 675/12/3 674/12/3
f 678/1/3 676/1/3 675/1/3
f 678/12/3 675/12/3 677/12/3
f 679/1/3 676/1/3 678/1/3
f 682/2/3 672/2/3 668/2/3
f 683/2/3 672/2/3 682/2/3
f 684/2/3 681/2/3 680/2/3
f 685/2/3 681/2/3 684/2/3
f 688/12/3 687/12/3 686/12/3
f 689/12/3 687/12/3 688/12/3
f 692/2/3 691/2/3 690/2/3
f 693/2/3 691/2/3 692/2/3
f 699/9/3 696/9/3 695/9/3
f 699/8/3 697/8/3 696/8/3
f 700/11/3 698/11/3 697/11/3
f 700/8/3 697/8/3 699/8/3
f 701/11/3 698/11/3 700/11/3
f 702/10/3 695/10/3 694/10/3
f 703/9/3 699/9/3 695/9/3
f 703/10/3 695/10/3 702/10/3
f 703/9/3 700/9/3 699/9/3
f 704/8/3 701/8/3 700/8/3
f 704/9/3 700/9/3 703/9/3
f 705/8/3 701/8/3 704/8/3
f 706/9/3 705/9/3 704/9/3
f 707/9/3 705/9/3 706/9/3
f 708/10/3 707/10/3 706/10/3
f 709/10/3 707/10/3 708/10/3
f 712/3/3 711/3/3 710/3/3
f 713/3/3 711/3/3 712/3/3
f 716/13/3 715/13/3 714/13/3
f 717/13/3 715/13/3 716/13/3
f 718/13/3 715/13/3 717/13/3
f 719/13/3 715/13/3 718/13/3
f 723/5/3 721/5/3 720/5/3
f 724/6/3 722/6/3 721/6/3
f 724/5/3 721/5/3 723/5/3
f 725/6/3 722/6/3 724/6/3
f 726/4/3 724/4/3 723/4/3
f 727/5/3 725/5/3 724/5/3
f 727/4/3 724/4/3 726/4/3
f 728/5/3 725/5/3 727/5/3
f 729/14/3 727/14/3 726/14/3
f 729/14/3 728/14/3 727/14/3
f 730/14/3 728/14/3 729/14/3
f 732/13/3 730/13/3 729/13/3
f 733/13/3 730/13/3 732/13/3
f 734/13/3 730/13/3 733/13/3
f 735/2/3 732/2/3 731/2/3
f 735/2/3 733/2/3 732/2/3
f 735/3/3 734/3/3 733/3/3
f 736/3/3 734/3/3 735/3/3
f 738/2/3 735/2/3 731/2/3
f 738/2/3 736/2/3 735/2/3
f 739/2/3 736/2/3 738/2/3
f 740/12/3 738/12/3 737/12/3
f 741/12/3 738/12/3 740/12/3
f 742/2/3 736/2/3 739/2/3
f 743/2/3 736/2/3 742/2/3
f 744/2/3 742/2/3 741/2/3
f 745/3/3 743/3/3 742/3/3
f 745/2/3 742/2/3 744/2/3
f 746/2/3 736/2/3 743/2/3
f 746/3/3 743/3/3 745/3/3
f 749/2/3 746/2/3 745/2/3
f 750/12/3 748/12/3 747/12/3
f 751/3/3 749/3/3 748/3/3
f 751/12/3 748/12/3 750/12/3
f 752/3/3 749/3/3 751/3/3
f 753/2/3 746/2/3 749/2/3
f 753/3/3 749/3/3 752/3/3
f 754/2/3 736/2/3 746/2/3
f 754/2/3 746/2/3 753/2/3
f 755/12/3 753/12/3 752/12/3
f 755/12/3 754/12/3 753/12/3
f 756/12/3 754/12/3 755/12/3
f 757/12/3 754/12/3 756/12/3
f 758/12/3 754/12/3 757/12/3
f 762/12/3 760/12/3 759/12/3
f 763/12/3 760/12/3 762/12/3
f 765/13/3 762/13/3 761/13/3
f 766/12/3 764/12/3 763/12/3
f 766/13/3 762/13/3 765/13/3
f 766/12/3 763/12/3 762/12/3
f 767/12/3 766/12/3 765/12/3
f 768/12/3 764/12/3 766/12/3
f 768/12/3 766/12/3 767/12/3
f 769/12/3 764/12/3 768/12/3
f 770/12/3 764/12/3 769/12/3
f 773/12/3 769/12/3 768/12/3
f 774/12/3 769/12/3 773/12/3
f 775/12/3 769/12/3 774/12/3
f 776/12/3 769/12/3 775/12/3
f 777/12/3 772/12/3 771/12/3
f 778/12/3 772/12/3 777/12/3
f 784/12/3 780/12/3 779/12/3
f 785/12/3 780/12/3 784/12/3
f 785/12/3 784/12/3 783/12/3
f 787/12/3 782/12/3 781/12/3
f 788/12/3 782/12/3 787/12/3
f 789/12/3 786/12/3 785/12/3
f 789/12/3 785/12/3 783/12/3
f 790/12/3 786/12/3 789/12/3
f 794/12/3 792/12/3 791/12/3
f 795/12/3 792/12/3 794/12/3
f 798/12/3 794/12/3 793/12/3
f 799/13/3 797/13/3 796/13/3
f 800/12/3 798/12/3 797/12/3
f 800/13/3 797/13/3 799/13/3
f 801/12/3 794/12/3 798/12/3
f 801/12/3 798/12/3 800/12/3
f 802/12/3 794/12/3 801/12/3
f 804/13/3 801/13/3 800/13/3
f 805/12/3 803/12/3 802/12/3
f 805/13/3 801/13/3 804/13/3
f 805/12/3 802/12/3 801/12/3
f 806/12/3 803/12/3 805/12/3
f 808/12/4 809/12/4 810/12/4
f 807/13/4 808/13/4 812/13/4
f 810/12/4 811/12/4 813/12/4
f 812/13/4 808/13/4 813/13/4
f 808/12/4 810/12/4 813/12/4
f 813/12/4 811/12/4 814/12/4
f 814/12/4 811/12/4 815/12/4
f 815/12/4 811/12/4 816/12/4
f 814/12/4 815/12/4 817/12/4
f 817/12/4 815/12/4 818/12/4
f 819/12/4 820/12/4 824/12/4
f 823/12/4 824/12/4 827/12/4
f 824/12/4 820/12/4 828/12/4
f 827/12/4 824/12/4 828/12/4
f 821/12/4 822/12/4 829/12/4
f 829/12/4 822/12/4 830/12/4
f 825/13/4 826/13/4 831/13/4
f 827/12/4 828/12/4 832/12/4
f 831/13/4 826/13/4 832/13/4
f 826/12/4 827/12/4 832/12/4
f 832/12/4 828/12/4 833/12/4
f 833/12/4 828/12/4 834/12/4
f 832/12/4 833/12/4 835/12/4
f 835/12/4 833/12/4 836/12/4
f 837/12/4 838/12/4 839/12/4
f 839/12/4 838/12/4 840/12/4
f 837/12/4 839/12/4 843/12/4
f 843/12/4 839/12/4 844/12/4
f 844/12/4 839/12/4 845/12/4
f 845/12/4 839/12/4 846/12/4
f 841/12/4 842/12/4 847/12/4
f 847/12/4 842/12/4 848/12/4
f 849/5/4 850/5/4 852/5/4
f 850/6/4 851/6/4 853/6/4
f 852/5/4 850/5/4 853/5/4
f 853/6/4 851/6/4 854/6/4
f 852/4/4 853/4/4 855/4/4
f 853/5/4 854/5/4 856/5/4
f 855/4/4 853/4/4 856/4/4
f 856/5/4 854/5/4 857/5/4
f 855/14/4 856/14/4 858/14/4
f 856/14/4 857/14/4 858/14/4
f 858/14/4 857/14/4 859/14/4
f 858/13/4 859/13/4 861/13/4
f 861/13/4 859/13/4 862/13/4
f 860/2/4 861/2/4 863/2/4
f 861/2/4 862/2/4 863/2/4
f 863/2/4 862/2/4 864/2/4
f 863/3/4 864/3/4 866/3/4
f 864/2/4 862/2/4 867/2/4
f 866/3/4 864/3/4 867/3/4
f 865/13/4 866/13/4 868/13/4
f 868/13/4 866/13/4 869/13/4
f 867/2/4 862/2/4 870/2/4
f 869/2/4 870/2/4 871/2/4
f 870/2/4 862/2/4 872/2/4
f 871/2/4 870/2/4 872/2/4
f 872/2/4 862/2/4 875/2/4
f 873/12/4 874/12/4 876/12/4
f 874/2/4 875/2/4 877/2/4
f 876/12/4 874/12/4 877/12/4
f 877/2/4 875/2/4 878/2/4
f 875/2/4 862/2/4 879/2/4
f 878/2/4 875/2/4 879/2/4
f 878/12/4 879/12/4 880/12/4
f 880/12/4 879/12/4 881/12/4
f 881/12/4 879/12/4 882/12/4
f 882/12/4 879/12/4 883/12/4
f 884/13/4 885/13/4 886/13/4
f 886/13/4 885/13/4 887/13/4
f 887/13/4 885/13/4 888/13/4
f 887/12/4 888/12/4 890/12/4
f 888/12/4 889/12/4 890/12/4
f 890/12/4 889/12/4 891/12/4
f 891/12/4 889/12/4 892/12/4
f 891/12/4 892/12/4 895/12/4
f 892/12/4 893/12/4 895/12/4
f 893/1/4 894/1/4 896/1/4
f 895/12/4 893/12/4 896/12/4
f 896/1/4 894/1/4 897/1/4
f 898/3/4 899/3/4 900/3/4
f 900/3/4 899/3/4 901/3/4
f 902/10/4 903/10/4 906/10/4
f 903/9/4 904/9/4 907/9/4
f 906/10/4 903/10/4 907/10/4
f 904/8/4 905/8/4 908/8/4
f 907/9/4 904/9/4 908/9/4
f 908/8/4 905/8/4 909/8/4
f 908/9/4 909/9/4 910/9/4
f 910/9/4 909/9/4 911/9/4
f 910/10/4 911/10/4 912/10/4
f 912/10/4 911/10/4 913/10/4
f 914/12/4 915/12/4 916/12/4
f 916/12/4 915/12/4 917/12/4
f 918/2/4 919/2/4 920/2/4
f 920/2/4 919/2/4 921/2/4
f 922/2/4 923/2/4 925/2/4
f 923/3/4 924/3/4 926/3/4
f 925/2/4 923/2/4 926/2/4
f 922/2/4 925/2/4 927/2/4
f 927/2/4 925/2/4 928/2/4
f 926/3/4 924/3/4 929/3/4
f 929/3/4 924/3/4 930/3/4
f 931/2/4 932/2/4 933/2/4
f 931/2/4 933/2/4 934/2/4
f 934/2/4 933/2/4 935/2/4
f 935/13/4 936/13/4 937/13/4
f 937/13/4 936/13/4 938/13/4
f 939/2/4 940/2/4 943/2/4
f 943/2/4 940/2/4 944/2/4
f 941/2/4 942/2/4 945/2/4
f 945/2/4 942/2/4 946/2/4
f 947/12/4 948/12/4 949/12/4
f 949/12/4 948/12/4 950/12/4
f 951/12/4 952/12/4 955/12/4
f 951/12/4 955/12/4 956/12/4
f 956/12/4 955/12/4 957/12/4
f 953/12/4 954/12/4 958/12/4
f 958/12/4 954/12/4 959/12/4
f 958/2/4 959/2/4 960/2/4
f 960/2/4 959/2/4 961/2/4
f 962/2/4 963/2/4 964/2/4
f 965/3/4 966/3/4 968/3/4
f 966/2/4 967/2/4 969/2/4
f 968/3/4 966/3/4 969/3/4
f 969/2/4 967/2/4 970/2/4
f 962/2/4 964/2/4 971/2/4
f 971/2/4 964/2/4 972/2/4
f 973/12/4 974/12/4 975/12/4
f 975/12/4 974/12/4 976/12/4
f 976/12/4 974/12/4 978/12/4
f 978/12/4 974/12/4 981/12/4
f 977/12/4 978/12/4 981/12/4
f 979/12/4 980/12/4 982/12/4
f 982/12/4 980/12/4 983/12/4
f 977/12/4 981/12/4 984/12/4
f 981/12/4 982/12/4 984/12/4
f 982/13/4 983/13/4 985/13/4
f 984/12/4 982/12/4 985/12/4
f 985/13/4 983/13/4 986/13/4
f 977/12/4 984/12/4 987/12/4
f 987/12/4 984/12/4 988/12/4
f 987/2/4 988/2/4 989/2/4
f 989/2/4 988/2/4 990/2/4
f 990/2/4 988/2/4 991/2/4
f 992/12/4 993/12/4 994/12/4
f 994/12/4 993/12/4 995/12/4
f 990/2/4 991/2/4 996/2/4
f 996/2/4 991/2/4 997/2/4
f 997/2/4 991/2/4 998/2/4
f 999/12/4 1000/12/4 1001/12/4
f 1001/12/4 1000/12/4 1002/12/4
f 1003/4/4 1004/4/4 1005/4/4
f 1005/4/4 1004/4/4 1006/4/4
f 1005/14/4 1006/14/4 1007/14/4
f 1007/14/4 1006/14/4 1008/14/4
f 1007/13/4 1008/13/4 1009/13/4
f 1009/13/4 1008/13/4 1010/13/4
f 1011/12/4 1012/12/4 1013/12/4
f 1013/12/4 1012/12/4 1014/12/4
f 1015/12/4 1016/12/4 1017/12/4
f 1017/12/4 1016/12/4 1018/12/4
f 1018/12/4 1016/12/4 1019/12/4
f 1019/12/4 1016/12/4 1020/12/4
f 1021/2/4 1022/2/4 1023/2/4
f 1023/2/4 1022/2/4 1024/2/4
f 1021/2/4 1023/2/4 1025/2/4
f 1023/3/4 1024/3/4 1025/3/4
f 1025/3/4 1024/3/4 1026/3/4
f 1021/2/4 1025/2/4 1027/2/4
f 1025/2/4 1026/2/4 1027/2/4
f 1027/2/4 1026/2/4 1028/2/4
f 1021/2/4 1027/2/4 1029/2/4
f 1027/3/4 1028/3/4 1029/3/4
f 1028/2/4 1026/2/4 1030/2/4
f 1029/3/4 1028/3/4 1030/3/4
f 1021/2/4 1029/2/4 1031/2/4
f 1029/2/4 1030/2/4 1031/2/4
f 1030/2/4 1026/2/4 1032/2/4
f 1031/2/4 1030/2/4 1032/2/4
f 1033/12/4 1034/12/4 1036/12/4
f 1036/12/4 1034/12/4 1037/12/4
f 1035/12/4 1036/12/4 1039/12/4
f 1037/12/4 1038/12/4 1039/12/4
f 1036/12/4 1037/12/4 1039/12/4
f 1039/12/4 1038/12/4 1040/12/4
f 1040/12/4 1038/12/4 1041/12/4
f 1041/12/4 1042/12/4 1043/12/4
f 1040/12/4 1041/12/4 1043/12/4
f 1043/12/4 1042/12/4 1044/12/4
f 1044/12/4 1042/12/4 1045/12/4
f 1045/12/4 1042/12/4 1046/12/4
f 1047/12/4 1048/12/4 1050/12/4
f 1049/12/4 1050/12/4 1053/12/4
f 1050/12/4 1048/12/4 1054/12/4
f 1053/12/4 1050/12/4 1054/12/4
f 1051/12/4 1052/12/4 1055/12/4
f 1055/12/4 1052/12/4 1056/12/4
f 1054/12/4 1048/12/4 1057/12/4
f 1057/12/4 1048/12/4 1058/12/4
f 1059/12/4 1060/12/4 1062/12/4
f 1061/12/4 1062/12/4 1063/12/4
f 1063/12/4 1062/12/4 1064/12/4
f 1062/12/4 1060/12/4 1065/12/4
f 1064/12/4 1062/12/4 1065/12/4
f 1065/12/4 1060/12/4 1066/12/4
f 1064/12/4 1065/12/4 1067/12/4
f 1067/12/4 1065/12/4 1068/12/4
f 1073/13/5 1070/13/5 1069/13/5
f 1074/13/5 1070/13/5 1073/13/5
f 1075/13/5 1072/13/5 1071/13/5
f 1076/13/5 1072/13/5 1075/13/5
f 1080/13/5 1078/13/5 1077/13/5
f 1081/12/5 1079/12/5 1078/12/5
f 1081/13/5 1078/13/5 1080/13/5
f 1084/12/5 1081/12/5 1080/12/5
f 1085/12/5 1079/12/5 1081/12/5
f 1085/12/5 1081/12/5 1084/12/5
f 1086/13/5 1083/13/5 1082/13/5
f 1087/13/5 1083/13/5 1086/13/5
f 1088/12/5 1087/12/5 1086/12/5
f 1089/12/5 1087/12/5 1088/12/5
f 1092/12/5 1091/12/5 1090/12/5
f 1093/12/5 1091/12/5 1092/12/5
f 1096/12/5 1095/12/5 1094/12/5
f 1099/12/5 1096/12/5 1094/12/5
f 1100/12/5 1096/12/5 1099/12/5
f 1101/13/5 1098/13/5 1097/13/5
f 1102/13/5 1098/13/5 1101/13/5
f 1103/12/5 1102/12/5 1101/12/5
f 1104/12/5 1102/12/5 1103/12/5
f 1107/12/5 1106/12/5 1105/12/5
f 1108/12/5 1106/12/5 1107/12/5
f 1111/12/5 1110/12/5 1109/12/5
f 1112/12/5 1110/12/5 1111/12/5
f 1115/12/5 1114/12/5 1113/12/5
f 1116/12/5 1114/12/5 1115/12/5
f 1122/12/5 1118/12/5 1117/12/5
f 1123/12/5 1120/12/5 1119/12/5
f 1124/12/5 1120/12/5 1123/12/5
f 1125/12/5 1122/12/5 1121/12/5
f 1126/12/5 1118/12/5 1122/12/5
f 1126/12/5 1122/12/5 1125/12/5
f 1132/12/5 1130/12/5 1129/12/5
f 1133/12/5 1130/12/5 1132/12/5
f 1134/12/5 1128/12/5 1127/12/5
f 1135/12/5 1128/12/5 1134/12/5
f 1136/12/5 1132/12/5 1131/12/5
f 1137/12/5 1132/12/5 1136/12/5
f 1142/12/5 1139/12/5 1138/12/5
f 1143/12/5 1139/12/5 1142/12/5
f 1144/12/5 1141/12/5 1140/12/5
f 1145/12/5 1141/12/5 1144/12/5
f 1148/2/5 1147/2/5 1146/2/5
f 1150/2/5 1148/2/5 1146/2/5
f 1150/2/5 1149/2/5 1148/2/5
f 1151/2/5 1149/2/5 1150/2/5
f 1152/2/5 1150/2/5 1146/2/5
f 1153/2/5 1150/2/5 1152/2/5
f 1158/12/5 1157/12/5 1156/12/5
f 1159/12/5 1157/12/5 1158/12/5
f 1160/12/5 1155/12/5 1154/12/5
f 1161/12/5 1155/12/5 1160/12/5
f 1162/12/5 1158/12/5 1156/12/5
f 1163/12/5 1158/12/5 1162/12/5
f 1168/15/5 1165/15/5 1164/15/5
f 1169/15/5 1165/15/5 1168/15/5
f 1170/15/5 1167/15/5 1166/15/5
f 1171/15/5 1167/15/5 1170/15/5
f 1173/12/5 1169/12/5 1168/12/5
f 1174/12/5 1169/12/5 1173/12/5
f 1178/2/5 1171/2/5 1170/2/5
f 1179/2/5 1171/2/5 1178/2/5
f 1180/2/5 1171/2/5 1179/2/5
f 1181/12/5 1177/12/5 1176/12/5
f 1181/2/5 1178/2/5 1177/2/5
f 1181/2/5 1179/2/5 1178/2/5
f 1182/2/5 1179/2/5 1181/2/5
f 1183/12/5 1173/12/5 1172/12/5
f 1183/12/5 1174/12/5 1173/12/5
f 1183/12/5 1175/12/5 1174/12/5
f 1184/12/5 1175/12/5 1183/12/5
f 1185/12/5 1175/12/5 1184/12/5
f 1186/12/5 1175/12/5 1185/12/5
f 1187/12/5 1175/12/5 1186/12/5
f 1188/12/5 1175/12/5 1187/12/5
f 1189/13/5 1176/13/5 1175/13/5
f 1189/12/5 1175/12/5 1188/12/5
f 1190/12/5 1181/12/5 1176/12/5
f 1190/13/5 1176/13/5 1189/13/5
f 1191/3/5 1182/3/5 1181/3/5
f 1191/12/5 1181/12/5 1190/12/5
f 1192/2/5 1179/2/5 1182/2/5
f 1192/3/5 1182/3/5 1191/3/5
f 1193/3/5 1180/3/5 1179/3/5
f 1197/2/5 1185/2/5 1184/2/5
f 1198/3/5 1186/3/5 1185/3/5
f 1198/2/5 1185/2/5 1197/2/5
f 1199/2/5 1187/2/5 1186/2/5
f 1199/3/5 1186/3/5 1198/3/5
f 1200/3/5 1188/3/5 1187/3/5
f 1200/2/5 1187/2/5 1199/2/5
f 1201/3/5 1188/3/5 1200/3/5
f 1202/2/5 1192/2/5 1191/2/5
f 1202/3/5 1188/3/5 1201/3/5
f 1202/2/5 1191/2/5 1190/2/5
f 1202/2/5 1190/2/5 1189/2/5
f 1202/2/5 1189/2/5 1188/2/5
f 1203/2/5 1192/2/5 1202/2/5
f 1204/3/5 1193/3/5 1179/3/5
f 1204/2/5 1192/2/5 1203/2/5
f 1204/2/5 1179/2/5 1192/2/5
f 1205/2/5 1194/2/5 1193/2/5
f 1205/3/5 1193/3/5 1204/3/5
f 1206/3/5 1203/3/5 1202/3/5
f 1206/2/5 1201/2/5 1200/2/5
f 1206/2/5 1200/2/5 1199/2/5
f 1206/2/5 1199/2/5 1198/2/5
f 1206/3/5 1202/3/5 1201/3/5
f 1207/2/5 1205/2/5 1204/2/5
f 1207/3/5 1203/3/5 1206/3/5
f 1207/2/5 1204/2/5 1203/2/5
f 1208/2/5 1207/2/5 1206/2/5
f 1209/2/5 1205/2/5 1207/2/5
f 1209/2/5 1207/2/5 1208/2/5
f 1210/2/5 1206/2/5 1198/2/5
f 1210/2/5 1208/2/5 1206/2/5
f 1211/2/5 1208/2/5 1210/2/5
f 1212/3/5 1209/3/5 1208/3/5
f 1212/2/5 1208/2/5 1211/2/5
f 1213/2/5 1205/2/5 1209/2/5
f 1213/3/5 1209/3/5 1212/3/5
f 1214/12/5 1196/12/5 1195/12/5
f 1215/12/5 1196/12/5 1214/12/5
f 1217/2/5 1210/2/5 1198/2/5
f 1218/3/5 1211/3/5 1210/3/5
f 1218/2/5 1210/2/5 1217/2/5
f 1219/2/5 1212/2/5 1211/2/5
f 1219/3/5 1211/3/5 1218/3/5
f 1219/2/5 1213/2/5 1212/2/5
f 1220/2/5 1205/2/5 1213/2/5
f 1220/2/5 1213/2/5 1219/2/5
f 1221/2/5 1205/2/5 1220/2/5
f 1222/2/5 1205/2/5 1221/2/5
f 1223/2/5 1205/2/5 1222/2/5
f 1225/2/5 1218/2/5 1217/2/5
f 1225/2/5 1219/2/5 1218/2/5
f 1225/2/5 1217/2/5 1216/2/5
f 1225/2/5 1220/2/5 1219/2/5
f 1226/3/5 1221/3/5 1220/3/5
f 1226/2/5 1220/2/5 1225/2/5
f 1227/2/5 1222/2/5 1221/2/5
f 1227/3/5 1221/3/5 1226/3/5
f 1228/3/5 1223/3/5 1222/3/5
f 1228/2/5 1222/2/5 1227/2/5
f 1229/3/5 1223/3/5 1228/3/5
f 1230/2/5 1205/2/5 1223/2/5
f 1230/3/5 1223/3/5 1229/3/5
f 1231/2/5 1194/2/5 1205/2/5
f 1231/2/5 1205/2/5 1230/2/5
f 1232/2/5 1194/2/5 1231/2/5
f 1233/3/5 1230/3/5 1229/3/5
f 1233/2/5 1229/2/5 1228/2/5
f 1233/3/5 1231/3/5 1230/3/5
f 1233/2/5 1228/2/5 1227/2/5
f 1234/3/5 1231/3/5 1233/3/5
f 1235/12/5 1227/12/5 1226/12/5
f 1235/12/5 1226/12/5 1225/12/5
f 1235/12/5 1225/12/5 1224/12/5
f 1236/12/5 1227/12/5 1235/12/5
f 1237/12/5 1227/12/5 1236/12/5
f 1238/2/5 1234/2/5 1233/2/5
f 1238/12/5 1227/12/5 1237/12/5
f 1238/2/5 1233/2/5 1227/2/5
f 1239/2/5 1234/2/5 1238/2/5
f 1240/12/5 1237/12/5 1236/12/5
f 1241/12/5 1237/12/5 1240/12/5
f 1242/2/5 1234/2/5 1239/2/5
f 1243/3/5 1231/3/5 1234/3/5
f 1243/2/5 1234/2/5 1242/2/5
f 1244/3/5 1231/3/5 1243/3/5
f 1245/15/5 1241/15/5 1240/15/5
f 1246/15/5 1241/15/5 1245/15/5
f 1247/15/5 1243/15/5 1242/15/5
f 1247/15/5 1244/15/5 1243/15/5
f 1248/15/5 1244/15/5 1247/15/5
f 1256/12/5 1250/12/5 1249/12/5
f 1257/12/5 1250/12/5 1256/12/5
f 1258/12/5 1252/12/5 1251/12/5
f 1259/13/5 1253/13/5 1252/13/5
f 1259/12/5 1252/12/5 1258/12/5
f 1260/12/5 1254/12/5 1253/12/5
f 1260/13/5 1253/13/5 1259/13/5
f 1261/12/5 1254/12/5 1260/12/5
f 1262/2/5 1255/2/5 1254/2/5
f 1262/12/5 1254/12/5 1261/12/5
f 1263/2/5 1255/2/5 1262/2/5
f 1266/2/5 1265/2/5 1264/2/5
f 1267/2/5 1265/2/5 1266/2/5
f 1275/3/5 1269/3/5 1268/3/5
f 1276/3/5 1269/3/5 1275/3/5
f 1277/12/5 1271/12/5 1270/12/5
f 1278/12/5 1271/12/5 1277/12/5
f 1279/12/5 1273/12/5 1272/12/5
f 1280/2/5 1274/2/5 1273/2/5
f 1280/12/5 1273/12/5 1279/12/5
f 1281/2/5 1274/2/5 1280/2/5
f 1284/2/5 1283/2/5 1282/2/5
f 1285/2/5 1283/2/5 1284/2/5
f 1288/2/5 1287/2/5 1286/2/5
f 1289/2/5 1287/2/5 1288/2/5
f 1292/12/5 1291/12/5 1290/12/5
f 1293/12/5 1291/12/5 1292/12/5
f 1294/12/5 1291/12/5 1293/12/5
f 1298/12/5 1296/12/5 1295/12/5
f 1298/12/5 1297/12/5 1296/12/5
f 1299/12/5 1297/12/5 1298/12/5
f 1304/13/5 1301/13/5 1300/13/5
f 1305/13/5 1301/13/5 1304/13/5
f 1306/12/5 1303/12/5 1302/12/5
f 1307/12/5 1303/12/5 1306/12/5
f 1312/12/5 1309/12/5 1308/12/5
f 1313/12/5 1309/12/5 1312/12/5
f 1314/12/5 1311/12/5 1310/12/5
f 1315/12/5 1311/12/5 1314/12/5
f 1318/2/5 1317/2/5 1316/2/5
f 1319/2/5 1317/2/5 1318/2/5
f 1320/2/5 1317/2/5 1319/2/5
f 1322/2/5 1318/2/5 1316/2/5
f 1323/2/5 1318/2/5 1322/2/5
f 1324/2/5 1318/2/5 1323/2/5
f 1325/2/5 1318/2/5 1324/2/5
f 1326/2/5 1320/2/5 1319/2/5
f 1327/2/5 1320/2/5 1326/2/5
f 1328/2/5 1322/2/5 1316/2/5
f 1329/3/5 1323/3/5 1322/3/5
f 1329/2/5 1322/2/5 1328/2/5
f 1330/3/5 1323/3/5 1329/3/5
f 1332/2/5 1320/2/5 1327/2/5
f 1333/12/5 1321/12/5 1320/12/5
f 1333/2/5 1320/2/5 1332/2/5
f 1334/12/5 1321/12/5 1333/12/5
f 1335/13/5 1331/13/5 1330/13/5
f 1336/13/5 1331/13/5 1335/13/5
f 1340/13/5 1338/13/5 1337/13/5
f 1341/13/5 1338/13/5 1340/13/5
f 1345/2/5 1340/2/5 1339/2/5
f 1349/3/5 1343/3/5 1342/3/5
f 1350/12/5 1344/12/5 1343/12/5
f 1350/3/5 1343/3/5 1349/3/5
f 1351/2/5 1347/2/5 1346/2/5
f 1351/2/5 1346/2/5 1345/2/5
f 1352/2/5 1349/2/5 1348/2/5
f 1352/2/5 1350/2/5 1349/2/5
f 1353/12/5 1344/12/5 1350/12/5
f 1353/2/5 1350/2/5 1352/2/5
f 1354/12/5 1344/12/5 1353/12/5
f 1355/2/5 1351/2/5 1345/2/5
f 1355/2/5 1352/2/5 1351/2/5
f 1355/2/5 1353/2/5 1352/2/5
f 1355/2/5 1345/2/5 1339/2/5
f 1356/2/5 1353/2/5 1355/2/5
f 1361/4/5 1358/4/5 1357/4/5
f 1362/4/5 1358/4/5 1361/4/5
f 1365/5/5 1362/5/5 1361/5/5
f 1366/4/5 1358/4/5 1362/4/5
f 1366/5/5 1362/5/5 1365/5/5
f 1367/14/5 1359/14/5 1358/14/5
f 1367/4/5 1358/4/5 1366/4/5
f 1368/13/5 1360/13/5 1359/13/5
f 1368/14/5 1359/14/5 1367/14/5
f 1369/13/5 1360/13/5 1368/13/5
f 1370/12/5 1364/12/5 1363/12/5
f 1371/12/5 1364/12/5 1370/12/5
f 1374/12/5 1373/12/5 1372/12/5
f 1375/12/5 1373/12/5 1374/12/5
f 1383/5/5 1377/5/5 1376/5/5
f 1384/4/5 1378/4/5 1377/4/5
f 1384/5/5 1377/5/5 1383/5/5
f 1385/12/5 1382/12/5 1381/12/5
f 1386/12/5 1382/12/5 1385/12/5
f 1387/4/5 1384/4/5 1383/4/5
f 1388/4/5 1378/4/5 1384/4/5
f 1388/4/5 1384/4/5 1387/4/5
f 1388/14/5 1379/14/5 1378/14/5
f 1389/13/5 1380/13/5 1379/13/5
f 1389/14/5 1379/14/5 1388/14/5
f 1390/13/5 1380/13/5 1389/13/5
f 1393/12/5 1392/12/5 1391/12/5
f 1394/12/5 1392/12/5 1393/12/5
f 1397/12/5 1396/12/5 1395/12/5
f 1398/12/5 1396/12/5 1397/12/5
f 1399/12/6 1400/12/6 1403/12/6
f 1403/12/6 1400/12/6 1404/12/6
f 1401/12/6 1402/12/6 1405/12/6
f 1405/12/6 1402/12/6 1406/12/6
f 1407/12/6 1408/12/6 1411/12/6
f 1411/12/6 1408/12/6 1412/12/6
f 1409/12/6 1410/12/6 1413/12/6
f 1413/12/6 1410/12/6 1414/12/6
f 1415/12/6 1416/12/6 1417/12/6
f 1417/12/6 1416/12/6 1418/12/6
f 1415/12/6 1417/12/6 1419/12/6
f 1419/12/6 1417/12/6 1420/12/6
f 1421/12/6 1422/12/6 1423/12/6
f 1423/12/6 1422/12/6 1424/12/6
f 1425/12/6 1426/12/6 1428/12/6
f 1428/12/6 1426/12/6 1429/12/6
f 1427/12/6 1428/12/6 1430/12/6
f 1430/12/6 1428/12/6 1431/12/6
f 1432/12/6 1433/12/6 1434/12/6
f 1434/12/6 1433/12/6 1435/12/6
f 1436/12/6 1437/12/6 1438/12/6
f 1438/12/6 1437/12/6 1439/12/6
f 1440/12/6 1441/12/6 1444/12/6
f 1444/12/6 1441/12/6 1445/12/6
f 1442/12/6 1443/12/6 1447/12/6
f 1446/12/6 1447/12/6 1448/12/6
f 1447/12/6 1443/12/6 1449/12/6
f 1448/12/6 1447/12/6 1449/12/6
f 1450/15/6 1451/15/6 1454/15/6
f 1454/15/6 1451/15/6 1455/15/6
f 1452/15/6 1453/15/6 1456/15/6
f 1456/15/6 1453/15/6 1457/15/6
f 1458/15/6 1459/15/6 1462/15/6
f 1462/15/6 1459/15/6 1463/15/6
f 1460/15/6 1461/15/6 1464/15/6
f 1464/15/6 1461/15/6 1465/15/6
f 1466/12/6 1467/12/6 1470/12/6
f 1470/12/6 1467/12/6 1471/12/6
f 1468/12/6 1469/12/6 1472/12/6
f 1472/12/6 1469/12/6 1473/12/6
f 1474/12/6 1475/12/6 1478/12/6
f 1478/12/6 1475/12/6 1479/12/6
f 1476/2/6 1477/2/6 1480/2/6
f 1480/2/6 1477/2/6 1481/2/6
f 1474/12/6 1478/12/6 1482/12/6
f 1482/12/6 1478/12/6 1483/12/6
f 1484/12/6 1485/12/6 1486/12/6
f 1484/12/6 1486/12/6 1490/12/6
f 1486/12/6 1487/12/6 1490/12/6
f 1490/12/6 1487/12/6 1491/12/6
f 1488/2/6 1489/2/6 1492/2/6
f 1492/2/6 1489/2/6 1493/2/6
f 1494/12/6 1495/12/6 1498/12/6
f 1498/12/6 1495/12/6 1499/12/6
f 1496/12/6 1497/12/6 1500/12/6
f 1500/12/6 1497/12/6 1501/12/6
f 1502/12/6 1503/12/6 1509/12/6
f 1503/12/6 1504/12/6 1509/12/6
f 1509/12/6 1504/12/6 1510/12/6
f 1510/12/6 1504/12/6 1511/12/6
f 1506/2/6 1507/2/6 1512/2/6
f 1505/2/6 1506/2/6 1512/2/6
f 1512/2/6 1507/2/6 1513/2/6
f 1513/2/6 1507/2/6 1514/2/6
f 1509/2/6 1510/2/6 1515/2/6
f 1508/2/6 1509/2/6 1515/2/6
f 1515/2/6 1510/2/6 1516/2/6
f 1516/2/6 1510/2/6 1517/2/6
f 1514/2/6 1507/2/6 1519/2/6
f 1517/2/6 1510/2/6 1522/2/6
f 1518/2/6 1519/2/6 1523/2/6
f 1519/2/6 1507/2/6 1524/2/6
f 1523/2/6 1519/2/6 1524/2/6
f 1520/2/6 1521/2/6 1525/2/6
f 1521/2/6 1522/2/6 1525/2/6
f 1522/2/6 1510/2/6 1526/2/6
f 1525/2/6 1522/2/6 1526/2/6
f 1526/2/6 1510/2/6 1527/2/6
f 1527/2/6 1510/2/6 1528/2/6
f 1524/2/6 1507/2/6 1529/2/6
f 1525/3/6 1526/3/6 1530/3/6
f 1526/2/6 1527/2/6 1531/2/6
f 1530/3/6 1526/3/6 1531/3/6
f 1527/3/6 1528/3/6 1532/3/6
f 1531/2/6 1527/2/6 1532/2/6
f 1532/3/6 1528/3/6 1533/3/6
f 1529/2/6 1507/2/6 1536/2/6
f 1533/12/6 1534/12/6 1537/12/6
f 1531/12/6 1532/12/6 1537/12/6
f 1532/12/6 1533/12/6 1537/12/6
f 1537/12/6 1534/12/6 1538/12/6
f 1538/12/6 1534/12/6 1539/12/6
f 1535/2/6 1536/2/6 1540/2/6
f 1540/2/6 1536/2/6 1541/2/6
f 1536/2/6 1507/2/6 1542/2/6
f 1541/2/6 1536/2/6 1542/2/6
f 1543/12/6 1544/12/6 1548/12/6
f 1548/12/6 1544/12/6 1549/12/6
f 1546/3/6 1547/3/6 1552/3/6
f 1545/2/6 1546/2/6 1552/2/6
f 1552/3/6 1547/3/6 1553/3/6
f 1553/3/6 1547/3/6 1554/3/6
f 1550/2/6 1551/2/6 1557/2/6
f 1557/2/6 1551/2/6 1558/2/6
f 1558/2/6 1551/2/6 1559/2/6
f 1545/2/6 1552/2/6 1565/2/6
f 1552/2/6 1553/2/6 1565/2/6
f 1565/2/6 1553/2/6 1566/2/6
f 1553/3/6 1554/3/6 1567/3/6
f 1566/2/6 1553/2/6 1567/2/6
f 1554/3/6 1555/3/6 1567/3/6
f 1555/2/6 1556/2/6 1568/2/6
f 1567/3/6 1555/3/6 1568/3/6
f 1556/2/6 1557/2/6 1568/2/6
f 1557/2/6 1558/2/6 1568/2/6
f 1558/3/6 1559/3/6 1569/3/6
f 1568/2/6 1558/2/6 1569/2/6
f 1569/3/6 1559/3/6 1570/3/6
f 1560/11/6 1561/11/6 1571/11/6
f 1561/8/6 1562/8/6 1572/8/6
f 1571/11/6 1561/11/6 1572/11/6
f 1571/8/6 1572/8/6 1573/8/6
f 1562/9/6 1563/9/6 1574/9/6
f 1573/8/6 1572/8/6 1574/8/6
f 1572/8/6 1562/8/6 1574/8/6
f 1563/10/6 1564/10/6 1575/10/6
f 1574/9/6 1563/9/6 1575/9/6
f 1575/10/6 1564/10/6 1576/10/6
f 1565/3/6 1566/3/6 1577/3/6
f 1545/2/6 1565/2/6 1577/2/6
f 1566/2/6 1567/2/6 1578/2/6
f 1577/3/6 1566/3/6 1578/3/6
f 1567/2/6 1568/2/6 1578/2/6
f 1568/2/6 1569/2/6 1578/2/6
f 1578/2/6 1569/2/6 1579/2/6
f 1579/2/6 1569/2/6 1580/2/6
f 1580/2/6 1569/2/6 1581/2/6
f 1577/2/6 1578/2/6 1583/2/6
f 1578/2/6 1579/2/6 1583/2/6
f 1579/3/6 1580/3/6 1584/3/6
f 1583/2/6 1579/2/6 1584/2/6
f 1580/2/6 1581/2/6 1585/2/6
f 1584/3/6 1580/3/6 1585/3/6
f 1585/2/6 1581/2/6 1586/2/6
f 1581/3/6 1582/3/6 1587/3/6
f 1586/2/6 1581/2/6 1587/2/6
f 1587/3/6 1582/3/6 1588/3/6
f 1545/2/6 1577/2/6 1589/2/6
f 1577/2/6 1583/2/6 1589/2/6
f 1589/2/6 1583/2/6 1590/2/6
f 1587/2/6 1588/2/6 1593/2/6
f 1586/2/6 1587/2/6 1593/2/6
f 1593/2/6 1588/2/6 1594/2/6
f 1591/12/6 1592/12/6 1595/12/6
f 1595/12/6 1592/12/6 1596/12/6
f 1597/13/6 1598/13/6 1601/13/6
f 1599/13/6 1600/13/6 1602/13/6
f 1602/13/6 1600/13/6 1603/13/6
f 1597/13/6 1601/13/6 1604/13/6
f 1601/13/6 1602/13/6 1604/13/6
f 1602/13/6 1603/13/6 1604/13/6
f 1604/13/6 1603/13/6 1605/13/6
f 1606/13/6 1607/13/6 1608/13/6
f 1608/13/6 1607/13/6 1609/13/6
f 1606/13/6 1608/13/6 1610/13/6
f 1610/13/6 1608/13/6 1611/13/6
f 1609/13/6 1607/13/6 1612/13/6
f 1612/13/6 1607/13/6 1613/13/6
f 1614/12/6 1615/12/6 1616/12/6
f 1616/12/6 1615/12/6 1617/12/6
f 1618/2/6 1619/2/6 1625/2/6
f 1619/3/6 1620/3/6 1626/3/6
f 1625/2/6 1619/2/6 1626/2/6
f 1620/2/6 1621/2/6 1627/2/6
f 1626/3/6 1620/3/6 1627/3/6
f 1627/2/6 1621/2/6 1628/2/6
f 1622/4/6 1623/4/6 1630/4/6
f 1630/4/6 1623/4/6 1631/4/6
f 1623/14/6 1624/14/6 1632/14/6
f 1631/4/6 1623/4/6 1632/4/6
f 1630/6/6 1631/6/6 1633/6/6
f 1631/5/6 1632/5/6 1634/5/6
f 1633/6/6 1631/6/6 1634/6/6
f 1632/14/6 1624/14/6 1635/14/6
f 1634/5/6 1632/5/6 1635/5/6
f 1624/13/6 1625/13/6 1636/13/6
f 1635/14/6 1624/14/6 1636/14/6
f 1625/2/6 1626/2/6 1637/2/6
f 1636/13/6 1625/13/6 1637/13/6
f 1626/2/6 1627/2/6 1637/2/6
f 1627/2/6 1628/2/6 1637/2/6
f 1628/12/6 1629/12/6 1638/12/6
f 1637/2/6 1628/2/6 1638/2/6
f 1638/12/6 1629/12/6 1639/12/6
f 1640/6/6 1641/6/6 1648/6/6
f 1641/5/6 1642/5/6 1649/5/6
f 1648/6/6 1641/6/6 1649/6/6
f 1642/14/6 1643/14/6 1650/14/6
f 1649/5/6 1642/5/6 1650/5/6
f 1643/13/6 1644/13/6 1651/13/6
f 1644/3/6 1645/3/6 1651/3/6
f 1645/2/6 1646/2/6 1652/2/6
f 1651/3/6 1645/3/6 1652/3/6
f 1648/4/6 1649/4/6 1653/4/6
f 1649/4/6 1650/4/6 1653/4/6
f 1650/14/6 1643/14/6 1654/14/6
f 1653/4/6 1650/4/6 1654/4/6
f 1643/13/6 1651/13/6 1655/13/6
f 1654/14/6 1643/14/6 1655/14/6
f 1651/2/6 1652/2/6 1656/2/6
f 1655/13/6 1651/13/6 1656/13/6
f 1652/2/6 1646/2/6 1657/2/6
f 1656/2/6 1652/2/6 1657/2/6
f 1657/2/6 1646/2/6 1658/2/6
f 1646/12/6 1647/12/6 1659/12/6
f 1658/2/6 1646/2/6 1659/2/6
f 1659/12/6 1647/12/6 1660/12/6
f 1656/2/6 1657/2/6 1661/2/6
f 1657/3/6 1658/3/6 1662/3/6
f 1661/2/6 1657/2/6 1662/2/6
f 1658/2/6 1659/2/6 1663/2/6
f 1662/3/6 1658/3/6 1663/3/6
f 1663/2/6 1659/2/6 1664/2/6
f 1665/1/6 1666/1/6 1667/1/6
f 1667/1/6 1666/1/6 1668/1/6
