# MagicaVoxel @ Ephtracy

# material
mtllib HEAVY02-01.mtl
usemtl palette

# normals
vn -1 0 0
vn 1 0 0
vn 0 0 1
vn 0 0 -1
vn 0 -1 0
vn 0 1 0

# texcoords
vt 0.0566406 0.5
vt 0.0605469 0.5
vt 0.0761719 0.5
vt 0.173828 0.5
vt 0.373047 0.5
vt 0.427734 0.5
vt 0.482422 0.5
vt 0.677734 0.5
vt 0.689453 0.5
vt 0.728516 0.5
vt 0.912109 0.5
vt 0.935547 0.5
vt 0.982422 0.5
vt 0.986328 0.5
vt 0.994141 0.5

# verts
v -11 10 2
v -11 10 -2
v -11 11 2
v -11 11 1
v -11 11 -1
v -11 11 -2
v -11 13 1
v -11 13 -1
v -11 14 1
v -11 14 -0
v -11 15 1
v -11 15 -0
v -11 15 -1
v -11 17 1
v -11 17 -0
v -11 17 -1
v -9 8 3
v -9 8 -3
v -9 10 3
v -9 10 2
v -9 10 -2
v -9 11 3
v -9 11 2
v -9 11 1
v -9 11 -1
v -9 11 -2
v -9 13 1
v -9 13 -1
v -9 14 -2
v -9 14 -3
v -9 15 3
v -9 15 1
v -9 15 -1
v -9 15 -2
v -9 15 -3
v -8 1 -8
v -8 1 -9
v -8 1 -10
v -8 3 -8
v -8 3 -9
v -8 3 -10
v -8 10 5
v -8 10 3
v -8 10 -3
v -8 10 -5
v -8 11 6
v -8 11 5
v -8 11 3
v -8 11 -5
v -8 11 -6
v -8 12 4
v -8 12 3
v -8 13 4
v -8 13 3
v -8 14 6
v -8 14 3
v -8 14 -3
v -8 14 -6
v -8 17 7
v -8 17 6
v -8 17 -6
v -8 17 -7
v -8 18 6
v -8 18 5
v -8 18 -5
v -8 18 -6
v -8 19 6
v -8 19 5
v -8 19 -5
v -8 19 -6
v -8 20 7
v -8 20 6
v -8 20 -6
v -8 20 -7
v -8 21 6
v -8 21 5
v -8 21 -5
v -8 21 -6
v -7 2 10
v -7 2 8
v -7 3 -8
v -7 3 -9
v -7 3 -10
v -7 5 -8
v -7 5 -10
v -7 8 -8
v -7 8 -10
v -7 10 10
v -7 10 8
v -7 10 -8
v -7 10 -10
v -6 0 10
v -6 0 8
v -6 2 10
v -6 2 8
v -6 5 -8
v -6 5 -10
v -6 8 -8
v -6 8 -10
v -6 10 10
v -6 10 8
v -6 10 6
v -6 10 5
v -6 10 -5
v -6 10 -6
v -6 10 -8
v -6 10 -10
v -6 11 6
v -6 11 5
v -6 11 -5
v -6 11 -6
v -6 13 10
v -6 13 8
v -6 13 6
v -6 13 -6
v -6 13 -8
v -6 14 5
v -6 14 3
v -6 14 -3
v -6 14 -5
v -6 14 -8
v -6 14 -10
v -6 15 5
v -6 15 3
v -6 15 -3
v -6 15 -5
v -4 15 3
v -4 15 -2
v -4 15 -3
v -4 17 9
v -4 17 7
v -4 17 6
v -4 17 5
v -4 17 3
v -4 17 -3
v -4 17 -5
v -4 17 -6
v -4 17 -7
v -4 17 -8
v -4 18 6
v -4 18 5
v -4 18 -5
v -4 18 -6
v -4 20 7
v -4 20 6
v -4 20 -6
v -4 20 -7
v -4 21 9
v -4 21 6
v -4 21 -6
v -4 21 -8
v 1 15 6
v 1 15 5
v 1 15 -5
v 1 15 -6
v 1 17 6
v 1 17 5
v 1 17 3
v 1 17 2
v 1 17 -2
v 1 17 -3
v 1 17 -5
v 1 17 -6
v 1 18 5
v 1 18 2
v 1 18 -2
v 1 18 -5
v 2 14 6
v 2 14 5
v 2 14 -5
v 2 14 -6
v 2 15 6
v 2 15 5
v 2 15 3
v 2 15 -3
v 2 15 -5
v 2 15 -6
v 2 17 5
v 2 17 3
v 2 17 -3
v 2 17 -5
v 3 14 7
v 3 14 6
v 3 14 -6
v 3 14 -7
v 3 15 -6
v 3 17 7
v 3 17 6
v 3 17 5
v 3 17 3
v 3 17 -3
v 3 17 -5
v 3 17 -6
v 3 17 -7
v 3 18 5
v 3 18 3
v 3 18 -3
v 3 18 -5
v 4 1 11
v 4 1 9
v 4 3 11
v 4 3 9
v 4 6 -9
v 4 6 -11
v 4 9 -9
v 4 9 -11
v 5 2 -9
v 5 2 -10
v 5 3 11
v 5 3 9
v 5 3 -10
v 5 3 -11
v 5 4 11
v 5 4 9
v 5 6 11
v 5 6 9
v 5 6 -9
v 5 6 -11
v 5 9 -8
v 5 9 -9
v 5 9 -11
v 5 10 -8
v 5 10 -11
v 6 0 -9
v 6 0 -10
v 6 0 -11
v 6 2 -9
v 6 2 -10
v 6 3 -10
v 6 3 -11
v 6 6 11
v 6 6 9
v 6 6 -8
v 6 6 -9
v 6 7 11
v 6 7 9
v 6 8 10
v 6 8 8
v 6 9 -8
v 6 9 -9
v 6 10 8
v 6 10 6
v 6 10 5
v 6 10 -5
v 6 10 -6
v 6 10 -8
v 6 10 -10
v 6 11 6
v 6 11 5
v 6 11 -5
v 6 11 -6
v 6 13 8
v 6 13 6
v 6 13 -6
v 6 13 -8
v 6 13 -10
v 6 14 10
v 6 14 8
v 6 18 3
v 6 18 2
v 6 20 3
v 6 20 2
v 7 7 11
v 7 7 9
v 7 7 8
v 7 8 10
v 7 8 8
v 7 11 11
v 7 11 10
v 7 20 3
v 7 20 2
v 7 22 3
v 7 22 2
v 7 23 3
v 7 23 2
v -6 1 -8
v -6 1 -9
v -6 1 -10
v -6 3 -8
v -6 3 -9
v -6 3 -10
v -6 8 3
v -6 8 2
v -6 8 -2
v -6 8 -3
v -6 10 3
v -6 10 2
v -6 10 -2
v -6 10 -3
v -6 15 1
v -6 15 -1
v -6 17 1
v -6 17 -1
v -4 0 10
v -4 0 8
v -4 2 10
v -4 2 8
v -4 3 -8
v -4 3 -10
v -4 5 -8
v -4 5 -10
v -4 6 10
v -4 6 8
v -4 8 2
v -4 8 -2
v -4 10 10
v -4 10 8
v -4 10 6
v -4 10 5
v -4 10 2
v -4 10 -2
v -4 10 -5
v -4 10 -6
v -4 10 -8
v -4 10 -10
v -4 11 6
v -4 11 5
v -4 11 -5
v -4 11 -6
v -4 13 10
v -4 13 8
v -4 13 6
v -4 13 -6
v -4 13 -8
v -4 14 -8
v -4 14 -10
v -3 5 -8
v -3 5 -10
v -3 6 10
v -3 6 8
v -3 7 -8
v -3 7 -10
v -3 8 -8
v -3 8 -10
v -3 10 10
v -3 10 8
v -3 10 -8
v -3 10 -10
v -2 7 -8
v -2 7 -10
v -2 8 -8
v -2 8 -10
v 2 17 5
v 2 17 3
v 2 17 -3
v 2 17 -5
v 2 18 5
v 2 18 3
v 2 18 -3
v 2 18 -5
v 6 1 11
v 6 1 9
v 6 3 11
v 6 3 9
v 6 14 7
v 6 14 6
v 6 14 5
v 6 14 -5
v 6 14 -6
v 6 14 -7
v 6 15 6
v 6 15 5
v 6 15 3
v 6 15 -3
v 6 15 -5
v 6 15 -6
v 6 17 7
v 6 17 6
v 6 17 5
v 6 17 3
v 6 17 -2
v 6 17 -3
v 6 17 -5
v 6 17 -6
v 6 17 -7
v 6 18 5
v 6 18 3
v 6 18 -2
v 6 18 -5
v 7 2 -9
v 7 2 -10
v 7 3 11
v 7 3 9
v 7 3 -9
v 7 3 -10
v 7 4 11
v 7 4 9
v 7 17 3
v 7 17 2
v 7 18 3
v 7 18 2
v 8 0 -9
v 8 0 -10
v 8 0 -11
v 8 2 -9
v 8 2 -10
v 8 3 -9
v 8 3 -10
v 8 4 11
v 8 4 9
v 8 6 11
v 8 6 9
v 8 6 -9
v 8 6 -11
v 8 7 9
v 8 7 8
v 8 8 9
v 8 8 8
v 8 9 -10
v 8 9 -11
v 8 10 -10
v 8 10 -11
v 8 15 6
v 8 15 5
v 8 15 1
v 8 15 -1
v 8 15 -5
v 8 15 -6
v 8 17 6
v 8 17 5
v 8 17 1
v 8 17 -1
v 8 17 -5
v 8 17 -6
v 8 18 3
v 8 18 2
v 8 22 3
v 8 22 2
v 8 23 3
v 8 23 2
v 9 6 11
v 9 6 9
v 9 6 -8
v 9 6 -11
v 9 8 11
v 9 8 9
v 9 9 -10
v 9 9 -11
v 9 10 8
v 9 10 6
v 9 10 5
v 9 10 3
v 9 10 -3
v 9 10 -6
v 9 10 -8
v 9 11 10
v 9 11 8
v 9 11 5
v 9 11 3
v 9 11 -3
v 9 11 -5
v 9 11 -6
v 9 12 -5
v 9 13 8
v 9 13 6
v 9 13 5
v 9 13 -5
v 9 13 -6
v 9 13 -8
v 9 13 -10
v 9 14 10
v 9 14 8
v 9 15 3
v 9 15 2
v 9 15 1
v 9 15 -1
v 9 15 -2
v 9 15 -3
v 9 17 9
v 9 17 7
v 9 17 3
v 9 17 2
v 9 17 1
v 9 17 -1
v 9 17 -2
v 9 17 -3
v 9 17 -7
v 9 17 -8
v 9 21 9
v 9 21 7
v 9 21 -7
v 9 21 -8
v 10 8 11
v 10 8 8
v 10 10 3
v 10 10 -3
v 10 11 11
v 10 11 8
v 10 11 5
v 10 11 3
v 10 11 2
v 10 11 -2
v 10 11 -3
v 10 11 -5
v 10 12 4
v 10 12 3
v 10 12 2
v 10 12 1
v 10 12 -1
v 10 12 -2
v 10 12 -3
v 10 12 -5
v 10 13 6
v 10 13 5
v 10 13 4
v 10 13 3
v 10 13 -3
v 10 13 -4
v 10 13 -5
v 10 13 -6
v 10 14 6
v 10 14 5
v 10 14 4
v 10 14 1
v 10 14 -1
v 10 14 -4
v 10 14 -5
v 10 14 -6
v 10 15 5
v 10 15 -5
v 10 17 7
v 10 17 5
v 10 17 -5
v 10 17 -7
v 10 18 6
v 10 18 5
v 10 18 -5
v 10 18 -6
v 10 20 7
v 10 20 6
v 10 20 -6
v 10 20 -7
v 11 18 6
v 11 18 5
v 11 18 -5
v 11 18 -6
v 11 20 7
v 11 20 6
v 11 20 -6
v 11 20 -7
v 11 21 7
v 11 21 5
v 11 21 -5
v 11 21 -7
v 4 1 11
v 4 3 11
v 5 3 11
v 5 4 11
v 5 6 11
v 6 1 11
v 6 3 11
v 6 6 11
v 6 7 11
v 7 3 11
v 7 4 11
v 7 6 11
v 7 7 11
v 7 11 11
v 8 4 11
v 8 6 11
v 8 7 11
v 9 6 11
v 9 8 11
v 10 8 11
v 10 11 11
v -7 2 10
v -7 10 10
v -6 0 10
v -6 2 10
v -6 10 10
v -6 13 10
v -4 0 10
v -4 2 10
v -4 6 10
v -4 10 10
v -4 13 10
v -3 6 10
v -3 10 10
v 6 8 10
v 6 14 10
v 7 8 10
v 7 11 10
v 9 11 10
v 9 14 10
v -4 17 9
v -4 21 9
v -1 20 9
v -1 21 9
v 2 20 9
v 2 21 9
v 5 18 9
v 5 20 9
v 6 18 9
v 6 20 9
v 9 17 9
v 9 21 9
v -8 17 7
v -8 20 7
v -6 17 7
v -6 20 7
v -5 17 7
v -5 20 7
v -4 17 7
v -4 20 7
v 3 14 7
v 3 17 7
v 6 14 7
v 6 17 7
v 9 17 7
v 9 21 7
v 10 17 7
v 10 20 7
v 11 20 7
v 11 21 7
v -8 11 6
v -8 14 6
v -8 20 6
v -8 21 6
v -7 20 6
v -7 21 6
v -6 11 6
v -6 13 6
v -6 20 6
v -6 21 6
v -5 20 6
v -5 21 6
v -4 11 6
v -4 13 6
v -4 20 6
v -4 21 6
v -1 11 6
v -1 13 6
v 1 11 6
v 1 13 6
v 1 15 6
v 1 17 6
v 2 14 6
v 2 15 6
v 2 17 6
v 3 14 6
v 3 17 6
v 5 11 6
v 5 14 6
v 6 11 6
v 6 13 6
v 6 14 6
v 6 15 6
v 6 17 6
v 8 15 6
v 8 17 6
v 9 13 6
v 10 13 6
v 10 14 6
v 10 18 6
v 10 20 6
v 11 18 6
v 11 20 6
v -8 10 5
v -8 11 5
v -6 10 5
v -6 11 5
v -6 14 5
v -6 15 5
v -4 10 5
v -4 11 5
v -1 11 5
v 1 10 5
v 1 11 5
v 1 15 5
v 2 10 5
v 2 11 5
v 2 14 5
v 2 15 5
v 5 10 5
v 5 11 5
v 6 10 5
v 6 11 5
v 6 14 5
v 6 15 5
v 8 15 5
v 9 11 5
v 9 13 5
v 10 11 5
v 10 13 5
v 10 14 5
v 10 15 5
v -9 8 3
v -9 10 3
v -9 11 3
v -9 15 3
v -8 10 3
v -8 11 3
v -8 12 3
v -8 13 3
v -8 14 3
v -6 8 3
v -6 10 3
v -6 14 3
v -6 15 3
v -4 15 3
v -4 17 3
v -1 16 3
v -1 17 3
v 1 16 3
v 1 17 3
v 2 15 3
v 2 17 3
v 2 18 3
v 3 17 3
v 3 18 3
v 6 15 3
v 6 17 3
v 6 18 3
v 6 20 3
v 7 17 3
v 7 18 3
v 7 20 3
v 7 22 3
v 7 23 3
v 8 18 3
v 8 22 3
v 8 23 3
v 9 10 3
v 9 11 3
v 9 15 3
v 9 17 3
v 10 10 3
v 10 11 3
v -11 10 2
v -11 11 2
v -9 10 2
v -9 11 2
v -6 8 2
v -6 10 2
v -4 8 2
v -4 10 2
v -11 11 1
v -11 13 1
v -11 14 1
v -11 15 1
v -11 17 1
v -10 14 1
v -10 15 1
v -10 17 1
v -9 11 1
v -9 13 1
v -9 15 1
v -9 17 1
v -8 15 1
v -8 17 1
v -6 15 1
v -6 17 1
v 8 15 -1
v 8 17 -1
v 9 15 -1
v 9 17 -1
v 1 17 -2
v 1 18 -2
v 2 17 -2
v 5 17 -2
v 6 17 -2
v 6 18 -2
v -8 18 -5
v -8 19 -5
v -8 21 -5
v -7 18 -5
v -7 19 -5
v -7 21 -5
v -6 18 -5
v -6 19 -5
v -6 21 -5
v -5 18 -5
v -5 21 -5
v -4 17 -5
v -4 18 -5
v -4 20 -5
v -4 21 -5
v -1 20 -5
v -1 21 -5
v 1 15 -5
v 1 17 -5
v 1 18 -5
v 2 15 -5
v 2 17 -5
v 2 18 -5
v 2 20 -5
v 3 17 -5
v 3 18 -5
v 3 20 -5
v 6 15 -5
v 6 17 -5
v 6 18 -5
v 8 15 -5
v 8 17 -5
v 9 17 -5
v 9 18 -5
v 9 21 -5
v 10 17 -5
v 10 18 -5
v 11 18 -5
v 11 21 -5
v -8 17 -6
v -8 18 -6
v -7 18 -6
v -6 17 -6
v -6 18 -6
v -5 17 -6
v -5 18 -6
v -4 17 -6
v -4 18 -6
v -8 1 -8
v -8 3 -8
v -7 3 -8
v -7 5 -8
v -7 8 -8
v -7 10 -8
v -6 1 -8
v -6 3 -8
v -6 5 -8
v -6 8 -8
v -6 10 -8
v -6 13 -8
v -6 14 -8
v -4 3 -8
v -4 5 -8
v -4 10 -8
v -4 13 -8
v -4 14 -8
v -3 5 -8
v -3 7 -8
v -3 8 -8
v -3 10 -8
v -2 7 -8
v -2 8 -8
v 5 9 -8
v 5 10 -8
v 6 6 -8
v 6 9 -8
v 6 10 -8
v 9 6 -8
v 9 10 -8
v 4 6 -9
v 4 9 -9
v 5 2 -9
v 5 6 -9
v 5 9 -9
v 6 0 -9
v 6 2 -9
v 6 6 -9
v 6 9 -9
v 7 2 -9
v 7 3 -9
v 8 0 -9
v 8 2 -9
v 8 3 -9
v 8 6 -9
v 7 2 -10
v 7 3 -10
v 8 2 -10
v 8 3 -10
v 4 1 9
v 4 3 9
v 5 3 9
v 5 4 9
v 5 6 9
v 6 1 9
v 6 3 9
v 6 6 9
v 6 7 9
v 7 3 9
v 7 4 9
v 7 7 9
v 8 4 9
v 8 6 9
v 8 7 9
v 8 8 9
v 9 6 9
v 9 8 9
v -7 2 8
v -7 10 8
v -6 0 8
v -6 2 8
v -6 10 8
v -4 0 8
v -4 2 8
v -4 6 8
v -4 10 8
v -3 6 8
v -3 10 8
v 6 8 8
v 6 10 8
v 6 13 8
v 6 14 8
v 7 7 8
v 7 8 8
v 8 7 8
v 8 8 8
v 9 10 8
v 9 11 8
v 9 13 8
v 9 14 8
v 10 8 8
v 10 11 8
v -8 17 6
v -8 18 6
v -7 18 6
v -6 17 6
v -6 18 6
v -5 17 6
v -5 18 6
v -4 17 6
v -4 18 6
v -8 18 5
v -8 19 5
v -8 21 5
v -7 18 5
v -7 19 5
v -7 21 5
v -6 18 5
v -6 19 5
v -6 21 5
v -5 18 5
v -5 21 5
v -4 17 5
v -4 18 5
v -4 21 5
v -1 17 5
v -1 18 5
v 1 15 5
v 1 17 5
v 1 18 5
v 2 15 5
v 2 17 5
v 2 18 5
v 3 17 5
v 3 18 5
v 6 15 5
v 6 17 5
v 6 18 5
v 8 15 5
v 8 17 5
v 9 17 5
v 9 21 5
v 10 17 5
v 10 18 5
v 11 18 5
v 11 21 5
v 1 17 2
v 1 18 2
v 2 17 2
v 6 17 2
v 6 18 2
v 6 20 2
v 7 17 2
v 7 18 2
v 7 20 2
v 7 22 2
v 7 23 2
v 8 18 2
v 8 22 2
v 8 23 2
v 8 15 1
v 8 17 1
v 9 15 1
v 9 17 1
v -11 11 -1
v -11 13 -1
v -11 15 -1
v -11 17 -1
v -9 11 -1
v -9 13 -1
v -9 15 -1
v -9 17 -1
v -8 15 -1
v -8 17 -1
v -6 15 -1
v -6 17 -1
v -11 10 -2
v -11 11 -2
v -9 10 -2
v -9 11 -2
v -6 8 -2
v -6 10 -2
v -4 8 -2
v -4 10 -2
v -9 8 -3
v -9 14 -3
v -9 15 -3
v -8 10 -3
v -8 14 -3
v -6 8 -3
v -6 10 -3
v -6 14 -3
v -6 15 -3
v -4 15 -3
v -4 17 -3
v 1 17 -3
v 2 15 -3
v 2 17 -3
v 2 18 -3
v 3 17 -3
v 3 18 -3
v 6 15 -3
v 6 17 -3
v 9 10 -3
v 9 11 -3
v 9 15 -3
v 9 17 -3
v 10 10 -3
v 10 11 -3
v -8 10 -5
v -8 11 -5
v -6 10 -5
v -6 11 -5
v -6 14 -5
v -6 15 -5
v -4 10 -5
v -4 11 -5
v 1 15 -5
v 2 14 -5
v 2 15 -5
v 5 10 -5
v 5 11 -5
v 6 10 -5
v 6 11 -5
v 6 14 -5
v 6 15 -5
v 8 15 -5
v 9 11 -5
v 9 12 -5
v 9 13 -5
v 10 11 -5
v 10 12 -5
v 10 13 -5
v 10 14 -5
v 10 15 -5
v -8 11 -6
v -8 14 -6
v -8 20 -6
v -8 21 -6
v -7 20 -6
v -7 21 -6
v -6 11 -6
v -6 13 -6
v -6 20 -6
v -6 21 -6
v -5 20 -6
v -5 21 -6
v -4 11 -6
v -4 13 -6
v -4 20 -6
v -4 21 -6
v 1 15 -6
v 1 17 -6
v 2 14 -6
v 2 15 -6
v 2 17 -6
v 3 14 -6
v 3 15 -6
v 3 17 -6
v 5 11 -6
v 5 14 -6
v 6 11 -6
v 6 13 -6
v 6 14 -6
v 6 15 -6
v 6 17 -6
v 8 15 -6
v 8 17 -6
v 9 13 -6
v 10 13 -6
v 10 14 -6
v 10 18 -6
v 10 20 -6
v 11 18 -6
v 11 20 -6
v -8 17 -7
v -8 20 -7
v -6 17 -7
v -6 20 -7
v -5 17 -7
v -5 20 -7
v -4 17 -7
v -4 20 -7
v 3 14 -7
v 3 17 -7
v 6 14 -7
v 6 17 -7
v 9 17 -7
v 9 21 -7
v 10 17 -7
v 10 20 -7
v 11 20 -7
v 11 21 -7
v -4 17 -8
v -4 21 -8
v -1 20 -8
v -1 21 -8
v 2 20 -8
v 2 21 -8
v 3 18 -8
v 3 20 -8
v 5 18 -8
v 5 20 -8
v 9 17 -8
v 9 21 -8
v -8 1 -10
v -8 3 -10
v -7 3 -10
v -7 5 -10
v -7 8 -10
v -7 10 -10
v -6 1 -10
v -6 3 -10
v -6 5 -10
v -6 8 -10
v -6 10 -10
v -6 14 -10
v -4 3 -10
v -4 5 -10
v -4 10 -10
v -4 14 -10
v -3 5 -10
v -3 7 -10
v -3 8 -10
v -3 10 -10
v -2 7 -10
v -2 8 -10
v 5 2 -10
v 5 3 -10
v 6 2 -10
v 6 3 -10
v 6 10 -10
v 6 13 -10
v 8 9 -10
v 8 10 -10
v 9 9 -10
v 9 13 -10
v 4 6 -11
v 4 9 -11
v 5 3 -11
v 5 6 -11
v 5 9 -11
v 5 10 -11
v 6 0 -11
v 6 3 -11
v 8 0 -11
v 8 6 -11
v 8 9 -11
v 8 10 -11
v 9 6 -11
v 9 9 -11
v -6 0 10
v -4 0 10
v -6 0 8
v -4 0 8
v 6 0 -9
v 8 0 -9
v 6 0 -10
v 8 0 -10
v 6 0 -11
v 8 0 -11
v 4 1 11
v 6 1 11
v 4 1 9
v 6 1 9
v -8 1 -8
v -6 1 -8
v -8 1 -9
v -6 1 -9
v -8 1 -10
v -6 1 -10
v -7 2 10
v -6 2 10
v -7 2 8
v -6 2 8
v 5 2 -9
v 6 2 -9
v 5 2 -10
v 6 2 -10
v 6 3 11
v 7 3 11
v 6 3 9
v 7 3 9
v -6 3 -8
v -4 3 -8
v -6 3 -9
v 7 3 -9
v 8 3 -9
v -6 3 -10
v -4 3 -10
v 5 3 -10
v 6 3 -10
v 7 3 -10
v 8 3 -10
v 5 3 -11
v 6 3 -11
v 7 4 11
v 8 4 11
v 7 4 9
v 8 4 9
v -4 5 -8
v -3 5 -8
v -4 5 -10
v -3 5 -10
v 8 6 11
v 9 6 11
v -4 6 10
v -3 6 10
v 8 6 9
v 9 6 9
v -4 6 8
v -3 6 8
v 6 6 -8
v 9 6 -8
v 4 6 -9
v 5 6 -9
v 6 6 -9
v 8 6 -9
v 4 6 -11
v 5 6 -11
v 8 6 -11
v 9 6 -11
v 7 7 9
v 8 7 9
v 7 7 8
v 8 7 8
v -3 7 -8
v -2 7 -8
v -3 7 -10
v -2 7 -10
v 9 8 11
v 10 8 11
v 6 8 10
v 7 8 10
v 8 8 9
v 9 8 9
v 6 8 8
v 7 8 8
v 8 8 8
v 10 8 8
v -9 8 3
v -6 8 3
v -6 8 2
v -4 8 2
v -6 8 -2
v -4 8 -2
v -9 8 -3
v -6 8 -3
v -7 8 -8
v -6 8 -8
v -7 8 -10
v -6 8 -10
v 5 9 -8
v 6 9 -8
v 5 9 -9
v 6 9 -9
v -6 10 8
v -4 10 8
v 6 10 8
v 9 10 8
v -6 10 6
v -4 10 6
v 6 10 6
v 9 10 6
v -8 10 5
v -6 10 5
v -4 10 5
v 1 10 5
v 2 10 5
v 5 10 5
v 6 10 5
v 8 10 5
v 9 10 5
v 5 10 4
v 6 10 4
v -8 10 3
v -6 10 3
v -4 10 3
v -3 10 3
v -2 10 3
v 0 10 3
v 1 10 3
v 2 10 3
v 5 10 3
v 6 10 3
v 9 10 3
v 10 10 3
v -11 10 2
v -9 10 2
v -6 10 2
v -4 10 2
v -3 10 2
v -2 10 2
v -1 10 2
v 0 10 2
v 3 10 2
v 8 10 2
v 9 10 2
v -1 10 1
v 3 10 1
v 1 10 -0
v 3 10 -0
v -2 10 -1
v -1 10 -1
v 1 10 -1
v 3 10 -1
v -11 10 -2
v -9 10 -2
v -6 10 -2
v -4 10 -2
v -2 10 -2
v -1 10 -2
v 3 10 -2
v 5 10 -2
v 6 10 -2
v 8 10 -2
v -8 10 -3
v -6 10 -3
v 3 10 -3
v 5 10 -3
v 6 10 -3
v 7 10 -3
v 8 10 -3
v 9 10 -3
v 10 10 -3
v 7 10 -4
v 8 10 -4
v -8 10 -5
v -6 10 -5
v -4 10 -5
v 5 10 -5
v 6 10 -5
v -6 10 -6
v -4 10 -6
v 6 10 -6
v 8 10 -6
v 9 10 -6
v -6 10 -8
v -4 10 -8
v 6 10 -8
v 9 10 -8
v -8 11 6
v -6 11 6
v -4 11 6
v -1 11 6
v 1 11 6
v 5 11 6
v 6 11 6
v -8 11 5
v -6 11 5
v -4 11 5
v -1 11 5
v 1 11 5
v 2 11 5
v 5 11 5
v 6 11 5
v 9 11 5
v 10 11 5
v 9 11 3
v 10 11 3
v 9 11 -3
v 10 11 -3
v -8 11 -5
v -6 11 -5
v -4 11 -5
v 5 11 -5
v 6 11 -5
v 9 11 -5
v 10 11 -5
v -8 11 -6
v -6 11 -6
v -4 11 -6
v 5 11 -6
v 6 11 -6
v 9 13 6
v 10 13 6
v 9 13 5
v 10 13 5
v 9 13 -5
v 10 13 -5
v 9 13 -6
v 10 13 -6
v 3 14 7
v 6 14 7
v 3 14 6
v 5 14 6
v 6 14 6
v 3 14 -6
v 5 14 -6
v 6 14 -6
v 3 14 -7
v 6 14 -7
v 1 15 6
v 2 15 6
v 6 15 6
v 8 15 6
v 1 15 5
v 2 15 5
v 6 15 5
v 8 15 5
v 1 15 -5
v 2 15 -5
v 6 15 -5
v 8 15 -5
v 1 15 -6
v 2 15 -6
v 6 15 -6
v 8 15 -6
v -4 17 9
v 9 17 9
v -8 17 7
v -6 17 7
v -5 17 7
v -4 17 7
v 3 17 7
v 6 17 7
v 9 17 7
v 10 17 7
v -8 17 6
v -6 17 6
v -5 17 6
v -4 17 6
v -1 17 6
v 1 17 6
v 2 17 6
v 3 17 6
v 6 17 6
v 8 17 6
v -4 17 5
v -1 17 5
v 1 17 5
v 2 17 5
v 8 17 5
v 9 17 5
v 10 17 5
v 1 17 3
v 2 17 3
v 1 17 -3
v 2 17 -3
v -4 17 -5
v 1 17 -5
v 2 17 -5
v 8 17 -5
v 9 17 -5
v 10 17 -5
v -8 17 -6
v -6 17 -6
v -5 17 -6
v -4 17 -6
v 1 17 -6
v 2 17 -6
v 3 17 -6
v 6 17 -6
v 8 17 -6
v 9 17 -6
v -8 17 -7
v -6 17 -7
v -5 17 -7
v -4 17 -7
v 3 17 -7
v 6 17 -7
v 9 17 -7
v 10 17 -7
v -4 17 -8
v 9 17 -8
v -8 18 6
v -7 18 6
v -6 18 6
v -5 18 6
v -4 18 6
v 10 18 6
v 11 18 6
v -8 18 5
v -7 18 5
v -6 18 5
v -5 18 5
v -4 18 5
v 10 18 5
v 11 18 5
v 7 18 3
v 8 18 3
v 7 18 2
v 8 18 2
v -8 18 -5
v -7 18 -5
v -6 18 -5
v -5 18 -5
v -4 18 -5
v 10 18 -5
v 11 18 -5
v -8 18 -6
v -7 18 -6
v -6 18 -6
v -5 18 -6
v -4 18 -6
v 10 18 -6
v 11 18 -6
v 10 20 7
v 11 20 7
v 10 20 6
v 11 20 6
v 10 20 -6
v 11 20 -6
v 10 20 -7
v 11 20 -7
v 7 2 -9
v 8 2 -9
v 7 2 -10
v 8 2 -10
v 4 3 11
v 5 3 11
v 4 3 9
v 5 3 9
v -8 3 -8
v -7 3 -8
v -8 3 -9
v -7 3 -9
v -8 3 -10
v -7 3 -10
v -7 5 -8
v -6 5 -8
v -7 5 -10
v -6 5 -10
v 5 6 11
v 6 6 11
v 5 6 9
v 6 6 9
v 6 7 11
v 7 7 11
v 6 7 9
v 7 7 9
v -3 8 -8
v -2 8 -8
v -3 8 -10
v -2 8 -10
v 4 9 -9
v 5 9 -9
v 8 9 -10
v 9 9 -10
v 4 9 -11
v 5 9 -11
v 8 9 -11
v 9 9 -11
v -7 10 10
v -6 10 10
v -4 10 10
v -3 10 10
v -7 10 8
v -6 10 8
v -4 10 8
v -3 10 8
v -7 10 -8
v -6 10 -8
v -4 10 -8
v -3 10 -8
v 5 10 -8
v 6 10 -8
v -7 10 -10
v -6 10 -10
v -4 10 -10
v -3 10 -10
v 6 10 -10
v 8 10 -10
v 5 10 -11
v 8 10 -11
v 7 11 11
v 10 11 11
v 7 11 10
v 9 11 10
v 9 11 8
v 10 11 8
v -11 11 2
v -9 11 2
v -11 11 1
v -9 11 1
v -11 11 -1
v -9 11 -1
v -11 11 -2
v -9 11 -2
v -6 13 10
v -4 13 10
v -6 13 8
v -4 13 8
v 6 13 8
v 9 13 8
v -6 13 6
v -4 13 6
v 6 13 6
v 9 13 6
v -6 13 -6
v -4 13 -6
v 6 13 -6
v 9 13 -6
v -6 13 -8
v -4 13 -8
v 6 13 -8
v 9 13 -8
v 6 13 -10
v 9 13 -10
v 6 14 10
v 9 14 10
v 6 14 8
v 9 14 8
v -8 14 6
v 2 14 6
v 6 14 6
v 10 14 6
v -6 14 5
v 2 14 5
v 6 14 5
v 10 14 5
v -8 14 3
v -6 14 3
v -8 14 -3
v -6 14 -3
v -6 14 -5
v 2 14 -5
v 6 14 -5
v 10 14 -5
v -8 14 -6
v 2 14 -6
v 6 14 -6
v 10 14 -6
v -6 14 -8
v -4 14 -8
v -6 14 -10
v -4 14 -10
v -6 15 5
v 1 15 5
v 2 15 5
v 6 15 5
v 8 15 5
v 10 15 5
v -9 15 3
v -6 15 3
v -4 15 3
v 2 15 3
v 6 15 3
v 9 15 3
v 9 15 2
v -9 15 1
v -8 15 1
v -6 15 1
v 8 15 1
v 9 15 1
v -9 15 -1
v -8 15 -1
v -6 15 -1
v 8 15 -1
v 9 15 -1
v -9 15 -2
v -6 15 -2
v -5 15 -2
v -4 15 -2
v 9 15 -2
v -9 15 -3
v -6 15 -3
v -5 15 -3
v -4 15 -3
v 2 15 -3
v 6 15 -3
v 9 15 -3
v -6 15 -5
v 1 15 -5
v 2 15 -5
v 6 15 -5
v 8 15 -5
v 10 15 -5
v 2 17 5
v 3 17 5
v -4 17 3
v -1 17 3
v 1 17 3
v 2 17 3
v 3 17 3
v 7 17 3
v 9 17 3
v -1 17 2
v 0 17 2
v 1 17 2
v 2 17 2
v 6 17 2
v 7 17 2
v 8 17 2
v 9 17 2
v -11 17 1
v -10 17 1
v -9 17 1
v -8 17 1
v -6 17 1
v -2 17 1
v -1 17 1
v 0 17 1
v 2 17 1
v 8 17 1
v 9 17 1
v -11 17 -0
v -10 17 -0
v -11 17 -1
v -9 17 -1
v -8 17 -1
v -6 17 -1
v -2 17 -1
v -1 17 -1
v 2 17 -1
v 5 17 -1
v 8 17 -1
v 9 17 -1
v 1 17 -2
v 2 17 -2
v 5 17 -2
v 6 17 -2
v 8 17 -2
v 9 17 -2
v -4 17 -3
v 1 17 -3
v 2 17 -3
v 3 17 -3
v 6 17 -3
v 9 17 -3
v 2 17 -5
v 3 17 -5
v 1 18 5
v 2 18 5
v 3 18 5
v 6 18 5
v 2 18 3
v 3 18 3
v 6 18 3
v 1 18 2
v 6 18 2
v 1 18 -2
v 6 18 -2
v 2 18 -3
v 3 18 -3
v 1 18 -5
v 2 18 -5
v 3 18 -5
v 6 18 -5
v -8 20 7
v -6 20 7
v -5 20 7
v -4 20 7
v -8 20 6
v -7 20 6
v -6 20 6
v -5 20 6
v -4 20 6
v 6 20 3
v 7 20 3
v 6 20 2
v 7 20 2
v -8 20 -6
v -7 20 -6
v -6 20 -6
v -5 20 -6
v -4 20 -6
v -8 20 -7
v -6 20 -7
v -5 20 -7
v -4 20 -7
v -4 21 9
v -1 21 9
v 2 21 9
v 9 21 9
v -1 21 7
v 2 21 7
v 9 21 7
v 11 21 7
v -8 21 6
v -7 21 6
v -6 21 6
v -5 21 6
v -4 21 6
v -8 21 5
v -7 21 5
v -6 21 5
v -5 21 5
v -4 21 5
v 9 21 5
v 11 21 5
v -8 21 -5
v -7 21 -5
v -6 21 -5
v -5 21 -5
v -4 21 -5
v -1 21 -5
v 9 21 -5
v 11 21 -5
v -8 21 -6
v -7 21 -6
v -6 21 -6
v -5 21 -6
v -4 21 -6
v -1 21 -6
v -1 21 -7
v 2 21 -7
v 9 21 -7
v 11 21 -7
v -4 21 -8
v -1 21 -8
v 2 21 -8
v 9 21 -8
v 7 23 3
v 8 23 3
v 7 23 2
v 8 23 2

# faces
f 3/12/1 2/12/1 1/12/1
f 4/12/1 2/12/1 3/12/1
f 5/12/1 2/12/1 4/12/1
f 6/12/1 2/12/1 5/12/1
f 7/10/1 5/10/1 4/10/1
f 8/10/1 5/10/1 7/10/1
f 9/9/1 8/9/1 7/9/1
f 10/9/1 8/9/1 9/9/1
f 11/8/1 10/8/1 9/8/1
f 12/9/1 8/9/1 10/9/1
f 12/8/1 10/8/1 11/8/1
f 13/9/1 8/9/1 12/9/1
f 14/11/1 12/11/1 11/11/1
f 15/8/1 13/8/1 12/8/1
f 15/11/1 12/11/1 14/11/1
f 16/8/1 13/8/1 15/8/1
f 19/2/1 18/2/1 17/2/1
f 20/2/1 18/2/1 19/2/1
f 21/2/1 18/2/1 20/2/1
f 22/3/1 20/3/1 19/3/1
f 23/3/1 20/3/1 22/3/1
f 26/2/1 18/2/1 21/2/1
f 27/2/1 24/2/1 23/2/1
f 27/2/1 23/2/1 22/2/1
f 28/2/1 26/2/1 25/2/1
f 29/2/1 18/2/1 26/2/1
f 29/2/1 26/2/1 28/2/1
f 30/2/1 18/2/1 29/2/1
f 31/2/1 27/2/1 22/2/1
f 32/2/1 27/2/1 31/2/1
f 33/2/1 29/2/1 28/2/1
f 34/3/1 30/3/1 29/3/1
f 34/2/1 29/2/1 33/2/1
f 35/3/1 30/3/1 34/3/1
f 39/13/1 37/13/1 36/13/1
f 40/12/1 38/12/1 37/12/1
f 40/13/1 37/13/1 39/13/1
f 41/12/1 38/12/1 40/12/1
f 47/12/1 43/12/1 42/12/1
f 48/12/1 43/12/1 47/12/1
f 49/12/1 45/12/1 44/12/1
f 51/12/1 48/12/1 47/12/1
f 51/12/1 47/12/1 46/12/1
f 52/12/1 48/12/1 51/12/1
f 53/12/1 51/12/1 46/12/1
f 53/13/1 52/13/1 51/13/1
f 54/13/1 52/13/1 53/13/1
f 55/12/1 53/12/1 46/12/1
f 55/12/1 54/12/1 53/12/1
f 56/12/1 54/12/1 55/12/1
f 57/12/1 50/12/1 49/12/1
f 57/12/1 49/12/1 44/12/1
f 58/12/1 50/12/1 57/12/1
f 63/4/1 60/4/1 59/4/1
f 66/4/1 62/4/1 61/4/1
f 67/5/1 64/5/1 63/5/1
f 67/4/1 63/4/1 59/4/1
f 68/5/1 64/5/1 67/5/1
f 69/5/1 66/5/1 65/5/1
f 70/4/1 62/4/1 66/4/1
f 70/5/1 66/5/1 69/5/1
f 71/4/1 67/4/1 59/4/1
f 72/6/1 68/6/1 67/6/1
f 72/4/1 67/4/1 71/4/1
f 73/4/1 62/4/1 70/4/1
f 73/6/1 70/6/1 69/6/1
f 74/4/1 62/4/1 73/4/1
f 75/6/1 68/6/1 72/6/1
f 76/6/1 68/6/1 75/6/1
f 77/6/1 73/6/1 69/6/1
f 78/6/1 73/6/1 77/6/1
f 84/12/1 82/12/1 81/12/1
f 84/12/1 83/12/1 82/12/1
f 85/12/1 83/12/1 84/12/1
f 88/12/1 80/12/1 79/12/1
f 89/12/1 80/12/1 88/12/1
f 90/12/1 87/12/1 86/12/1
f 91/12/1 87/12/1 90/12/1
f 94/13/1 93/13/1 92/13/1
f 95/13/1 93/13/1 94/13/1
f 98/12/1 97/12/1 96/12/1
f 99/12/1 97/12/1 98/12/1
f 108/15/1 102/15/1 101/15/1
f 108/12/1 103/12/1 102/12/1
f 109/12/1 103/12/1 108/12/1
f 110/12/1 105/12/1 104/12/1
f 111/15/1 106/15/1 105/15/1
f 111/12/1 105/12/1 110/12/1
f 112/12/1 101/12/1 100/12/1
f 113/15/1 108/15/1 101/15/1
f 113/12/1 101/12/1 112/12/1
f 114/15/1 108/15/1 113/15/1
f 115/15/1 106/15/1 111/15/1
f 116/12/1 107/12/1 106/12/1
f 116/15/1 106/15/1 115/15/1
f 121/12/1 107/12/1 116/12/1
f 122/12/1 107/12/1 121/12/1
f 123/12/1 118/12/1 117/12/1
f 124/12/1 118/12/1 123/12/1
f 125/12/1 120/12/1 119/12/1
f 126/12/1 120/12/1 125/12/1
f 134/2/1 128/2/1 127/2/1
f 134/2/1 129/2/1 128/2/1
f 135/2/1 129/2/1 134/2/1
f 140/2/1 133/2/1 132/2/1
f 141/2/1 133/2/1 140/2/1
f 142/2/1 137/2/1 136/2/1
f 143/2/1 137/2/1 142/2/1
f 144/2/1 131/2/1 130/2/1
f 147/2/1 139/2/1 138/2/1
f 148/2/1 145/2/1 144/2/1
f 148/2/1 144/2/1 130/2/1
f 149/2/1 145/2/1 148/2/1
f 150/2/1 147/2/1 146/2/1
f 151/2/1 139/2/1 147/2/1
f 151/2/1 147/2/1 150/2/1
f 156/13/1 153/13/1 152/13/1
f 157/13/1 153/13/1 156/13/1
f 162/12/1 155/12/1 154/12/1
f 163/12/1 155/12/1 162/12/1
f 164/13/1 158/13/1 157/13/1
f 164/13/1 159/13/1 158/13/1
f 165/13/1 159/13/1 164/13/1
f 166/13/1 161/13/1 160/13/1
f 166/13/1 162/13/1 161/13/1
f 167/13/1 162/13/1 166/13/1
f 172/12/1 169/12/1 168/12/1
f 173/12/1 169/12/1 172/12/1
f 176/12/1 171/12/1 170/12/1
f 177/12/1 171/12/1 176/12/1
f 178/12/1 174/12/1 173/12/1
f 179/12/1 174/12/1 178/12/1
f 180/12/1 176/12/1 175/12/1
f 181/12/1 176/12/1 180/12/1
f 186/12/1 185/12/1 184/12/1
f 187/12/1 183/12/1 182/12/1
f 188/12/1 183/12/1 187/12/1
f 193/12/1 185/12/1 186/12/1
f 194/12/1 185/12/1 193/12/1
f 195/13/1 190/13/1 189/13/1
f 196/13/1 190/13/1 195/13/1
f 197/13/1 192/13/1 191/13/1
f 198/13/1 192/13/1 197/13/1
f 201/13/1 200/13/1 199/13/1
f 202/13/1 200/13/1 201/13/1
f 205/12/1 204/12/1 203/12/1
f 206/12/1 204/12/1 205/12/1
f 211/12/1 208/12/1 207/12/1
f 213/13/1 210/13/1 209/13/1
f 214/13/1 210/13/1 213/13/1
f 215/12/1 214/12/1 213/12/1
f 216/12/1 214/12/1 215/12/1
f 217/12/1 212/12/1 211/12/1
f 217/12/1 211/12/1 207/12/1
f 218/12/1 212/12/1 217/12/1
f 222/12/1 220/12/1 219/12/1
f 222/12/1 221/12/1 220/12/1
f 223/12/1 221/12/1 222/12/1
f 227/13/1 225/13/1 224/13/1
f 228/12/1 226/12/1 225/12/1
f 228/13/1 225/13/1 227/13/1
f 229/12/1 226/12/1 228/12/1
f 230/12/1 226/12/1 229/12/1
f 235/12/1 232/12/1 231/12/1
f 236/12/1 232/12/1 235/12/1
f 239/12/1 234/12/1 233/12/1
f 240/12/1 234/12/1 239/12/1
f 241/12/1 238/12/1 237/12/1
f 248/15/1 242/15/1 241/15/1
f 248/2/1 243/2/1 242/2/1
f 249/2/1 243/2/1 248/2/1
f 250/2/1 245/2/1 244/2/1
f 251/15/1 246/15/1 245/15/1
f 251/2/1 245/2/1 250/2/1
f 252/12/1 241/12/1 237/12/1
f 252/15/1 248/15/1 241/15/1
f 253/15/1 248/15/1 252/15/1
f 254/15/1 246/15/1 251/15/1
f 255/12/1 247/12/1 246/12/1
f 255/15/1 246/15/1 254/15/1
f 256/12/1 247/12/1 255/12/1
f 257/12/1 252/12/1 237/12/1
f 258/12/1 252/12/1 257/12/1
f 261/12/1 260/12/1 259/12/1
f 262/12/1 260/12/1 261/12/1
f 266/12/1 264/12/1 263/12/1
f 266/12/1 265/12/1 264/12/1
f 267/12/1 265/12/1 266/12/1
f 268/12/1 266/12/1 263/12/1
f 269/12/1 266/12/1 268/12/1
f 272/12/1 271/12/1 270/12/1
f 273/12/1 271/12/1 272/12/1
f 274/1/1 273/1/1 272/1/1
f 275/1/1 273/1/1 274/1/1
f 276/13/2 277/13/2 279/13/2
f 277/12/2 278/12/2 280/12/2
f 279/13/2 277/13/2 280/13/2
f 280/12/2 278/12/2 281/12/2
f 282/2/2 283/2/2 286/2/2
f 286/2/2 283/2/2 287/2/2
f 284/2/2 285/2/2 288/2/2
f 288/2/2 285/2/2 289/2/2
f 290/10/2 291/10/2 292/10/2
f 292/10/2 291/10/2 293/10/2
f 294/13/2 295/13/2 296/13/2
f 296/13/2 295/13/2 297/13/2
f 298/12/2 299/12/2 300/12/2
f 300/12/2 299/12/2 301/12/2
f 296/12/2 297/12/2 302/12/2
f 302/12/2 297/12/2 303/12/2
f 304/2/2 305/2/2 310/2/2
f 310/2/2 305/2/2 311/2/2
f 308/12/2 309/12/2 316/12/2
f 307/15/2 308/15/2 316/15/2
f 316/12/2 309/12/2 317/12/2
f 312/12/2 313/12/2 318/12/2
f 313/15/2 314/15/2 319/15/2
f 318/12/2 313/12/2 319/12/2
f 306/12/2 307/12/2 320/12/2
f 307/15/2 316/15/2 321/15/2
f 320/12/2 307/12/2 321/12/2
f 321/15/2 316/15/2 322/15/2
f 319/15/2 314/15/2 323/15/2
f 314/12/2 315/12/2 324/12/2
f 323/15/2 314/15/2 324/15/2
f 324/12/2 315/12/2 325/12/2
f 325/12/2 315/12/2 326/12/2
f 327/12/2 328/12/2 331/12/2
f 331/12/2 328/12/2 332/12/2
f 329/12/2 330/12/2 335/12/2
f 335/12/2 330/12/2 336/12/2
f 333/12/2 334/12/2 337/12/2
f 337/12/2 334/12/2 338/12/2
f 339/12/2 340/12/2 341/12/2
f 341/12/2 340/12/2 342/12/2
f 343/13/2 344/13/2 347/13/2
f 347/13/2 344/13/2 348/13/2
f 345/13/2 346/13/2 349/13/2
f 349/13/2 346/13/2 350/13/2
f 351/13/2 352/13/2 353/13/2
f 353/13/2 352/13/2 354/13/2
f 355/12/2 356/12/2 361/12/2
f 356/2/2 357/2/2 361/2/2
f 361/2/2 357/2/2 362/2/2
f 358/2/2 359/2/2 365/2/2
f 359/12/2 360/12/2 366/12/2
f 365/2/2 359/2/2 366/2/2
f 355/12/2 361/12/2 367/12/2
f 367/12/2 361/12/2 368/12/2
f 362/12/2 363/12/2 369/12/2
f 369/12/2 363/12/2 370/12/2
f 364/12/2 365/12/2 372/12/2
f 372/12/2 365/12/2 373/12/2
f 366/12/2 360/12/2 374/12/2
f 374/12/2 360/12/2 375/12/2
f 369/13/2 370/13/2 376/13/2
f 376/13/2 370/13/2 377/13/2
f 372/13/2 373/13/2 378/13/2
f 371/13/2 372/13/2 378/13/2
f 378/13/2 373/13/2 379/13/2
f 380/12/2 381/12/2 384/12/2
f 384/12/2 381/12/2 385/12/2
f 382/13/2 383/13/2 386/13/2
f 386/13/2 383/13/2 387/13/2
f 388/12/2 389/12/2 390/12/2
f 390/12/2 389/12/2 391/12/2
f 392/13/2 393/13/2 395/13/2
f 393/12/2 394/12/2 396/12/2
f 395/13/2 393/13/2 396/13/2
f 396/12/2 394/12/2 398/12/2
f 399/12/2 400/12/2 401/12/2
f 401/12/2 400/12/2 402/12/2
f 397/12/2 398/12/2 403/12/2
f 398/12/2 394/12/2 404/12/2
f 403/12/2 398/12/2 404/12/2
f 405/12/2 406/12/2 407/12/2
f 407/12/2 406/12/2 408/12/2
f 409/12/2 410/12/2 411/12/2
f 411/12/2 410/12/2 412/12/2
f 413/12/2 414/12/2 419/12/2
f 419/12/2 414/12/2 420/12/2
f 415/2/2 416/2/2 421/2/2
f 421/2/2 416/2/2 422/2/2
f 417/12/2 418/12/2 423/12/2
f 423/12/2 418/12/2 424/12/2
f 425/12/2 426/12/2 427/12/2
f 427/12/2 426/12/2 428/12/2
f 427/1/2 428/1/2 429/1/2
f 429/1/2 428/1/2 430/1/2
f 431/12/2 432/12/2 435/12/2
f 435/12/2 432/12/2 436/12/2
f 433/12/2 434/12/2 437/12/2
f 437/12/2 434/12/2 438/12/2
f 433/12/2 437/12/2 445/12/2
f 439/15/2 440/15/2 447/15/2
f 440/2/2 441/2/2 448/2/2
f 441/3/2 442/3/2 448/3/2
f 448/3/2 442/3/2 449/3/2
f 443/3/2 444/3/2 450/3/2
f 450/3/2 444/3/2 451/3/2
f 444/15/2 445/15/2 452/15/2
f 451/3/2 444/3/2 452/3/2
f 451/2/2 452/2/2 453/2/2
f 446/12/2 447/12/2 454/12/2
f 447/15/2 440/15/2 454/15/2
f 440/2/2 448/2/2 455/2/2
f 454/15/2 440/15/2 455/15/2
f 455/2/2 448/2/2 456/2/2
f 453/2/2 452/2/2 457/2/2
f 452/15/2 445/15/2 458/15/2
f 457/2/2 452/2/2 458/2/2
f 445/12/2 437/12/2 459/12/2
f 458/15/2 445/15/2 459/15/2
f 459/12/2 437/12/2 460/12/2
f 446/12/2 454/12/2 461/12/2
f 461/12/2 454/12/2 462/12/2
f 463/2/2 464/2/2 471/2/2
f 464/3/2 465/3/2 472/3/2
f 471/2/2 464/2/2 472/2/2
f 472/3/2 465/3/2 473/3/2
f 466/3/2 467/3/2 474/3/2
f 467/2/2 468/2/2 475/2/2
f 474/3/2 467/3/2 475/3/2
f 475/2/2 468/2/2 476/2/2
f 469/2/2 470/2/2 479/2/2
f 479/2/2 470/2/2 480/2/2
f 477/2/2 478/2/2 481/2/2
f 481/2/2 478/2/2 482/2/2
f 483/12/2 484/12/2 487/12/2
f 487/12/2 484/12/2 488/12/2
f 485/2/2 486/2/2 490/2/2
f 490/2/2 486/2/2 491/2/2
f 491/2/2 486/2/2 492/2/2
f 492/2/2 486/2/2 493/2/2
f 489/2/2 490/2/2 495/2/2
f 490/7/2 491/7/2 496/7/2
f 495/2/2 490/2/2 496/2/2
f 491/2/2 492/2/2 497/2/2
f 496/7/2 491/7/2 497/7/2
f 497/2/2 492/2/2 498/2/2
f 498/2/2 492/2/2 499/2/2
f 492/7/2 493/7/2 500/7/2
f 499/2/2 492/2/2 500/2/2
f 493/3/2 494/3/2 501/3/2
f 500/7/2 493/7/2 501/7/2
f 501/3/2 494/3/2 502/3/2
f 489/2/2 495/2/2 504/2/2
f 495/3/2 496/3/2 505/3/2
f 504/2/2 495/2/2 505/2/2
f 496/7/2 497/7/2 506/7/2
f 505/3/2 496/3/2 506/3/2
f 497/7/2 498/7/2 506/7/2
f 499/7/2 500/7/2 507/7/2
f 500/7/2 501/7/2 507/7/2
f 501/2/2 502/2/2 507/2/2
f 507/2/2 502/2/2 508/2/2
f 508/2/2 502/2/2 509/2/2
f 503/2/2 504/2/2 511/2/2
f 504/2/2 505/2/2 511/2/2
f 511/2/2 505/2/2 512/2/2
f 505/7/2 506/7/2 513/7/2
f 512/2/2 505/2/2 513/2/2
f 506/7/2 498/7/2 514/7/2
f 513/7/2 506/7/2 514/7/2
f 498/2/2 499/2/2 514/2/2
f 507/7/2 508/7/2 515/7/2
f 514/2/2 499/2/2 515/2/2
f 499/7/2 507/7/2 515/7/2
f 508/2/2 509/2/2 516/2/2
f 515/7/2 508/7/2 516/7/2
f 509/2/2 510/2/2 516/2/2
f 516/2/2 510/2/2 517/2/2
f 517/2/2 510/2/2 518/2/2
f 512/2/2 513/2/2 519/2/2
f 514/2/2 515/2/2 519/2/2
f 516/2/2 517/2/2 519/2/2
f 515/2/2 516/2/2 519/2/2
f 513/2/2 514/2/2 519/2/2
f 519/2/2 517/2/2 520/2/2
f 521/12/2 522/12/2 525/12/2
f 525/12/2 522/12/2 526/12/2
f 523/12/2 524/12/2 527/12/2
f 527/12/2 524/12/2 528/12/2
f 521/12/2 525/12/2 529/12/2
f 529/12/2 525/12/2 530/12/2
f 528/12/2 524/12/2 531/12/2
f 531/12/2 524/12/2 532/12/2
f 533/12/2 534/12/2 538/12/2
f 535/12/2 536/12/2 539/12/2
f 537/12/2 538/12/2 541/12/2
f 538/12/2 534/12/2 542/12/2
f 541/12/2 538/12/2 542/12/2
f 539/12/2 540/12/2 543/12/2
f 535/12/2 539/12/2 543/12/2
f 543/12/2 540/12/2 544/12/2
f 547/13/3 546/13/3 545/13/3
f 550/13/3 547/13/3 545/13/3
f 550/13/3 548/13/3 547/13/3
f 551/13/3 548/13/3 550/13/3
f 552/12/3 549/12/3 548/12/3
f 554/13/3 548/13/3 551/13/3
f 555/12/3 553/12/3 552/12/3
f 555/13/3 548/13/3 554/13/3
f 555/12/3 552/12/3 548/12/3
f 556/12/3 553/12/3 555/12/3
f 557/12/3 553/12/3 556/12/3
f 559/12/3 556/12/3 555/12/3
f 560/13/3 557/13/3 556/13/3
f 560/12/3 556/12/3 559/12/3
f 561/12/3 558/12/3 557/12/3
f 561/13/3 557/13/3 560/13/3
f 562/12/3 561/12/3 560/12/3
f 563/12/3 558/12/3 561/12/3
f 563/12/3 561/12/3 562/12/3
f 564/12/3 558/12/3 563/12/3
f 565/12/3 558/12/3 564/12/3
f 569/12/3 567/12/3 566/12/3
f 570/12/3 567/12/3 569/12/3
f 572/13/3 569/13/3 568/13/3
f 573/12/3 571/12/3 570/12/3
f 573/13/3 569/13/3 572/13/3
f 573/12/3 570/12/3 569/12/3
f 574/12/3 571/12/3 573/12/3
f 575/12/3 571/12/3 574/12/3
f 576/12/3 571/12/3 575/12/3
f 577/12/3 575/12/3 574/12/3
f 578/12/3 575/12/3 577/12/3
f 581/12/3 580/12/3 579/12/3
f 582/12/3 580/12/3 581/12/3
f 583/12/3 580/12/3 582/12/3
f 584/12/3 580/12/3 583/12/3
f 587/2/3 586/2/3 585/2/3
f 588/2/3 586/2/3 587/2/3
f 589/2/3 587/2/3 585/2/3
f 589/3/3 588/3/3 587/3/3
f 590/3/3 588/3/3 589/3/3
f 591/2/3 589/2/3 585/2/3
f 591/2/3 590/2/3 589/2/3
f 592/2/3 590/2/3 591/2/3
f 593/2/3 591/2/3 585/2/3
f 593/3/3 592/3/3 591/3/3
f 594/2/3 590/2/3 592/2/3
f 594/3/3 592/3/3 593/3/3
f 595/2/3 593/2/3 585/2/3
f 595/2/3 594/2/3 593/2/3
f 596/2/3 590/2/3 594/2/3
f 596/2/3 594/2/3 595/2/3
f 599/4/3 598/4/3 597/4/3
f 600/4/3 598/4/3 599/4/3
f 601/14/3 600/14/3 599/14/3
f 602/14/3 600/14/3 601/14/3
f 603/13/3 602/13/3 601/13/3
f 604/13/3 602/13/3 603/13/3
f 607/12/3 606/12/3 605/12/3
f 608/12/3 606/12/3 607/12/3
f 611/12/3 610/12/3 609/12/3
f 612/12/3 610/12/3 611/12/3
f 613/12/3 610/12/3 612/12/3
f 614/12/3 610/12/3 613/12/3
f 619/6/3 618/6/3 617/6/3
f 620/6/3 618/6/3 619/6/3
f 621/12/3 616/12/3 615/12/3
f 622/12/3 616/12/3 621/12/3
f 623/5/3 620/5/3 619/5/3
f 624/5/3 620/5/3 623/5/3
f 625/14/3 624/14/3 623/14/3
f 626/14/3 624/14/3 625/14/3
f 628/12/3 616/12/3 622/12/3
f 629/13/3 626/13/3 625/13/3
f 630/13/3 626/13/3 629/13/3
f 631/12/3 628/12/3 627/12/3
f 632/12/3 616/12/3 628/12/3
f 632/12/3 628/12/3 631/12/3
f 633/13/3 632/13/3 631/13/3
f 634/12/3 616/12/3 632/12/3
f 634/13/3 632/13/3 633/13/3
f 637/12/3 634/12/3 633/12/3
f 637/12/3 616/12/3 634/12/3
f 638/13/3 636/13/3 635/13/3
f 639/13/3 636/13/3 638/13/3
f 640/12/3 637/12/3 633/12/3
f 640/12/3 638/12/3 637/12/3
f 640/12/3 639/12/3 638/12/3
f 641/12/3 639/12/3 640/12/3
f 642/12/3 640/12/3 633/12/3
f 643/12/3 640/12/3 642/12/3
f 644/2/3 643/2/3 642/2/3
f 645/2/3 643/2/3 644/2/3
f 646/2/3 643/2/3 645/2/3
f 649/12/3 648/12/3 647/12/3
f 650/12/3 648/12/3 649/12/3
f 651/2/3 646/2/3 645/2/3
f 652/2/3 646/2/3 651/2/3
f 653/2/3 646/2/3 652/2/3
f 656/12/3 655/12/3 654/12/3
f 657/12/3 655/12/3 656/12/3
f 660/12/3 659/12/3 658/12/3
f 661/12/3 659/12/3 660/12/3
f 666/12/3 665/12/3 664/12/3
f 667/12/3 666/12/3 664/12/3
f 668/12/3 666/12/3 667/12/3
f 669/12/3 663/12/3 662/12/3
f 670/13/3 668/13/3 667/13/3
f 671/13/3 668/13/3 670/13/3
f 672/12/3 669/12/3 662/12/3
f 673/12/3 669/12/3 672/12/3
f 674/12/3 671/12/3 670/12/3
f 675/12/3 671/12/3 674/12/3
f 676/2/3 675/2/3 674/2/3
f 677/2/3 675/2/3 676/2/3
f 680/2/3 679/2/3 678/2/3
f 683/2/3 682/2/3 681/2/3
f 684/2/3 682/2/3 683/2/3
f 685/2/3 680/2/3 678/2/3
f 686/2/3 680/2/3 685/2/3
f 691/2/3 688/2/3 687/2/3
f 691/3/3 689/3/3 688/3/3
f 692/2/3 690/2/3 689/2/3
f 692/3/3 689/3/3 691/3/3
f 693/2/3 690/2/3 692/2/3
f 694/2/3 690/2/3 693/2/3
f 695/2/3 690/2/3 694/2/3
f 696/2/3 691/2/3 687/2/3
f 697/2/3 691/2/3 696/2/3
f 698/2/3 690/2/3 695/2/3
f 699/2/3 690/2/3 698/2/3
f 702/2/3 701/2/3 700/2/3
f 703/2/3 701/2/3 702/2/3
f 704/2/3 702/2/3 700/2/3
f 704/3/3 703/3/3 702/3/3
f 705/3/3 703/3/3 704/3/3
f 706/2/3 704/2/3 700/2/3
f 706/2/3 705/2/3 704/2/3
f 707/2/3 705/2/3 706/2/3
f 709/13/3 708/13/3 707/13/3
f 710/13/3 708/13/3 709/13/3
f 715/12/3 713/12/3 712/12/3
f 715/12/3 714/12/3 713/12/3
f 715/2/3 712/2/3 711/2/3
f 716/12/3 714/12/3 715/12/3
f 717/12/3 714/12/3 716/12/3
f 720/12/3 717/12/3 716/12/3
f 720/12/3 718/12/3 717/12/3
f 721/1/3 719/1/3 718/1/3
f 721/12/3 718/12/3 720/12/3
f 722/1/3 719/1/3 721/1/3
f 725/2/3 715/2/3 711/2/3
f 726/2/3 715/2/3 725/2/3
f 727/2/3 724/2/3 723/2/3
f 728/2/3 724/2/3 727/2/3
f 731/12/3 730/12/3 729/12/3
f 732/12/3 730/12/3 731/12/3
f 735/2/3 734/2/3 733/2/3
f 736/2/3 734/2/3 735/2/3
f 742/9/3 739/9/3 738/9/3
f 742/8/3 740/8/3 739/8/3
f 743/11/3 741/11/3 740/11/3
f 743/8/3 740/8/3 742/8/3
f 744/11/3 741/11/3 743/11/3
f 745/10/3 738/10/3 737/10/3
f 746/9/3 742/9/3 738/9/3
f 746/10/3 738/10/3 745/10/3
f 746/9/3 743/9/3 742/9/3
f 747/8/3 744/8/3 743/8/3
f 747/9/3 743/9/3 746/9/3
f 748/8/3 744/8/3 747/8/3
f 749/9/3 748/9/3 747/9/3
f 750/9/3 748/9/3 749/9/3
f 751/10/3 750/10/3 749/10/3
f 752/10/3 750/10/3 751/10/3
f 755/3/3 754/3/3 753/3/3
f 756/3/3 754/3/3 755/3/3
f 759/13/3 758/13/3 757/13/3
f 760/13/3 758/13/3 759/13/3
f 761/13/3 758/13/3 760/13/3
f 762/13/3 758/13/3 761/13/3
f 766/5/3 764/5/3 763/5/3
f 767/6/3 765/6/3 764/6/3
f 767/5/3 764/5/3 766/5/3
f 768/6/3 765/6/3 767/6/3
f 769/4/3 767/4/3 766/4/3
f 770/5/3 768/5/3 767/5/3
f 770/4/3 767/4/3 769/4/3
f 771/5/3 768/5/3 770/5/3
f 772/14/3 770/14/3 769/14/3
f 772/14/3 771/14/3 770/14/3
f 773/14/3 771/14/3 772/14/3
f 775/13/3 773/13/3 772/13/3
f 776/13/3 773/13/3 775/13/3
f 777/13/3 773/13/3 776/13/3
f 778/2/3 775/2/3 774/2/3
f 778/2/3 776/2/3 775/2/3
f 778/3/3 777/3/3 776/3/3
f 779/3/3 777/3/3 778/3/3
f 781/2/3 778/2/3 774/2/3
f 781/2/3 779/2/3 778/2/3
f 782/2/3 779/2/3 781/2/3
f 783/12/3 781/12/3 780/12/3
f 784/12/3 781/12/3 783/12/3
f 785/2/3 779/2/3 782/2/3
f 786/2/3 779/2/3 785/2/3
f 787/2/3 785/2/3 784/2/3
f 788/3/3 786/3/3 785/3/3
f 788/2/3 785/2/3 787/2/3
f 789/2/3 779/2/3 786/2/3
f 789/3/3 786/3/3 788/3/3
f 792/2/3 789/2/3 788/2/3
f 793/12/3 791/12/3 790/12/3
f 794/3/3 792/3/3 791/3/3
f 794/12/3 791/12/3 793/12/3
f 795/3/3 792/3/3 794/3/3
f 796/2/3 789/2/3 792/2/3
f 796/3/3 792/3/3 795/3/3
f 797/2/3 779/2/3 789/2/3
f 797/2/3 789/2/3 796/2/3
f 798/12/3 796/12/3 795/12/3
f 798/12/3 797/12/3 796/12/3
f 799/12/3 797/12/3 798/12/3
f 800/12/3 797/12/3 799/12/3
f 801/12/3 797/12/3 800/12/3
f 804/4/3 803/4/3 802/4/3
f 805/4/3 804/4/3 802/4/3
f 806/4/3 804/4/3 805/4/3
f 807/14/3 806/14/3 805/14/3
f 808/14/3 806/14/3 807/14/3
f 809/13/3 808/13/3 807/13/3
f 810/13/3 808/13/3 809/13/3
f 813/13/3 812/13/3 811/13/3
f 817/13/3 813/13/3 811/13/3
f 818/12/3 814/12/3 813/12/3
f 818/13/3 813/13/3 817/13/3
f 819/12/3 814/12/3 818/12/3
f 820/12/3 816/12/3 815/12/3
f 821/12/3 816/12/3 820/12/3
f 824/12/3 819/12/3 818/12/3
f 824/12/3 821/12/3 820/12/3
f 824/12/3 820/12/3 819/12/3
f 825/12/3 821/12/3 824/12/3
f 826/12/3 821/12/3 825/12/3
f 827/12/3 823/12/3 822/12/3
f 828/12/3 823/12/3 827/12/3
f 829/12/3 826/12/3 825/12/3
f 830/12/3 826/12/3 829/12/3
f 831/12/3 826/12/3 830/12/3
f 832/12/3 826/12/3 831/12/3
f 833/12/3 831/12/3 830/12/3
f 834/12/3 831/12/3 833/12/3
f 838/12/3 836/12/3 835/12/3
f 839/12/3 836/12/3 838/12/3
f 840/12/3 838/12/3 837/12/3
f 840/12/3 839/12/3 838/12/3
f 841/12/3 839/12/3 840/12/3
f 845/12/3 843/12/3 842/12/3
f 846/12/3 843/12/3 845/12/3
f 848/12/3 845/12/3 844/12/3
f 848/12/3 846/12/3 845/12/3
f 849/12/3 846/12/3 848/12/3
f 850/12/3 846/12/3 849/12/3
f 851/13/3 848/13/3 847/13/3
f 851/12/3 849/12/3 848/12/3
f 852/12/3 849/12/3 851/12/3
f 853/13/3 851/13/3 847/13/3
f 854/13/3 851/13/3 853/13/3
f 855/12/3 849/12/3 852/12/3
f 856/12/3 849/12/3 855/12/3
f 859/12/3 858/12/3 857/12/3
f 860/12/3 858/12/3 859/12/3
f 861/13/4 862/13/4 863/13/4
f 861/13/4 863/13/4 866/13/4
f 863/13/4 864/13/4 866/13/4
f 866/13/4 864/13/4 867/13/4
f 864/12/4 865/12/4 868/12/4
f 867/13/4 864/13/4 870/13/4
f 868/12/4 869/12/4 871/12/4
f 870/13/4 864/13/4 871/13/4
f 864/12/4 868/12/4 871/12/4
f 871/12/4 869/12/4 872/12/4
f 871/12/4 872/12/4 873/12/4
f 873/12/4 872/12/4 874/12/4
f 874/12/4 872/12/4 875/12/4
f 874/12/4 875/12/4 877/12/4
f 875/12/4 876/12/4 877/12/4
f 877/12/4 876/12/4 878/12/4
f 879/12/4 880/12/4 882/12/4
f 882/12/4 880/12/4 883/12/4
f 881/13/4 882/13/4 884/13/4
f 882/12/4 883/12/4 885/12/4
f 884/13/4 882/13/4 885/13/4
f 885/12/4 883/12/4 886/12/4
f 886/12/4 883/12/4 887/12/4
f 886/12/4 887/12/4 888/12/4
f 888/12/4 887/12/4 889/12/4
f 890/12/4 891/12/4 895/12/4
f 894/12/4 895/12/4 896/12/4
f 895/12/4 891/12/4 897/12/4
f 896/12/4 895/12/4 897/12/4
f 897/12/4 891/12/4 898/12/4
f 892/12/4 893/12/4 900/12/4
f 900/12/4 893/12/4 901/12/4
f 898/12/4 899/12/4 902/12/4
f 897/12/4 898/12/4 902/12/4
f 902/12/4 899/12/4 903/12/4
f 904/4/4 905/4/4 906/4/4
f 904/4/4 906/4/4 907/4/4
f 907/4/4 906/4/4 908/4/4
f 907/14/4 908/14/4 909/14/4
f 909/14/4 908/14/4 910/14/4
f 909/13/4 910/13/4 911/13/4
f 911/13/4 910/13/4 912/13/4
f 913/5/4 914/5/4 916/5/4
f 914/6/4 915/6/4 917/6/4
f 916/5/4 914/5/4 917/5/4
f 917/6/4 915/6/4 918/6/4
f 916/4/4 917/4/4 919/4/4
f 917/5/4 918/5/4 920/5/4
f 919/4/4 917/4/4 920/4/4
f 920/5/4 918/5/4 921/5/4
f 919/14/4 920/14/4 922/14/4
f 920/14/4 921/14/4 922/14/4
f 922/14/4 921/14/4 923/14/4
f 922/13/4 923/13/4 925/13/4
f 925/13/4 923/13/4 926/13/4
f 924/2/4 925/2/4 927/2/4
f 925/2/4 926/2/4 927/2/4
f 927/2/4 926/2/4 928/2/4
f 927/3/4 928/3/4 930/3/4
f 928/2/4 926/2/4 931/2/4
f 930/3/4 928/3/4 931/3/4
f 929/13/4 930/13/4 932/13/4
f 932/13/4 930/13/4 933/13/4
f 931/2/4 926/2/4 934/2/4
f 933/2/4 934/2/4 935/2/4
f 934/2/4 926/2/4 936/2/4
f 935/2/4 934/2/4 936/2/4
f 936/2/4 926/2/4 939/2/4
f 937/12/4 938/12/4 940/12/4
f 938/2/4 939/2/4 941/2/4
f 940/12/4 938/12/4 941/12/4
f 941/2/4 939/2/4 942/2/4
f 939/2/4 926/2/4 943/2/4
f 942/2/4 939/2/4 943/2/4
f 942/12/4 943/12/4 944/12/4
f 944/12/4 943/12/4 945/12/4
f 945/12/4 943/12/4 946/12/4
f 946/12/4 943/12/4 947/12/4
f 948/13/4 949/13/4 950/13/4
f 950/13/4 949/13/4 951/13/4
f 951/13/4 949/13/4 952/13/4
f 951/12/4 952/12/4 954/12/4
f 952/12/4 953/12/4 954/12/4
f 954/12/4 953/12/4 955/12/4
f 955/12/4 953/12/4 956/12/4
f 955/12/4 956/12/4 959/12/4
f 956/12/4 957/12/4 959/12/4
f 957/1/4 958/1/4 960/1/4
f 959/12/4 957/12/4 960/12/4
f 960/1/4 958/1/4 961/1/4
f 962/3/4 963/3/4 964/3/4
f 964/3/4 963/3/4 965/3/4
f 966/10/4 967/10/4 970/10/4
f 967/9/4 968/9/4 971/9/4
f 970/10/4 967/10/4 971/10/4
f 968/8/4 969/8/4 972/8/4
f 971/9/4 968/9/4 972/9/4
f 972/8/4 969/8/4 973/8/4
f 972/9/4 973/9/4 974/9/4
f 974/9/4 973/9/4 975/9/4
f 974/10/4 975/10/4 976/10/4
f 976/10/4 975/10/4 977/10/4
f 978/12/4 979/12/4 980/12/4
f 980/12/4 979/12/4 981/12/4
f 982/2/4 983/2/4 984/2/4
f 984/2/4 983/2/4 985/2/4
f 986/2/4 987/2/4 989/2/4
f 987/3/4 988/3/4 990/3/4
f 989/2/4 987/2/4 990/2/4
f 986/2/4 989/2/4 991/2/4
f 991/2/4 989/2/4 992/2/4
f 990/3/4 988/3/4 993/3/4
f 993/3/4 988/3/4 994/3/4
f 995/2/4 996/2/4 997/2/4
f 995/2/4 997/2/4 998/2/4
f 998/2/4 997/2/4 999/2/4
f 999/13/4 1000/13/4 1001/13/4
f 1001/13/4 1000/13/4 1002/13/4
f 1003/2/4 1004/2/4 1007/2/4
f 1007/2/4 1004/2/4 1008/2/4
f 1005/2/4 1006/2/4 1009/2/4
f 1009/2/4 1006/2/4 1010/2/4
f 1011/12/4 1012/12/4 1013/12/4
f 1013/12/4 1012/12/4 1014/12/4
f 1015/12/4 1016/12/4 1019/12/4
f 1015/12/4 1019/12/4 1020/12/4
f 1020/12/4 1019/12/4 1021/12/4
f 1017/12/4 1018/12/4 1022/12/4
f 1022/12/4 1018/12/4 1023/12/4
f 1022/2/4 1023/2/4 1024/2/4
f 1024/2/4 1023/2/4 1025/2/4
f 1026/2/4 1027/2/4 1028/2/4
f 1029/3/4 1030/3/4 1032/3/4
f 1030/2/4 1031/2/4 1033/2/4
f 1032/3/4 1030/3/4 1033/3/4
f 1033/2/4 1031/2/4 1034/2/4
f 1026/2/4 1028/2/4 1035/2/4
f 1035/2/4 1028/2/4 1036/2/4
f 1039/6/4 1040/6/4 1041/6/4
f 1041/6/4 1040/6/4 1042/6/4
f 1037/12/4 1038/12/4 1043/12/4
f 1043/12/4 1038/12/4 1044/12/4
f 1041/5/4 1042/5/4 1045/5/4
f 1045/5/4 1042/5/4 1046/5/4
f 1045/14/4 1046/14/4 1047/14/4
f 1047/14/4 1046/14/4 1048/14/4
f 1044/12/4 1038/12/4 1050/12/4
f 1047/13/4 1048/13/4 1051/13/4
f 1051/13/4 1048/13/4 1052/13/4
f 1049/12/4 1050/12/4 1055/12/4
f 1050/12/4 1038/12/4 1055/12/4
f 1053/12/4 1054/12/4 1056/12/4
f 1056/12/4 1054/12/4 1057/12/4
f 1049/12/4 1055/12/4 1058/12/4
f 1055/12/4 1056/12/4 1058/12/4
f 1056/13/4 1057/13/4 1059/13/4
f 1058/12/4 1056/12/4 1059/12/4
f 1059/13/4 1057/13/4 1060/13/4
f 1049/12/4 1058/12/4 1061/12/4
f 1061/12/4 1058/12/4 1062/12/4
f 1061/2/4 1062/2/4 1063/2/4
f 1063/2/4 1062/2/4 1064/2/4
f 1064/2/4 1062/2/4 1065/2/4
f 1066/12/4 1067/12/4 1068/12/4
f 1068/12/4 1067/12/4 1069/12/4
f 1064/2/4 1065/2/4 1070/2/4
f 1070/2/4 1065/2/4 1071/2/4
f 1071/2/4 1065/2/4 1072/2/4
f 1073/12/4 1074/12/4 1075/12/4
f 1075/12/4 1074/12/4 1076/12/4
f 1077/4/4 1078/4/4 1079/4/4
f 1079/4/4 1078/4/4 1080/4/4
f 1079/14/4 1080/14/4 1081/14/4
f 1081/14/4 1080/14/4 1082/14/4
f 1081/13/4 1082/13/4 1083/13/4
f 1083/13/4 1082/13/4 1084/13/4
f 1085/12/4 1086/12/4 1087/12/4
f 1087/12/4 1086/12/4 1088/12/4
f 1089/12/4 1090/12/4 1091/12/4
f 1091/12/4 1090/12/4 1092/12/4
f 1092/12/4 1090/12/4 1093/12/4
f 1093/12/4 1090/12/4 1094/12/4
f 1095/2/4 1096/2/4 1097/2/4
f 1097/2/4 1096/2/4 1098/2/4
f 1095/2/4 1097/2/4 1099/2/4
f 1097/3/4 1098/3/4 1099/3/4
f 1099/3/4 1098/3/4 1100/3/4
f 1095/2/4 1099/2/4 1101/2/4
f 1099/2/4 1100/2/4 1101/2/4
f 1101/2/4 1100/2/4 1102/2/4
f 1095/2/4 1101/2/4 1103/2/4
f 1101/3/4 1102/3/4 1103/3/4
f 1102/2/4 1100/2/4 1104/2/4
f 1103/3/4 1102/3/4 1104/3/4
f 1095/2/4 1103/2/4 1105/2/4
f 1103/2/4 1104/2/4 1105/2/4
f 1104/2/4 1100/2/4 1106/2/4
f 1105/2/4 1104/2/4 1106/2/4
f 1107/12/4 1108/12/4 1109/12/4
f 1107/12/4 1109/12/4 1113/12/4
f 1109/12/4 1110/12/4 1113/12/4
f 1113/12/4 1110/12/4 1114/12/4
f 1114/12/4 1110/12/4 1115/12/4
f 1111/12/4 1112/12/4 1116/12/4
f 1116/12/4 1112/12/4 1117/12/4
f 1114/12/4 1115/12/4 1119/12/4
f 1117/12/4 1118/12/4 1119/12/4
f 1116/12/4 1117/12/4 1119/12/4
f 1115/12/4 1116/12/4 1119/12/4
f 1119/12/4 1118/12/4 1120/12/4
f 1120/12/4 1118/12/4 1121/12/4
f 1121/12/4 1118/12/4 1122/12/4
f 1120/12/4 1121/12/4 1123/12/4
f 1123/12/4 1121/12/4 1124/12/4
f 1124/12/4 1121/12/4 1125/12/4
f 1125/12/4 1121/12/4 1126/12/4
f 1124/12/4 1125/12/4 1127/12/4
f 1127/12/4 1125/12/4 1128/12/4
f 1129/12/4 1130/12/4 1131/12/4
f 1131/12/4 1130/12/4 1132/12/4
f 1133/12/4 1134/12/4 1136/12/4
f 1135/12/4 1136/12/4 1137/12/4
f 1136/12/4 1134/12/4 1138/12/4
f 1137/12/4 1136/12/4 1138/12/4
f 1139/12/4 1140/12/4 1142/12/4
f 1142/12/4 1140/12/4 1143/12/4
f 1141/12/4 1142/12/4 1146/12/4
f 1143/12/4 1144/12/4 1146/12/4
f 1142/12/4 1143/12/4 1146/12/4
f 1145/12/4 1146/12/4 1147/12/4
f 1146/12/4 1144/12/4 1148/12/4
f 1147/12/4 1146/12/4 1148/12/4
f 1148/12/4 1144/12/4 1149/12/4
f 1149/12/4 1144/12/4 1150/12/4
f 1148/12/4 1149/12/4 1151/12/4
f 1151/12/4 1149/12/4 1152/12/4
f 1155/13/5 1154/13/5 1153/13/5
f 1156/13/5 1154/13/5 1155/13/5
f 1159/13/5 1158/13/5 1157/13/5
f 1160/13/5 1158/13/5 1159/13/5
f 1161/12/5 1160/12/5 1159/12/5
f 1162/12/5 1160/12/5 1161/12/5
f 1165/13/5 1164/13/5 1163/13/5
f 1166/13/5 1164/13/5 1165/13/5
f 1169/13/5 1168/13/5 1167/13/5
f 1170/13/5 1168/13/5 1169/13/5
f 1171/12/5 1170/12/5 1169/12/5
f 1172/12/5 1170/12/5 1171/12/5
f 1175/12/5 1174/12/5 1173/12/5
f 1176/12/5 1174/12/5 1175/12/5
f 1179/12/5 1178/12/5 1177/12/5
f 1180/12/5 1178/12/5 1179/12/5
f 1183/13/5 1182/13/5 1181/13/5
f 1184/13/5 1182/13/5 1183/13/5
f 1187/12/5 1186/12/5 1185/12/5
f 1190/12/5 1186/12/5 1187/12/5
f 1191/12/5 1186/12/5 1190/12/5
f 1194/12/5 1189/12/5 1188/12/5
f 1195/12/5 1189/12/5 1194/12/5
f 1196/12/5 1193/12/5 1192/12/5
f 1197/12/5 1193/12/5 1196/12/5
f 1200/12/5 1199/12/5 1198/12/5
f 1201/12/5 1199/12/5 1200/12/5
f 1204/12/5 1203/12/5 1202/12/5
f 1205/12/5 1203/12/5 1204/12/5
f 1210/12/5 1207/12/5 1206/12/5
f 1211/12/5 1207/12/5 1210/12/5
f 1212/12/5 1209/12/5 1208/12/5
f 1213/12/5 1209/12/5 1212/12/5
f 1218/12/5 1215/12/5 1214/12/5
f 1219/12/5 1215/12/5 1218/12/5
f 1220/12/5 1217/12/5 1216/12/5
f 1221/12/5 1217/12/5 1220/12/5
f 1222/12/5 1215/12/5 1219/12/5
f 1223/12/5 1215/12/5 1222/12/5
f 1226/12/5 1225/12/5 1224/12/5
f 1227/12/5 1225/12/5 1226/12/5
f 1230/12/5 1229/12/5 1228/12/5
f 1231/12/5 1229/12/5 1230/12/5
f 1237/12/5 1233/12/5 1232/12/5
f 1238/12/5 1235/12/5 1234/12/5
f 1239/12/5 1235/12/5 1238/12/5
f 1240/12/5 1237/12/5 1236/12/5
f 1241/12/5 1233/12/5 1237/12/5
f 1241/12/5 1237/12/5 1240/12/5
f 1244/2/5 1243/2/5 1242/2/5
f 1246/2/5 1244/2/5 1242/2/5
f 1246/2/5 1245/2/5 1244/2/5
f 1247/2/5 1245/2/5 1246/2/5
f 1248/2/5 1246/2/5 1242/2/5
f 1249/2/5 1246/2/5 1248/2/5
f 1252/12/5 1251/12/5 1250/12/5
f 1253/12/5 1251/12/5 1252/12/5
f 1256/12/5 1255/12/5 1254/12/5
f 1257/12/5 1255/12/5 1256/12/5
f 1262/15/5 1259/15/5 1258/15/5
f 1263/15/5 1259/15/5 1262/15/5
f 1264/15/5 1261/15/5 1260/15/5
f 1265/15/5 1261/15/5 1264/15/5
f 1267/12/5 1263/12/5 1262/12/5
f 1268/12/5 1263/12/5 1267/12/5
f 1272/2/5 1265/2/5 1264/2/5
f 1273/2/5 1265/2/5 1272/2/5
f 1274/2/5 1265/2/5 1273/2/5
f 1275/12/5 1271/12/5 1270/12/5
f 1275/2/5 1272/2/5 1271/2/5
f 1275/2/5 1273/2/5 1272/2/5
f 1276/2/5 1273/2/5 1275/2/5
f 1277/12/5 1267/12/5 1266/12/5
f 1277/12/5 1268/12/5 1267/12/5
f 1277/12/5 1269/12/5 1268/12/5
f 1278/12/5 1269/12/5 1277/12/5
f 1279/12/5 1269/12/5 1278/12/5
f 1280/12/5 1269/12/5 1279/12/5
f 1281/12/5 1269/12/5 1280/12/5
f 1282/12/5 1269/12/5 1281/12/5
f 1283/13/5 1270/13/5 1269/13/5
f 1283/12/5 1269/12/5 1282/12/5
f 1284/12/5 1275/12/5 1270/12/5
f 1284/13/5 1270/13/5 1283/13/5
f 1285/3/5 1276/3/5 1275/3/5
f 1285/12/5 1275/12/5 1284/12/5
f 1286/2/5 1273/2/5 1276/2/5
f 1286/3/5 1276/3/5 1285/3/5
f 1287/3/5 1274/3/5 1273/3/5
f 1291/2/5 1279/2/5 1278/2/5
f 1292/3/5 1280/3/5 1279/3/5
f 1292/2/5 1279/2/5 1291/2/5
f 1293/2/5 1281/2/5 1280/2/5
f 1293/3/5 1280/3/5 1292/3/5
f 1294/3/5 1282/3/5 1281/3/5
f 1294/2/5 1281/2/5 1293/2/5
f 1295/3/5 1282/3/5 1294/3/5
f 1296/2/5 1286/2/5 1285/2/5
f 1296/3/5 1282/3/5 1295/3/5
f 1296/2/5 1285/2/5 1284/2/5
f 1296/2/5 1284/2/5 1283/2/5
f 1296/2/5 1283/2/5 1282/2/5
f 1297/2/5 1286/2/5 1296/2/5
f 1298/3/5 1287/3/5 1273/3/5
f 1298/2/5 1286/2/5 1297/2/5
f 1298/2/5 1273/2/5 1286/2/5
f 1299/2/5 1288/2/5 1287/2/5
f 1299/3/5 1287/3/5 1298/3/5
f 1300/3/5 1297/3/5 1296/3/5
f 1300/2/5 1295/2/5 1294/2/5
f 1300/2/5 1294/2/5 1293/2/5
f 1300/2/5 1293/2/5 1292/2/5
f 1300/3/5 1296/3/5 1295/3/5
f 1301/2/5 1299/2/5 1298/2/5
f 1301/3/5 1297/3/5 1300/3/5
f 1301/2/5 1298/2/5 1297/2/5
f 1302/2/5 1301/2/5 1300/2/5
f 1303/2/5 1299/2/5 1301/2/5
f 1303/2/5 1301/2/5 1302/2/5
f 1304/2/5 1300/2/5 1292/2/5
f 1304/2/5 1302/2/5 1300/2/5
f 1305/2/5 1302/2/5 1304/2/5
f 1306/3/5 1303/3/5 1302/3/5
f 1306/2/5 1302/2/5 1305/2/5
f 1307/2/5 1299/2/5 1303/2/5
f 1307/3/5 1303/3/5 1306/3/5
f 1308/12/5 1290/12/5 1289/12/5
f 1309/12/5 1290/12/5 1308/12/5
f 1311/2/5 1304/2/5 1292/2/5
f 1312/3/5 1305/3/5 1304/3/5
f 1312/2/5 1304/2/5 1311/2/5
f 1313/2/5 1306/2/5 1305/2/5
f 1313/3/5 1305/3/5 1312/3/5
f 1313/2/5 1307/2/5 1306/2/5
f 1314/2/5 1299/2/5 1307/2/5
f 1314/2/5 1307/2/5 1313/2/5
f 1315/2/5 1299/2/5 1314/2/5
f 1316/2/5 1299/2/5 1315/2/5
f 1317/2/5 1299/2/5 1316/2/5
f 1319/2/5 1312/2/5 1311/2/5
f 1319/2/5 1313/2/5 1312/2/5
f 1319/2/5 1311/2/5 1310/2/5
f 1319/2/5 1314/2/5 1313/2/5
f 1320/3/5 1315/3/5 1314/3/5
f 1320/2/5 1314/2/5 1319/2/5
f 1321/2/5 1316/2/5 1315/2/5
f 1321/3/5 1315/3/5 1320/3/5
f 1322/3/5 1317/3/5 1316/3/5
f 1322/2/5 1316/2/5 1321/2/5
f 1323/3/5 1317/3/5 1322/3/5
f 1324/2/5 1299/2/5 1317/2/5
f 1324/3/5 1317/3/5 1323/3/5
f 1325/2/5 1288/2/5 1299/2/5
f 1325/2/5 1299/2/5 1324/2/5
f 1326/2/5 1288/2/5 1325/2/5
f 1327/3/5 1324/3/5 1323/3/5
f 1327/2/5 1323/2/5 1322/2/5
f 1327/3/5 1325/3/5 1324/3/5
f 1327/2/5 1322/2/5 1321/2/5
f 1328/3/5 1325/3/5 1327/3/5
f 1329/12/5 1321/12/5 1320/12/5
f 1329/12/5 1320/12/5 1319/12/5
f 1329/12/5 1319/12/5 1318/12/5
f 1330/12/5 1321/12/5 1329/12/5
f 1331/12/5 1321/12/5 1330/12/5
f 1332/2/5 1328/2/5 1327/2/5
f 1332/12/5 1321/12/5 1331/12/5
f 1332/2/5 1327/2/5 1321/2/5
f 1333/2/5 1328/2/5 1332/2/5
f 1334/12/5 1331/12/5 1330/12/5
f 1335/12/5 1331/12/5 1334/12/5
f 1336/2/5 1328/2/5 1333/2/5
f 1337/3/5 1325/3/5 1328/3/5
f 1337/2/5 1328/2/5 1336/2/5
f 1338/3/5 1325/3/5 1337/3/5
f 1339/15/5 1335/15/5 1334/15/5
f 1340/15/5 1335/15/5 1339/15/5
f 1341/15/5 1337/15/5 1336/15/5
f 1341/15/5 1338/15/5 1337/15/5
f 1342/15/5 1338/15/5 1341/15/5
f 1350/12/5 1344/12/5 1343/12/5
f 1351/12/5 1344/12/5 1350/12/5
f 1352/12/5 1346/12/5 1345/12/5
f 1353/13/5 1347/13/5 1346/13/5
f 1353/12/5 1346/12/5 1352/12/5
f 1354/12/5 1348/12/5 1347/12/5
f 1354/13/5 1347/13/5 1353/13/5
f 1355/12/5 1348/12/5 1354/12/5
f 1356/2/5 1349/2/5 1348/2/5
f 1356/12/5 1348/12/5 1355/12/5
f 1357/2/5 1349/2/5 1356/2/5
f 1360/2/5 1359/2/5 1358/2/5
f 1361/2/5 1359/2/5 1360/2/5
f 1369/3/5 1363/3/5 1362/3/5
f 1370/3/5 1363/3/5 1369/3/5
f 1371/12/5 1365/12/5 1364/12/5
f 1372/12/5 1365/12/5 1371/12/5
f 1373/12/5 1367/12/5 1366/12/5
f 1374/2/5 1368/2/5 1367/2/5
f 1374/12/5 1367/12/5 1373/12/5
f 1375/2/5 1368/2/5 1374/2/5
f 1378/2/5 1377/2/5 1376/2/5
f 1379/2/5 1377/2/5 1378/2/5
f 1382/2/5 1381/2/5 1380/2/5
f 1383/2/5 1381/2/5 1382/2/5
f 1386/12/5 1385/12/5 1384/12/5
f 1387/12/5 1385/12/5 1386/12/5
f 1388/12/5 1385/12/5 1387/12/5
f 1392/12/5 1390/12/5 1389/12/5
f 1392/12/5 1391/12/5 1390/12/5
f 1393/12/5 1391/12/5 1392/12/5
f 1398/13/5 1395/13/5 1394/13/5
f 1399/13/5 1395/13/5 1398/13/5
f 1400/12/5 1397/12/5 1396/12/5
f 1401/12/5 1397/12/5 1400/12/5
f 1406/12/5 1403/12/5 1402/12/5
f 1407/12/5 1403/12/5 1406/12/5
f 1408/12/5 1405/12/5 1404/12/5
f 1409/12/5 1405/12/5 1408/12/5
f 1415/2/5 1411/2/5 1410/2/5
f 1416/2/5 1411/2/5 1415/2/5
f 1417/2/5 1411/2/5 1416/2/5
f 1418/2/5 1411/2/5 1417/2/5
f 1420/4/5 1413/4/5 1412/4/5
f 1421/14/5 1414/14/5 1413/14/5
f 1421/4/5 1413/4/5 1420/4/5
f 1422/13/5 1415/13/5 1414/13/5
f 1422/14/5 1414/14/5 1421/14/5
f 1423/2/5 1416/2/5 1415/2/5
f 1423/13/5 1415/13/5 1422/13/5
f 1424/2/5 1416/2/5 1423/2/5
f 1425/2/5 1416/2/5 1424/2/5
f 1426/2/5 1416/2/5 1425/2/5
f 1427/2/5 1416/2/5 1426/2/5
f 1428/2/5 1418/2/5 1417/2/5
f 1429/2/5 1418/2/5 1428/2/5
f 1430/2/5 1424/2/5 1423/2/5
f 1431/3/5 1425/3/5 1424/3/5
f 1431/2/5 1424/2/5 1430/2/5
f 1432/3/5 1425/3/5 1431/3/5
f 1434/2/5 1418/2/5 1429/2/5
f 1435/12/5 1419/12/5 1418/12/5
f 1435/2/5 1418/2/5 1434/2/5
f 1436/12/5 1419/12/5 1435/12/5
f 1437/13/5 1433/13/5 1432/13/5
f 1438/13/5 1433/13/5 1437/13/5
f 1442/13/5 1440/13/5 1439/13/5
f 1443/13/5 1440/13/5 1442/13/5
f 1450/2/5 1442/2/5 1441/2/5
f 1451/2/5 1442/2/5 1450/2/5
f 1455/3/5 1445/3/5 1444/3/5
f 1456/12/5 1446/12/5 1445/12/5
f 1456/3/5 1445/3/5 1455/3/5
f 1457/4/5 1448/4/5 1447/4/5
f 1458/14/5 1449/14/5 1448/14/5
f 1458/4/5 1448/4/5 1457/4/5
f 1459/13/5 1450/13/5 1449/13/5
f 1459/14/5 1449/14/5 1458/14/5
f 1460/2/5 1453/2/5 1452/2/5
f 1460/13/5 1450/13/5 1459/13/5
f 1460/2/5 1451/2/5 1450/2/5
f 1460/2/5 1452/2/5 1451/2/5
f 1461/2/5 1453/2/5 1460/2/5
f 1462/2/5 1455/2/5 1454/2/5
f 1462/2/5 1456/2/5 1455/2/5
f 1463/12/5 1446/12/5 1456/12/5
f 1463/2/5 1456/2/5 1462/2/5
f 1464/12/5 1446/12/5 1463/12/5
f 1465/2/5 1461/2/5 1460/2/5
f 1465/2/5 1463/2/5 1462/2/5
f 1465/2/5 1462/2/5 1461/2/5
f 1466/2/5 1463/2/5 1465/2/5
f 1474/5/5 1468/5/5 1467/5/5
f 1475/4/5 1469/4/5 1468/4/5
f 1475/5/5 1468/5/5 1474/5/5
f 1476/14/5 1470/14/5 1469/14/5
f 1476/4/5 1469/4/5 1475/4/5
f 1477/13/5 1471/13/5 1470/13/5
f 1477/14/5 1470/14/5 1476/14/5
f 1478/13/5 1471/13/5 1477/13/5
f 1479/12/5 1473/12/5 1472/12/5
f 1480/12/5 1473/12/5 1479/12/5
f 1483/12/5 1482/12/5 1481/12/5
f 1484/12/5 1482/12/5 1483/12/5
f 1492/5/5 1486/5/5 1485/5/5
f 1493/4/5 1487/4/5 1486/4/5
f 1493/5/5 1486/5/5 1492/5/5
f 1494/14/5 1488/14/5 1487/14/5
f 1494/4/5 1487/4/5 1493/4/5
f 1495/13/5 1489/13/5 1488/13/5
f 1495/14/5 1488/14/5 1494/14/5
f 1496/13/5 1489/13/5 1495/13/5
f 1497/12/5 1491/12/5 1490/12/5
f 1498/12/5 1491/12/5 1497/12/5
f 1501/12/5 1500/12/5 1499/12/5
f 1502/12/5 1500/12/5 1501/12/5
f 1505/12/5 1504/12/5 1503/12/5
f 1506/12/5 1504/12/5 1505/12/5
f 1507/13/6 1508/13/6 1509/13/6
f 1509/13/6 1508/13/6 1510/13/6
f 1511/13/6 1512/13/6 1513/13/6
f 1513/13/6 1512/13/6 1514/13/6
f 1515/13/6 1516/13/6 1517/13/6
f 1517/13/6 1516/13/6 1518/13/6
f 1517/12/6 1518/12/6 1519/12/6
f 1519/12/6 1518/12/6 1520/12/6
f 1521/12/6 1522/12/6 1523/12/6
f 1523/12/6 1522/12/6 1524/12/6
f 1525/12/6 1526/12/6 1527/12/6
f 1527/12/6 1526/12/6 1528/12/6
f 1529/12/6 1530/12/6 1531/12/6
f 1531/12/6 1530/12/6 1532/12/6
f 1533/12/6 1534/12/6 1535/12/6
f 1535/12/6 1534/12/6 1536/12/6
f 1537/12/6 1538/12/6 1541/12/6
f 1541/12/6 1538/12/6 1542/12/6
f 1539/12/6 1540/12/6 1543/12/6
f 1543/12/6 1540/12/6 1544/12/6
f 1545/12/6 1546/12/6 1549/12/6
f 1549/12/6 1546/12/6 1550/12/6
f 1547/12/6 1548/12/6 1551/12/6
f 1551/12/6 1548/12/6 1552/12/6
f 1553/12/6 1554/12/6 1559/12/6
f 1559/12/6 1554/12/6 1560/12/6
f 1555/12/6 1556/12/6 1561/12/6
f 1561/12/6 1556/12/6 1562/12/6
f 1557/12/6 1558/12/6 1563/12/6
f 1563/12/6 1564/12/6 1565/12/6
f 1557/12/6 1563/12/6 1565/12/6
f 1565/12/6 1564/12/6 1566/12/6
f 1567/12/6 1568/12/6 1569/12/6
f 1569/12/6 1568/12/6 1570/12/6
f 1570/12/6 1568/12/6 1571/12/6
f 1571/12/6 1568/12/6 1572/12/6
f 1573/12/6 1574/12/6 1575/12/6
f 1575/12/6 1574/12/6 1576/12/6
f 1577/12/6 1578/12/6 1579/12/6
f 1579/12/6 1578/12/6 1580/12/6
f 1581/12/6 1582/12/6 1583/12/6
f 1583/12/6 1582/12/6 1584/12/6
f 1583/15/6 1584/15/6 1587/15/6
f 1587/15/6 1584/15/6 1588/15/6
f 1585/15/6 1586/15/6 1589/15/6
f 1589/15/6 1586/15/6 1590/15/6
f 1591/15/6 1592/15/6 1595/15/6
f 1595/15/6 1592/15/6 1596/15/6
f 1593/15/6 1594/15/6 1597/15/6
f 1597/15/6 1594/15/6 1598/15/6
f 1597/12/6 1598/12/6 1599/12/6
f 1599/12/6 1598/12/6 1600/12/6
f 1601/12/6 1602/12/6 1603/12/6
f 1603/12/6 1602/12/6 1604/12/6
f 1605/12/6 1606/12/6 1609/12/6
f 1609/12/6 1606/12/6 1610/12/6
f 1607/2/6 1608/2/6 1611/2/6
f 1611/2/6 1608/2/6 1612/2/6
f 1605/12/6 1609/12/6 1613/12/6
f 1613/12/6 1609/12/6 1614/12/6
f 1615/12/6 1616/12/6 1617/12/6
f 1615/12/6 1617/12/6 1621/12/6
f 1617/12/6 1618/12/6 1621/12/6
f 1621/12/6 1618/12/6 1622/12/6
f 1619/2/6 1620/2/6 1623/2/6
f 1623/2/6 1620/2/6 1624/2/6
f 1625/12/6 1626/12/6 1627/12/6
f 1627/12/6 1626/12/6 1628/12/6
f 1629/12/6 1630/12/6 1636/12/6
f 1630/12/6 1631/12/6 1636/12/6
f 1636/12/6 1631/12/6 1637/12/6
f 1637/12/6 1631/12/6 1638/12/6
f 1633/2/6 1634/2/6 1639/2/6
f 1632/2/6 1633/2/6 1639/2/6
f 1639/2/6 1634/2/6 1640/2/6
f 1640/2/6 1634/2/6 1641/2/6
f 1636/2/6 1637/2/6 1642/2/6
f 1635/2/6 1636/2/6 1642/2/6
f 1642/2/6 1637/2/6 1643/2/6
f 1643/2/6 1637/2/6 1644/2/6
f 1641/2/6 1634/2/6 1646/2/6
f 1644/2/6 1637/2/6 1649/2/6
f 1645/2/6 1646/2/6 1650/2/6
f 1646/2/6 1634/2/6 1651/2/6
f 1650/2/6 1646/2/6 1651/2/6
f 1647/2/6 1648/2/6 1652/2/6
f 1648/2/6 1649/2/6 1652/2/6
f 1649/2/6 1637/2/6 1653/2/6
f 1652/2/6 1649/2/6 1653/2/6
f 1653/2/6 1637/2/6 1654/2/6
f 1654/2/6 1637/2/6 1655/2/6
f 1651/2/6 1634/2/6 1656/2/6
f 1652/3/6 1653/3/6 1657/3/6
f 1653/2/6 1654/2/6 1658/2/6
f 1657/3/6 1653/3/6 1658/3/6
f 1654/3/6 1655/3/6 1659/3/6
f 1658/2/6 1654/2/6 1659/2/6
f 1659/3/6 1655/3/6 1660/3/6
f 1656/2/6 1634/2/6 1663/2/6
f 1660/12/6 1661/12/6 1664/12/6
f 1658/12/6 1659/12/6 1664/12/6
f 1659/12/6 1660/12/6 1664/12/6
f 1664/12/6 1661/12/6 1665/12/6
f 1665/12/6 1661/12/6 1666/12/6
f 1662/2/6 1663/2/6 1667/2/6
f 1667/2/6 1663/2/6 1668/2/6
f 1663/2/6 1634/2/6 1669/2/6
f 1668/2/6 1663/2/6 1669/2/6
f 1670/12/6 1671/12/6 1675/12/6
f 1675/12/6 1671/12/6 1676/12/6
f 1673/3/6 1674/3/6 1679/3/6
f 1672/2/6 1673/2/6 1679/2/6
f 1679/3/6 1674/3/6 1680/3/6
f 1680/3/6 1674/3/6 1681/3/6
f 1677/2/6 1678/2/6 1684/2/6
f 1684/2/6 1678/2/6 1685/2/6
f 1685/2/6 1678/2/6 1686/2/6
f 1672/2/6 1679/2/6 1692/2/6
f 1679/2/6 1680/2/6 1692/2/6
f 1692/2/6 1680/2/6 1693/2/6
f 1680/3/6 1681/3/6 1694/3/6
f 1693/2/6 1680/2/6 1694/2/6
f 1681/3/6 1682/3/6 1694/3/6
f 1682/2/6 1683/2/6 1695/2/6
f 1694/3/6 1682/3/6 1695/3/6
f 1683/2/6 1684/2/6 1695/2/6
f 1684/2/6 1685/2/6 1695/2/6
f 1685/3/6 1686/3/6 1696/3/6
f 1695/2/6 1685/2/6 1696/2/6
f 1696/3/6 1686/3/6 1697/3/6
f 1687/11/6 1688/11/6 1698/11/6
f 1688/8/6 1689/8/6 1699/8/6
f 1698/11/6 1688/11/6 1699/11/6
f 1698/8/6 1699/8/6 1700/8/6
f 1689/9/6 1690/9/6 1701/9/6
f 1700/8/6 1699/8/6 1701/8/6
f 1699/8/6 1689/8/6 1701/8/6
f 1690/10/6 1691/10/6 1702/10/6
f 1701/9/6 1690/9/6 1702/9/6
f 1702/10/6 1691/10/6 1703/10/6
f 1692/3/6 1693/3/6 1704/3/6
f 1672/2/6 1692/2/6 1704/2/6
f 1693/2/6 1694/2/6 1705/2/6
f 1704/3/6 1693/3/6 1705/3/6
f 1694/2/6 1695/2/6 1705/2/6
f 1695/2/6 1696/2/6 1705/2/6
f 1705/2/6 1696/2/6 1706/2/6
f 1706/2/6 1696/2/6 1707/2/6
f 1707/2/6 1696/2/6 1708/2/6
f 1704/2/6 1705/2/6 1710/2/6
f 1705/2/6 1706/2/6 1710/2/6
f 1706/3/6 1707/3/6 1711/3/6
f 1710/2/6 1706/2/6 1711/2/6
f 1707/2/6 1708/2/6 1712/2/6
f 1711/3/6 1707/3/6 1712/3/6
f 1712/2/6 1708/2/6 1713/2/6
f 1708/3/6 1709/3/6 1714/3/6
f 1713/2/6 1708/2/6 1714/2/6
f 1714/3/6 1709/3/6 1715/3/6
f 1672/2/6 1704/2/6 1716/2/6
f 1704/2/6 1710/2/6 1716/2/6
f 1716/2/6 1710/2/6 1717/2/6
f 1714/2/6 1715/2/6 1720/2/6
f 1713/2/6 1714/2/6 1720/2/6
f 1720/2/6 1715/2/6 1721/2/6
f 1718/12/6 1719/12/6 1722/12/6
f 1722/12/6 1719/12/6 1723/12/6
f 1724/13/6 1725/13/6 1728/13/6
f 1726/13/6 1727/13/6 1729/13/6
f 1729/13/6 1727/13/6 1730/13/6
f 1724/13/6 1728/13/6 1731/13/6
f 1728/13/6 1729/13/6 1731/13/6
f 1729/13/6 1730/13/6 1731/13/6
f 1731/13/6 1730/13/6 1732/13/6
f 1733/13/6 1734/13/6 1735/13/6
f 1735/13/6 1734/13/6 1736/13/6
f 1733/13/6 1735/13/6 1737/13/6
f 1737/13/6 1735/13/6 1738/13/6
f 1736/13/6 1734/13/6 1739/13/6
f 1739/13/6 1734/13/6 1740/13/6
f 1741/4/6 1742/4/6 1745/4/6
f 1745/4/6 1742/4/6 1746/4/6
f 1742/14/6 1743/14/6 1747/14/6
f 1746/4/6 1742/4/6 1747/4/6
f 1743/13/6 1744/13/6 1748/13/6
f 1747/14/6 1743/14/6 1748/14/6
f 1748/13/6 1744/13/6 1749/13/6
f 1750/12/6 1751/12/6 1752/12/6
f 1752/12/6 1751/12/6 1753/12/6
f 1754/4/6 1755/4/6 1759/4/6
f 1755/4/6 1756/4/6 1759/4/6
f 1756/14/6 1757/14/6 1760/14/6
f 1759/4/6 1756/4/6 1760/4/6
f 1757/13/6 1758/13/6 1761/13/6
f 1760/14/6 1757/14/6 1761/14/6
f 1761/13/6 1758/13/6 1762/13/6
f 1763/2/6 1764/2/6 1767/2/6
f 1764/3/6 1765/3/6 1767/3/6
f 1765/2/6 1766/2/6 1768/2/6
f 1767/3/6 1765/3/6 1768/3/6
f 1768/2/6 1766/2/6 1769/2/6
f 1763/2/6 1767/2/6 1775/2/6
f 1767/2/6 1768/2/6 1775/2/6
f 1768/2/6 1769/2/6 1775/2/6
f 1771/6/6 1772/6/6 1776/6/6
f 1772/5/6 1773/5/6 1777/5/6
f 1776/6/6 1772/6/6 1777/6/6
f 1773/14/6 1774/14/6 1778/14/6
f 1777/5/6 1773/5/6 1778/5/6
f 1774/13/6 1775/13/6 1779/13/6
f 1778/14/6 1774/14/6 1779/14/6
f 1775/2/6 1769/2/6 1780/2/6
f 1779/13/6 1775/13/6 1780/13/6
f 1769/12/6 1770/12/6 1781/12/6
f 1780/2/6 1769/2/6 1781/2/6
f 1781/12/6 1770/12/6 1782/12/6
f 1783/6/6 1784/6/6 1791/6/6
f 1784/5/6 1785/5/6 1792/5/6
f 1791/6/6 1784/6/6 1792/6/6
f 1785/14/6 1786/14/6 1793/14/6
f 1792/5/6 1785/5/6 1793/5/6
f 1786/13/6 1787/13/6 1794/13/6
f 1793/14/6 1786/14/6 1794/14/6
f 1787/3/6 1788/3/6 1795/3/6
f 1794/13/6 1787/13/6 1795/13/6
f 1788/2/6 1789/2/6 1796/2/6
f 1795/3/6 1788/3/6 1796/3/6
f 1796/2/6 1789/2/6 1797/2/6
f 1795/2/6 1796/2/6 1797/2/6
f 1797/2/6 1789/2/6 1798/2/6
f 1789/12/6 1790/12/6 1799/12/6
f 1798/2/6 1789/2/6 1799/2/6
f 1799/12/6 1790/12/6 1800/12/6
f 1795/2/6 1797/2/6 1801/2/6
f 1797/3/6 1798/3/6 1802/3/6
f 1801/2/6 1797/2/6 1802/2/6
f 1798/2/6 1799/2/6 1803/2/6
f 1802/3/6 1798/3/6 1803/3/6
f 1803/2/6 1799/2/6 1804/2/6
f 1805/1/6 1806/1/6 1807/1/6
f 1807/1/6 1806/1/6 1808/1/6
