%YAML 1.1
%TAG !u! tag:unity3d.com,2011:
--- !u!114 &11400000
MonoBehaviour:
  m_ObjectHideFlags: 0
  m_PrefabParentObject: {fileID: 0}
  m_PrefabInternal: {fileID: 0}
  m_GameObject: {fileID: 0}
  m_Enabled: 1
  m_EditorHideFlags: 0
  m_Script: {fileID: 16995157, guid: e13b74993f6c3cd47a6d5e1dba5d5a1c, type: 3}
  m_Name: DOTweenSettings
  m_EditorClassIdentifier: 
  useSafeMode: 1
  timeScale: 1
  useSmoothDeltaTime: 0
  maxSmoothUnscaledTime: 0.15
  showUnityEditorReport: 0
  logBehaviour: 2
  drawGizmos: 1
  defaultRecyclable: 0
  defaultAutoPlay: 3
  defaultUpdateType: 0
  defaultTimeScaleIndependent: 0
  defaultEaseType: 6
  defaultEaseOvershootOrAmplitude: 1.70158
  defaultEasePeriod: 0
  defaultAutoKill: 1
  defaultLoopType: 0
  storeSettingsLocation: 0
