# MagicaVoxel @ Ephtracy

# material
mtllib infantry02-03.mtl
usemtl palette

# normals
vn -1 0 0
vn 1 0 0
vn 0 0 1
vn 0 0 -1
vn 0 -1 0
vn 0 1 0

# texcoords
vt 0.138672 0.5
vt 0.283203 0.5
vt 0.447266 0.5
vt 0.630859 0.5
vt 0.654297 0.5
vt 0.978516 0.5
vt 0.982422 0.5
vt 0.986328 0.5

# verts
v -5 8 2
v -5 8 1
v -5 9 2
v -5 9 1
v -4 6 1
v -4 6 -0
v -4 7 4
v -4 7 3
v -4 7 2
v -4 7 1
v -4 8 5
v -4 8 4
v -4 8 2
v -4 8 1
v -4 9 5
v -4 9 4
v -4 9 3
v -4 9 2
v -4 9 1
v -4 10 2
v -4 10 -0
v -3 8 -0
v -3 8 -1
v -3 10 -0
v -3 10 -1
v -2 1 3
v -2 1 -0
v -2 2 3
v -2 2 2
v -2 2 -0
v -2 2 -1
v -2 4 2
v -2 4 1
v -2 4 -0
v -2 4 -1
v -2 5 -0
v -2 5 -1
v -2 6 -0
v -2 6 -1
v -2 8 1
v -2 8 -0
v -1 6 -0
v -1 6 -1
v -1 6 -2
v -1 7 2
v -1 7 1
v -1 7 -1
v -1 7 -2
v -1 8 1
v -1 8 -0
v -1 8 -1
v -1 9 2
v -1 9 1
v -1 9 -1
v -1 9 -2
v -1 10 1
v -1 10 -0
v -1 10 -1
v -1 10 -2
v -1 11 1
v -1 11 -0
v -1 11 -1
v -1 11 -2
v -1 12 2
v -1 12 -0
v 1 0 1
v 1 0 -2
v 1 1 1
v 1 1 -0
v 1 1 -1
v 1 2 1
v 1 2 -0
v 1 2 -1
v 1 2 -2
v 1 3 2
v 1 3 1
v 1 3 -0
v 1 3 -1
v 1 4 2
v 1 4 1
v 1 5 2
v 1 5 1
v 1 5 -0
v 1 6 2
v 1 6 1
v 1 11 -0
v 1 11 -1
v 1 12 -0
v 1 12 -1
v 1 13 -0
v 1 13 -1
v 2 7 -0
v 2 7 -1
v 2 8 -0
v 2 8 -1
v 3 6 2
v 3 6 -0
v 3 7 4
v 3 7 3
v 3 7 2
v 3 7 1
v 3 7 -0
v 3 8 4
v 3 8 3
v 3 8 2
v 3 9 2
v 3 9 1
v -3 6 1
v -3 6 -0
v -3 7 4
v -3 7 3
v -3 7 2
v -3 7 1
v -3 8 5
v -3 8 4
v -3 8 1
v -3 8 -0
v -3 9 5
v -3 9 4
v -3 9 3
v -3 9 2
v -3 9 1
v -2 9 2
v -2 9 1
v -2 10 2
v -2 10 1
v -1 1 3
v -1 1 -0
v -1 2 3
v -1 2 2
v -1 2 -0
v -1 2 -1
v -1 4 2
v -1 4 1
v -1 4 -0
v -1 4 -1
v -1 5 1
v -1 5 -0
v -1 5 -1
v -1 6 -0
v -1 6 -1
v 1 6 -0
v 1 6 -2
v 1 7 2
v 1 7 1
v 1 7 -0
v 1 7 -1
v 1 7 -2
v 1 8 1
v 1 8 -0
v 1 8 -1
v 1 8 -2
v 1 9 2
v 1 9 1
v 1 9 -1
v 1 9 -2
v 1 10 2
v 1 10 1
v 1 10 -0
v 1 10 -1
v 1 10 -2
v 1 11 1
v 1 11 -0
v 1 11 -1
v 1 11 -2
v 1 12 2
v 1 12 1
v 1 12 -0
v 2 0 1
v 2 0 -2
v 2 1 1
v 2 1 -0
v 2 1 -1
v 2 2 1
v 2 2 -0
v 2 2 -1
v 2 2 -2
v 2 3 2
v 2 3 1
v 2 3 -0
v 2 3 -1
v 2 4 2
v 2 4 1
v 2 5 2
v 2 5 1
v 2 6 2
v 2 6 1
v 2 6 -0
v 2 7 1
v 2 7 -0
v 2 10 -0
v 2 10 -1
v 2 12 -0
v 2 12 -1
v 2 13 -0
v 2 13 -1
v 3 9 -0
v 3 9 -1
v 3 10 -0
v 3 10 -1
v 4 6 2
v 4 6 -0
v 4 7 4
v 4 7 3
v 4 7 2
v 4 7 -0
v 4 7 -1
v 4 8 4
v 4 8 3
v 4 8 2
v 4 9 2
v 4 9 1
v 4 9 -0
v 4 9 -1
v 4 10 1
v 4 10 -0
v -4 8 5
v -4 9 5
v -3 8 5
v -3 9 5
v -4 7 4
v -4 8 4
v -3 7 4
v -3 8 4
v 3 7 4
v 3 8 4
v 4 7 4
v 4 8 4
v -2 1 3
v -2 2 3
v -1 1 3
v -1 2 3
v -5 8 2
v -5 9 2
v -4 8 2
v -4 9 2
v -4 10 2
v -3 9 2
v -2 2 2
v -2 4 2
v -2 9 2
v -2 10 2
v -1 2 2
v -1 4 2
v -1 7 2
v -1 9 2
v -1 12 2
v 0 10 2
v 0 12 2
v 1 3 2
v 1 4 2
v 1 5 2
v 1 6 2
v 1 7 2
v 1 9 2
v 1 10 2
v 1 12 2
v 2 3 2
v 2 4 2
v 2 5 2
v 2 6 2
v 3 6 2
v 3 7 2
v 3 8 2
v 3 9 2
v 4 6 2
v 4 7 2
v 4 8 2
v 4 9 2
v -4 6 1
v -4 7 1
v -3 6 1
v -3 7 1
v -3 8 1
v -3 9 1
v -2 4 1
v -2 8 1
v -2 9 1
v -2 10 1
v -1 4 1
v -1 5 1
v -1 7 1
v -1 8 1
v -1 9 1
v -1 10 1
v 1 0 1
v 1 1 1
v 1 2 1
v 1 3 1
v 1 5 1
v 1 6 1
v 1 7 1
v 1 8 1
v 1 9 1
v 1 10 1
v 2 0 1
v 2 1 1
v 2 2 1
v 2 3 1
v 2 6 1
v 2 7 1
v 2 8 1
v 2 9 1
v 2 10 1
v 3 7 1
v 3 9 1
v 3 10 1
v 4 9 1
v 4 10 1
v 1 1 -0
v 1 2 -0
v 1 10 -0
v 1 11 -0
v 1 12 -0
v 1 13 -0
v 2 1 -0
v 2 2 -0
v 2 10 -0
v 2 12 -0
v 2 13 -0
v -5 8 1
v -5 9 1
v -4 8 1
v -4 9 1
v -4 6 -0
v -4 10 -0
v -3 6 -0
v -3 8 -0
v -3 10 -0
v -2 1 -0
v -2 2 -0
v -2 4 -0
v -2 5 -0
v -2 6 -0
v -2 8 -0
v -1 1 -0
v -1 2 -0
v -1 4 -0
v -1 5 -0
v -1 6 -0
v -1 8 -0
v -1 11 -0
v -1 12 -0
v 1 3 -0
v 1 5 -0
v 1 6 -0
v 1 7 -0
v 1 8 -0
v 1 11 -0
v 1 12 -0
v 2 3 -0
v 2 6 -0
v 2 7 -0
v 2 8 -0
v 3 6 -0
v 3 7 -0
v 3 9 -0
v 3 10 -0
v 4 6 -0
v 4 7 -0
v 4 9 -0
v 4 10 -0
v -3 8 -1
v -3 10 -1
v -2 2 -1
v -2 4 -1
v -2 5 -1
v -2 6 -1
v -2 8 -1
v -2 10 -1
v -1 2 -1
v -1 4 -1
v -1 5 -1
v -1 6 -1
v -1 8 -1
v -1 9 -1
v -1 10 -1
v 1 2 -1
v 1 3 -1
v 1 8 -1
v 1 9 -1
v 1 10 -1
v 1 11 -1
v 1 12 -1
v 1 13 -1
v 2 2 -1
v 2 3 -1
v 2 7 -1
v 2 8 -1
v 2 10 -1
v 2 12 -1
v 2 13 -1
v 3 9 -1
v 3 10 -1
v 4 7 -1
v 4 9 -1
v -1 6 -2
v -1 7 -2
v -1 9 -2
v -1 10 -2
v -1 11 -2
v 0 8 -2
v 0 9 -2
v 0 10 -2
v 0 11 -2
v 1 0 -2
v 1 2 -2
v 1 6 -2
v 1 7 -2
v 1 8 -2
v 1 9 -2
v 1 10 -2
v 1 11 -2
v 2 0 -2
v 2 2 -2
v 1 0 1
v 2 0 1
v 1 0 -2
v 2 0 -2
v -2 1 3
v -1 1 3
v -2 1 -0
v -1 1 -0
v 1 2 1
v 2 2 1
v -2 2 -0
v -1 2 -0
v 1 2 -0
v 2 2 -0
v -2 2 -1
v -1 2 -1
v 1 3 2
v 2 3 2
v 1 3 1
v 2 3 1
v -1 5 1
v 1 5 1
v -2 5 -0
v -1 5 -0
v 1 5 -0
v -2 5 -1
v -1 5 -1
v 3 6 2
v 4 6 2
v -4 6 1
v -3 6 1
v -4 6 -0
v -3 6 -0
v -1 6 -0
v 1 6 -0
v 3 6 -0
v 4 6 -0
v -1 6 -1
v -1 6 -2
v 1 6 -2
v -4 7 4
v -3 7 4
v 3 7 4
v 4 7 4
v -4 7 3
v -3 7 3
v 3 7 3
v 4 7 3
v -4 7 2
v -3 7 2
v -1 7 2
v 1 7 2
v 3 7 2
v 4 7 2
v -4 7 1
v -3 7 1
v -1 7 1
v 1 7 1
v 2 7 1
v 3 7 1
v 2 7 -0
v 3 7 -0
v 4 7 -0
v 2 7 -1
v 4 7 -1
v -4 8 5
v -3 8 5
v -4 8 4
v -3 8 4
v -5 8 2
v -4 8 2
v -5 8 1
v -4 8 1
v -3 8 1
v -2 8 1
v -3 8 -0
v -2 8 -0
v -1 8 -0
v 1 8 -0
v 2 8 -0
v -3 8 -1
v -2 8 -1
v -1 8 -1
v 1 8 -1
v 2 8 -1
v -3 9 2
v -2 9 2
v -3 9 1
v -2 9 1
v 1 1 1
v 2 1 1
v 1 1 -0
v 2 1 -0
v -2 2 3
v -1 2 3
v -2 2 2
v -1 2 2
v 1 2 -1
v 2 2 -1
v 1 2 -2
v 2 2 -2
v 1 3 -0
v 2 3 -0
v 1 3 -1
v 2 3 -1
v -2 4 2
v -1 4 2
v -2 4 1
v -1 4 1
v -2 4 -0
v -1 4 -0
v -2 4 -1
v -1 4 -1
v 1 6 2
v 2 6 2
v 1 6 1
v 2 6 1
v -2 6 -0
v -1 6 -0
v -2 6 -1
v -1 6 -1
v 3 8 4
v 4 8 4
v 3 8 3
v 4 8 3
v 3 8 2
v 4 8 2
v -4 9 5
v -3 9 5
v -4 9 4
v -3 9 4
v -4 9 3
v -3 9 3
v -5 9 2
v -4 9 2
v -3 9 2
v 3 9 2
v 4 9 2
v -5 9 1
v -4 9 1
v 3 9 1
v 4 9 1
v 3 9 -0
v 4 9 -0
v 3 9 -1
v 4 9 -1
v -4 10 2
v -2 10 2
v -2 10 1
v -1 10 1
v 1 10 1
v 2 10 1
v 3 10 1
v 4 10 1
v -4 10 -0
v -3 10 -0
v -1 10 -0
v 1 10 -0
v 2 10 -0
v 3 10 -0
v 4 10 -0
v -3 10 -1
v -2 10 -1
v -1 10 -1
v 2 10 -1
v 3 10 -1
v -1 11 -0
v 1 11 -0
v -1 11 -1
v 0 11 -1
v 1 11 -1
v -1 11 -2
v 0 11 -2
v 1 11 -2
v -1 12 2
v 0 12 2
v 1 12 2
v 0 12 1
v 1 12 1
v -1 12 -0
v 1 12 -0
v 1 13 -0
v 2 13 -0
v 1 13 -1
v 2 13 -1

# faces
f 3/5/1 2/5/1 1/5/1
f 4/5/1 2/5/1 3/5/1
f 10/5/1 6/5/1 5/5/1
f 12/8/1 8/8/1 7/8/1
f 13/7/1 9/7/1 8/7/1
f 13/5/1 10/5/1 9/5/1
f 14/5/1 6/5/1 10/5/1
f 14/5/1 10/5/1 13/5/1
f 15/6/1 12/6/1 11/6/1
f 16/8/1 8/8/1 12/8/1
f 16/6/1 12/6/1 15/6/1
f 17/7/1 13/7/1 8/7/1
f 17/8/1 8/8/1 16/8/1
f 18/7/1 13/7/1 17/7/1
f 19/5/1 6/5/1 14/5/1
f 20/5/1 19/5/1 18/5/1
f 21/5/1 6/5/1 19/5/1
f 21/5/1 19/5/1 20/5/1
f 24/5/1 23/5/1 22/5/1
f 25/5/1 23/5/1 24/5/1
f 28/5/1 27/5/1 26/5/1
f 29/5/1 27/5/1 28/5/1
f 30/5/1 27/5/1 29/5/1
f 32/5/1 31/5/1 30/5/1
f 32/5/1 30/5/1 29/5/1
f 33/5/1 31/5/1 32/5/1
f 34/5/1 31/5/1 33/5/1
f 35/5/1 31/5/1 34/5/1
f 36/5/1 34/5/1 33/5/1
f 38/5/1 36/5/1 33/5/1
f 38/5/1 37/5/1 36/5/1
f 39/5/1 37/5/1 38/5/1
f 40/5/1 38/5/1 33/5/1
f 41/5/1 38/5/1 40/5/1
f 47/5/1 43/5/1 42/5/1
f 47/5/1 44/5/1 43/5/1
f 48/5/1 44/5/1 47/5/1
f 49/5/1 46/5/1 45/5/1
f 50/5/1 47/5/1 42/5/1
f 51/8/1 48/8/1 47/8/1
f 51/5/1 47/5/1 50/5/1
f 52/5/1 49/5/1 45/5/1
f 53/5/1 49/5/1 52/5/1
f 54/8/1 48/8/1 51/8/1
f 55/8/1 48/8/1 54/8/1
f 56/3/1 53/3/1 52/3/1
f 58/6/1 55/6/1 54/6/1
f 59/6/1 55/6/1 58/6/1
f 60/8/1 57/8/1 56/8/1
f 60/3/1 56/3/1 52/3/1
f 61/6/1 58/6/1 57/6/1
f 61/8/1 57/8/1 60/8/1
f 62/7/1 59/7/1 58/7/1
f 62/6/1 58/6/1 61/6/1
f 63/7/1 59/7/1 62/7/1
f 64/3/1 61/3/1 60/3/1
f 64/3/1 60/3/1 52/3/1
f 65/3/1 61/3/1 64/3/1
f 68/5/1 67/5/1 66/5/1
f 69/5/1 67/5/1 68/5/1
f 70/5/1 67/5/1 69/5/1
f 72/4/1 70/4/1 69/4/1
f 73/5/1 67/5/1 70/5/1
f 73/4/1 70/4/1 72/4/1
f 74/5/1 67/5/1 73/5/1
f 76/5/1 72/5/1 71/5/1
f 76/5/1 73/5/1 72/5/1
f 77/5/1 73/5/1 76/5/1
f 78/5/1 73/5/1 77/5/1
f 79/5/1 76/5/1 75/5/1
f 79/5/1 77/5/1 76/5/1
f 80/5/1 77/5/1 79/5/1
f 81/4/1 80/4/1 79/4/1
f 82/5/1 77/5/1 80/5/1
f 82/4/1 80/4/1 81/4/1
f 83/5/1 77/5/1 82/5/1
f 84/5/1 82/5/1 81/5/1
f 85/5/1 82/5/1 84/5/1
f 88/8/1 87/8/1 86/8/1
f 89/8/1 87/8/1 88/8/1
f 90/1/1 89/1/1 88/1/1
f 91/1/1 89/1/1 90/1/1
f 94/5/1 93/5/1 92/5/1
f 95/5/1 93/5/1 94/5/1
f 100/5/1 97/5/1 96/5/1
f 101/5/1 97/5/1 100/5/1
f 102/5/1 97/5/1 101/5/1
f 103/7/1 99/7/1 98/7/1
f 104/8/1 100/8/1 99/8/1
f 104/7/1 99/7/1 103/7/1
f 105/5/1 101/5/1 100/5/1
f 105/8/1 100/8/1 104/8/1
f 106/5/1 101/5/1 105/5/1
f 107/5/1 101/5/1 106/5/1
f 108/5/2 109/5/2 113/5/2
f 110/8/2 111/8/2 115/8/2
f 112/5/2 113/5/2 116/5/2
f 113/5/2 109/5/2 116/5/2
f 116/5/2 109/5/2 117/5/2
f 114/6/2 115/6/2 118/6/2
f 115/8/2 111/8/2 119/8/2
f 118/6/2 115/6/2 119/6/2
f 111/7/2 112/7/2 120/7/2
f 119/8/2 111/8/2 120/8/2
f 112/5/2 116/5/2 121/5/2
f 120/7/2 112/7/2 121/7/2
f 121/5/2 116/5/2 122/5/2
f 123/5/2 124/5/2 125/5/2
f 125/5/2 124/5/2 126/5/2
f 127/5/2 128/5/2 129/5/2
f 129/5/2 128/5/2 130/5/2
f 130/5/2 128/5/2 131/5/2
f 131/5/2 132/5/2 133/5/2
f 130/5/2 131/5/2 133/5/2
f 133/5/2 132/5/2 134/5/2
f 134/5/2 132/5/2 135/5/2
f 135/5/2 132/5/2 136/5/2
f 134/5/2 135/5/2 137/5/2
f 137/5/2 135/5/2 138/5/2
f 138/5/2 139/5/2 140/5/2
f 140/5/2 139/5/2 141/5/2
f 142/5/2 143/5/2 146/5/2
f 146/5/2 143/5/2 147/5/2
f 147/5/2 143/5/2 148/5/2
f 144/5/2 145/5/2 149/5/2
f 146/5/2 147/5/2 150/5/2
f 147/8/2 148/8/2 151/8/2
f 150/5/2 147/5/2 151/5/2
f 151/8/2 148/8/2 152/8/2
f 144/5/2 149/5/2 153/5/2
f 153/5/2 149/5/2 154/5/2
f 151/7/2 152/7/2 155/7/2
f 155/7/2 152/7/2 156/7/2
f 153/3/2 154/3/2 157/3/2
f 157/3/2 154/3/2 158/3/2
f 155/6/2 156/6/2 160/6/2
f 160/6/2 156/6/2 161/6/2
f 158/6/2 159/6/2 162/6/2
f 157/2/2 158/2/2 162/2/2
f 162/6/2 159/6/2 163/6/2
f 160/8/2 161/8/2 164/8/2
f 164/8/2 161/8/2 165/8/2
f 157/2/2 162/2/2 166/2/2
f 162/3/2 163/3/2 167/3/2
f 166/2/2 162/2/2 167/2/2
f 167/3/2 163/3/2 168/3/2
f 169/5/2 170/5/2 171/5/2
f 171/5/2 170/5/2 172/5/2
f 172/5/2 170/5/2 173/5/2
f 172/4/2 173/4/2 175/4/2
f 173/5/2 170/5/2 176/5/2
f 175/4/2 173/4/2 176/4/2
f 176/5/2 170/5/2 177/5/2
f 174/5/2 175/5/2 179/5/2
f 175/5/2 176/5/2 179/5/2
f 179/5/2 176/5/2 180/5/2
f 180/5/2 176/5/2 181/5/2
f 178/5/2 179/5/2 182/5/2
f 179/5/2 180/5/2 182/5/2
f 182/5/2 180/5/2 183/5/2
f 182/4/2 183/4/2 184/4/2
f 183/5/2 180/5/2 185/5/2
f 184/4/2 183/4/2 185/4/2
f 184/5/2 185/5/2 186/5/2
f 185/5/2 180/5/2 187/5/2
f 186/5/2 185/5/2 187/5/2
f 187/5/2 180/5/2 188/5/2
f 187/4/2 188/4/2 189/4/2
f 189/4/2 188/4/2 190/4/2
f 191/8/2 192/8/2 193/8/2
f 193/8/2 192/8/2 194/8/2
f 193/1/2 194/1/2 195/1/2
f 195/1/2 194/1/2 196/1/2
f 197/5/2 198/5/2 199/5/2
f 199/5/2 198/5/2 200/5/2
f 201/5/2 202/5/2 205/5/2
f 205/5/2 202/5/2 206/5/2
f 203/7/2 204/7/2 208/7/2
f 204/8/2 205/8/2 209/8/2
f 208/7/2 204/7/2 209/7/2
f 206/5/2 207/5/2 210/5/2
f 209/8/2 205/8/2 210/8/2
f 205/5/2 206/5/2 210/5/2
f 210/5/2 207/5/2 211/5/2
f 211/5/2 207/5/2 212/5/2
f 212/5/2 207/5/2 213/5/2
f 213/5/2 207/5/2 214/5/2
f 212/5/2 213/5/2 215/5/2
f 215/5/2 213/5/2 216/5/2
f 219/6/3 218/6/3 217/6/3
f 220/6/3 218/6/3 219/6/3
f 223/8/3 222/8/3 221/8/3
f 224/8/3 222/8/3 223/8/3
f 227/7/3 226/7/3 225/7/3
f 228/7/3 226/7/3 227/7/3
f 231/5/3 230/5/3 229/5/3
f 232/5/3 230/5/3 231/5/3
f 235/5/3 234/5/3 233/5/3
f 236/5/3 234/5/3 235/5/3
f 238/5/3 237/5/3 236/5/3
f 241/5/3 237/5/3 238/5/3
f 242/5/3 237/5/3 241/5/3
f 243/5/3 240/5/3 239/5/3
f 244/5/3 240/5/3 243/5/3
f 248/3/3 247/3/3 246/3/3
f 249/3/3 247/3/3 248/3/3
f 254/5/3 246/5/3 245/5/3
f 255/3/3 248/3/3 246/3/3
f 255/5/3 246/5/3 254/5/3
f 256/2/3 249/2/3 248/2/3
f 256/3/3 248/3/3 255/3/3
f 257/2/3 249/2/3 256/2/3
f 258/5/3 251/5/3 250/5/3
f 259/4/3 252/4/3 251/4/3
f 259/5/3 251/5/3 258/5/3
f 260/5/3 253/5/3 252/5/3
f 260/4/3 252/4/3 259/4/3
f 261/5/3 253/5/3 260/5/3
f 266/5/3 263/5/3 262/5/3
f 267/5/3 263/5/3 266/5/3
f 268/5/3 265/5/3 264/5/3
f 269/5/3 265/5/3 268/5/3
f 272/5/3 271/5/3 270/5/3
f 273/5/3 271/5/3 272/5/3
f 277/5/3 275/5/3 274/5/3
f 278/5/3 275/5/3 277/5/3
f 280/5/3 277/5/3 276/5/3
f 281/5/3 277/5/3 280/5/3
f 282/5/3 277/5/3 281/5/3
f 283/8/3 279/8/3 278/8/3
f 283/5/3 277/5/3 282/5/3
f 283/8/3 278/8/3 277/8/3
f 284/8/3 279/8/3 283/8/3
f 285/8/3 279/8/3 284/8/3
f 290/5/3 282/5/3 281/5/3
f 291/5/3 282/5/3 290/5/3
f 292/5/3 282/5/3 291/5/3
f 296/5/3 287/5/3 286/5/3
f 297/5/3 287/5/3 296/5/3
f 298/5/3 289/5/3 288/5/3
f 299/5/3 289/5/3 298/5/3
f 300/4/3 292/4/3 291/4/3
f 301/5/3 293/5/3 292/5/3
f 301/4/3 292/4/3 300/4/3
f 302/8/3 295/8/3 294/8/3
f 302/5/3 293/5/3 301/5/3
f 302/8/3 294/8/3 293/8/3
f 303/8/3 295/8/3 302/8/3
f 304/8/3 295/8/3 303/8/3
f 305/5/3 303/5/3 302/5/3
f 305/5/3 302/5/3 301/5/3
f 306/4/3 304/4/3 303/4/3
f 306/5/3 303/5/3 305/5/3
f 307/4/3 304/4/3 306/4/3
f 308/5/3 307/5/3 306/5/3
f 309/5/3 307/5/3 308/5/3
f 316/4/3 311/4/3 310/4/3
f 317/4/3 311/4/3 316/4/3
f 318/8/3 313/8/3 312/8/3
f 318/8/3 314/8/3 313/8/3
f 319/1/3 315/1/3 314/1/3
f 319/8/3 314/8/3 318/8/3
f 320/1/3 315/1/3 319/1/3
f 321/5/4 322/5/4 323/5/4
f 323/5/4 322/5/4 324/5/4
f 325/5/4 326/5/4 327/5/4
f 327/5/4 326/5/4 328/5/4
f 328/5/4 326/5/4 329/5/4
f 330/5/4 331/5/4 336/5/4
f 336/5/4 331/5/4 337/5/4
f 332/5/4 333/5/4 338/5/4
f 338/5/4 333/5/4 339/5/4
f 334/5/4 335/5/4 340/5/4
f 340/5/4 335/5/4 341/5/4
f 339/5/4 340/5/4 345/5/4
f 345/5/4 340/5/4 346/5/4
f 342/3/4 343/3/4 349/3/4
f 349/3/4 343/3/4 350/3/4
f 344/5/4 345/5/4 351/5/4
f 345/5/4 346/5/4 351/5/4
f 346/4/4 347/4/4 352/4/4
f 351/5/4 346/5/4 352/5/4
f 347/5/4 348/5/4 353/5/4
f 352/4/4 347/4/4 353/4/4
f 353/5/4 348/5/4 354/5/4
f 355/5/4 356/5/4 359/5/4
f 359/5/4 356/5/4 360/5/4
f 357/5/4 358/5/4 361/5/4
f 361/5/4 358/5/4 362/5/4
f 363/5/4 364/5/4 369/5/4
f 369/5/4 364/5/4 370/5/4
f 365/5/4 366/5/4 371/5/4
f 371/5/4 366/5/4 372/5/4
f 367/5/4 368/5/4 373/5/4
f 373/5/4 368/5/4 374/5/4
f 369/8/4 370/8/4 375/8/4
f 375/8/4 370/8/4 376/8/4
f 376/8/4 370/8/4 377/8/4
f 378/5/4 379/5/4 386/5/4
f 386/5/4 379/5/4 387/5/4
f 381/8/4 382/8/4 389/8/4
f 380/8/4 381/8/4 389/8/4
f 382/8/4 383/8/4 389/8/4
f 383/8/4 384/8/4 389/8/4
f 389/8/4 384/8/4 390/8/4
f 384/1/4 385/1/4 391/1/4
f 390/8/4 384/8/4 391/8/4
f 391/1/4 385/1/4 392/1/4
f 389/5/4 390/5/4 393/5/4
f 388/5/4 389/5/4 393/5/4
f 393/5/4 390/5/4 394/5/4
f 388/5/4 393/5/4 395/5/4
f 395/5/4 393/5/4 396/5/4
f 398/8/4 399/8/4 402/8/4
f 399/6/4 400/6/4 403/6/4
f 402/8/4 399/8/4 403/8/4
f 400/7/4 401/7/4 404/7/4
f 403/6/4 400/6/4 404/6/4
f 404/7/4 401/7/4 405/7/4
f 397/5/4 398/5/4 408/5/4
f 398/8/4 402/8/4 409/8/4
f 408/5/4 398/5/4 409/5/4
f 402/7/4 403/7/4 410/7/4
f 409/8/4 402/8/4 410/8/4
f 403/6/4 404/6/4 411/6/4
f 410/7/4 403/7/4 411/7/4
f 404/8/4 405/8/4 412/8/4
f 411/6/4 404/6/4 412/6/4
f 412/8/4 405/8/4 413/8/4
f 406/5/4 407/5/4 414/5/4
f 414/5/4 407/5/4 415/5/4
f 418/5/5 417/5/5 416/5/5
f 419/5/5 417/5/5 418/5/5
f 422/5/5 421/5/5 420/5/5
f 423/5/5 421/5/5 422/5/5
f 428/5/5 425/5/5 424/5/5
f 429/5/5 425/5/5 428/5/5
f 430/5/5 427/5/5 426/5/5
f 431/5/5 427/5/5 430/5/5
f 434/5/5 433/5/5 432/5/5
f 435/5/5 433/5/5 434/5/5
f 439/5/5 437/5/5 436/5/5
f 440/5/5 437/5/5 439/5/5
f 441/5/5 439/5/5 438/5/5
f 442/5/5 439/5/5 441/5/5
f 447/5/5 446/5/5 445/5/5
f 448/5/5 446/5/5 447/5/5
f 451/5/5 444/5/5 443/5/5
f 452/5/5 444/5/5 451/5/5
f 453/5/5 450/5/5 449/5/5
f 454/5/5 450/5/5 453/5/5
f 455/5/5 450/5/5 454/5/5
f 460/8/5 457/8/5 456/8/5
f 461/8/5 457/8/5 460/8/5
f 462/7/5 459/7/5 458/7/5
f 463/7/5 459/7/5 462/7/5
f 464/7/5 461/7/5 460/7/5
f 465/7/5 461/7/5 464/7/5
f 468/8/5 463/8/5 462/8/5
f 469/8/5 463/8/5 468/8/5
f 470/5/5 465/5/5 464/5/5
f 471/5/5 465/5/5 470/5/5
f 472/5/5 467/5/5 466/5/5
f 473/5/5 467/5/5 472/5/5
f 476/5/5 475/5/5 474/5/5
f 477/5/5 475/5/5 476/5/5
f 479/5/5 477/5/5 476/5/5
f 479/5/5 478/5/5 477/5/5
f 480/5/5 478/5/5 479/5/5
f 483/6/5 482/6/5 481/6/5
f 484/6/5 482/6/5 483/6/5
f 487/5/5 486/5/5 485/5/5
f 488/5/5 486/5/5 487/5/5
f 491/5/5 490/5/5 489/5/5
f 492/5/5 490/5/5 491/5/5
f 496/5/5 492/5/5 491/5/5
f 497/8/5 493/8/5 492/8/5
f 497/5/5 492/5/5 496/5/5
f 498/8/5 493/8/5 497/8/5
f 499/8/5 495/8/5 494/8/5
f 500/8/5 495/8/5 499/8/5
f 503/5/5 502/5/5 501/5/5
f 504/5/5 502/5/5 503/5/5
f 505/5/6 506/5/6 507/5/6
f 507/5/6 506/5/6 508/5/6
f 509/5/6 510/5/6 511/5/6
f 511/5/6 510/5/6 512/5/6
f 513/5/6 514/5/6 515/5/6
f 515/5/6 514/5/6 516/5/6
f 517/5/6 518/5/6 519/5/6
f 519/5/6 518/5/6 520/5/6
f 521/5/6 522/5/6 523/5/6
f 523/5/6 522/5/6 524/5/6
f 525/5/6 526/5/6 527/5/6
f 527/5/6 526/5/6 528/5/6
f 529/5/6 530/5/6 531/5/6
f 531/5/6 530/5/6 532/5/6
f 533/5/6 534/5/6 535/5/6
f 535/5/6 534/5/6 536/5/6
f 537/7/6 538/7/6 539/7/6
f 539/7/6 538/7/6 540/7/6
f 539/8/6 540/8/6 541/8/6
f 541/8/6 540/8/6 542/8/6
f 543/6/6 544/6/6 545/6/6
f 545/6/6 544/6/6 546/6/6
f 545/8/6 546/8/6 547/8/6
f 547/8/6 546/8/6 548/8/6
f 547/7/6 548/7/6 550/7/6
f 550/7/6 548/7/6 551/7/6
f 549/5/6 550/5/6 554/5/6
f 554/5/6 550/5/6 555/5/6
f 552/5/6 553/5/6 556/5/6
f 556/5/6 553/5/6 557/5/6
f 558/5/6 559/5/6 560/5/6
f 560/5/6 559/5/6 561/5/6
f 562/5/6 563/5/6 564/5/6
f 562/5/6 564/5/6 570/5/6
f 570/5/6 564/5/6 571/5/6
f 564/8/6 565/8/6 572/8/6
f 566/8/6 567/8/6 573/8/6
f 567/4/6 568/4/6 574/4/6
f 573/8/6 567/8/6 574/8/6
f 568/5/6 569/5/6 575/5/6
f 574/4/6 568/4/6 575/4/6
f 575/5/6 569/5/6 576/5/6
f 571/5/6 564/5/6 577/5/6
f 564/8/6 572/8/6 578/8/6
f 577/5/6 564/5/6 578/5/6
f 578/8/6 572/8/6 579/8/6
f 574/5/6 575/5/6 580/5/6
f 580/5/6 575/5/6 581/5/6
f 582/6/6 583/6/6 584/6/6
f 584/6/6 583/6/6 585/6/6
f 585/6/6 583/6/6 586/6/6
f 584/7/6 585/7/6 587/7/6
f 585/8/6 586/8/6 588/8/6
f 587/7/6 585/7/6 588/7/6
f 588/8/6 586/8/6 589/8/6
f 590/3/6 591/3/6 593/3/6
f 591/2/6 592/2/6 593/2/6
f 593/2/6 592/2/6 594/2/6
f 590/3/6 593/3/6 595/3/6
f 593/3/6 594/3/6 595/3/6
f 595/3/6 594/3/6 596/3/6
f 597/1/6 598/1/6 599/1/6
f 599/1/6 598/1/6 600/1/6
