# MagicaVoxel @ Ephtracy

# material
mtllib infantry02-01.mtl
usemtl palette

# normals
vn -1 0 0
vn 1 0 0
vn 0 0 1
vn 0 0 -1
vn 0 -1 0
vn 0 1 0

# texcoords
vt 0.138672 0.5
vt 0.283203 0.5
vt 0.447266 0.5
vt 0.630859 0.5
vt 0.654297 0.5
vt 0.978516 0.5
vt 0.982422 0.5
vt 0.986328 0.5

# verts
v -5 8 2
v -5 8 1
v -5 9 2
v -5 9 1
v -4 6 1
v -4 6 -0
v -4 7 4
v -4 7 3
v -4 7 2
v -4 7 1
v -4 8 5
v -4 8 4
v -4 8 2
v -4 8 1
v -4 9 5
v -4 9 4
v -4 9 3
v -4 9 2
v -4 9 1
v -4 10 2
v -4 10 -0
v -3 8 -0
v -3 8 -1
v -3 10 -0
v -3 10 -1
v -2 0 1
v -2 0 -2
v -2 1 1
v -2 1 -0
v -2 2 1
v -2 2 -0
v -2 2 -1
v -2 2 -2
v -2 3 2
v -2 3 1
v -2 3 -0
v -2 3 -1
v -2 6 2
v -2 6 1
v -2 8 1
v -2 8 -0
v -1 6 -0
v -1 6 -2
v -1 7 2
v -1 7 1
v -1 7 -1
v -1 7 -2
v -1 8 1
v -1 8 -0
v -1 8 -1
v -1 9 2
v -1 9 1
v -1 9 -1
v -1 9 -2
v -1 10 1
v -1 10 -0
v -1 10 -1
v -1 10 -2
v -1 11 1
v -1 11 -0
v -1 11 -1
v -1 11 -2
v -1 12 2
v -1 12 -0
v 1 1 3
v 1 1 -0
v 1 2 3
v 1 2 2
v 1 2 1
v 1 2 -0
v 1 2 -1
v 1 3 1
v 1 3 -0
v 1 4 2
v 1 4 1
v 1 4 -0
v 1 4 -1
v 1 5 1
v 1 5 -0
v 1 5 -1
v 1 6 -0
v 1 6 -1
v 1 11 -0
v 1 11 -1
v 1 12 -0
v 1 12 -1
v 1 13 -0
v 1 13 -1
v 2 7 -0
v 2 7 -1
v 2 8 -0
v 2 8 -1
v 3 6 2
v 3 6 -0
v 3 7 4
v 3 7 3
v 3 7 2
v 3 7 1
v 3 7 -0
v 3 8 4
v 3 8 3
v 3 8 2
v 3 9 2
v 3 9 1
v -3 6 1
v -3 6 -0
v -3 7 4
v -3 7 3
v -3 7 2
v -3 7 1
v -3 8 5
v -3 8 4
v -3 8 1
v -3 8 -0
v -3 9 5
v -3 9 4
v -3 9 3
v -3 9 2
v -3 9 1
v -2 9 2
v -2 9 1
v -2 10 2
v -2 10 1
v -1 0 1
v -1 0 -2
v -1 1 1
v -1 1 -0
v -1 2 1
v -1 2 -0
v -1 2 -1
v -1 2 -2
v -1 3 2
v -1 3 1
v -1 3 -0
v -1 3 -1
v -1 5 1
v -1 5 -0
v -1 6 2
v -1 6 1
v 1 6 -0
v 1 6 -1
v 1 6 -2
v 1 7 2
v 1 7 1
v 1 7 -0
v 1 7 -1
v 1 7 -2
v 1 8 1
v 1 8 -0
v 1 8 -1
v 1 8 -2
v 1 9 2
v 1 9 1
v 1 9 -1
v 1 9 -2
v 1 10 2
v 1 10 1
v 1 10 -0
v 1 10 -1
v 1 10 -2
v 1 11 1
v 1 11 -0
v 1 11 -1
v 1 11 -2
v 1 12 2
v 1 12 1
v 1 12 -0
v 2 1 3
v 2 1 -0
v 2 2 3
v 2 2 2
v 2 2 1
v 2 2 -0
v 2 2 -1
v 2 3 1
v 2 3 -0
v 2 4 2
v 2 4 1
v 2 4 -0
v 2 4 -1
v 2 5 1
v 2 5 -0
v 2 5 -1
v 2 6 1
v 2 6 -0
v 2 6 -1
v 2 7 1
v 2 7 -0
v 2 10 -0
v 2 10 -1
v 2 12 -0
v 2 12 -1
v 2 13 -0
v 2 13 -1
v 3 9 -0
v 3 9 -1
v 3 10 -0
v 3 10 -1
v 4 6 2
v 4 6 -0
v 4 7 4
v 4 7 3
v 4 7 2
v 4 7 -0
v 4 7 -1
v 4 8 4
v 4 8 3
v 4 8 2
v 4 9 2
v 4 9 1
v 4 9 -0
v 4 9 -1
v 4 10 1
v 4 10 -0
v -4 8 5
v -4 9 5
v -3 8 5
v -3 9 5
v -4 7 4
v -4 8 4
v -3 7 4
v -3 8 4
v 3 7 4
v 3 8 4
v 4 7 4
v 4 8 4
v 1 1 3
v 1 2 3
v 2 1 3
v 2 2 3
v -5 8 2
v -5 9 2
v -4 8 2
v -4 9 2
v -4 10 2
v -3 9 2
v -2 3 2
v -2 6 2
v -2 9 2
v -2 10 2
v -1 3 2
v -1 6 2
v -1 7 2
v -1 9 2
v -1 12 2
v 0 10 2
v 0 12 2
v 1 2 2
v 1 4 2
v 1 7 2
v 1 9 2
v 1 10 2
v 1 12 2
v 2 2 2
v 2 4 2
v 3 6 2
v 3 7 2
v 3 8 2
v 3 9 2
v 4 6 2
v 4 7 2
v 4 8 2
v 4 9 2
v -4 6 1
v -4 7 1
v -3 6 1
v -3 7 1
v -3 8 1
v -3 9 1
v -2 0 1
v -2 1 1
v -2 2 1
v -2 3 1
v -2 6 1
v -2 8 1
v -2 9 1
v -2 10 1
v -1 0 1
v -1 1 1
v -1 2 1
v -1 3 1
v -1 5 1
v -1 6 1
v -1 7 1
v -1 8 1
v -1 9 1
v -1 10 1
v 1 4 1
v 1 5 1
v 1 6 1
v 1 7 1
v 1 8 1
v 1 9 1
v 1 10 1
v 2 4 1
v 2 5 1
v 2 6 1
v 2 7 1
v 2 8 1
v 2 9 1
v 2 10 1
v 3 7 1
v 3 9 1
v 3 10 1
v 4 9 1
v 4 10 1
v -2 1 -0
v -2 2 -0
v -1 1 -0
v -1 2 -0
v 1 10 -0
v 1 11 -0
v 1 12 -0
v 1 13 -0
v 2 10 -0
v 2 12 -0
v 2 13 -0
v -5 8 1
v -5 9 1
v -4 8 1
v -4 9 1
v -4 6 -0
v -4 10 -0
v -3 6 -0
v -3 8 -0
v -3 10 -0
v -2 3 -0
v -2 8 -0
v -1 3 -0
v -1 5 -0
v -1 6 -0
v -1 8 -0
v -1 11 -0
v -1 12 -0
v 1 1 -0
v 1 2 -0
v 1 4 -0
v 1 5 -0
v 1 6 -0
v 1 7 -0
v 1 8 -0
v 1 11 -0
v 1 12 -0
v 2 1 -0
v 2 2 -0
v 2 4 -0
v 2 5 -0
v 2 6 -0
v 2 7 -0
v 2 8 -0
v 3 6 -0
v 3 7 -0
v 3 9 -0
v 3 10 -0
v 4 6 -0
v 4 7 -0
v 4 9 -0
v 4 10 -0
v -3 8 -1
v -3 10 -1
v -2 2 -1
v -2 3 -1
v -2 8 -1
v -2 10 -1
v -1 2 -1
v -1 3 -1
v -1 8 -1
v -1 9 -1
v -1 10 -1
v 1 2 -1
v 1 4 -1
v 1 5 -1
v 1 6 -1
v 1 8 -1
v 1 9 -1
v 1 10 -1
v 1 11 -1
v 1 12 -1
v 1 13 -1
v 2 2 -1
v 2 4 -1
v 2 5 -1
v 2 6 -1
v 2 7 -1
v 2 8 -1
v 2 10 -1
v 2 12 -1
v 2 13 -1
v 3 9 -1
v 3 10 -1
v 4 7 -1
v 4 9 -1
v -2 0 -2
v -2 2 -2
v -1 0 -2
v -1 2 -2
v -1 6 -2
v -1 7 -2
v -1 9 -2
v -1 10 -2
v -1 11 -2
v 0 8 -2
v 0 9 -2
v 0 10 -2
v 0 11 -2
v 1 6 -2
v 1 7 -2
v 1 8 -2
v 1 9 -2
v 1 10 -2
v 1 11 -2
v -2 0 1
v -1 0 1
v -2 0 -2
v -1 0 -2
v 1 1 3
v 2 1 3
v 1 1 -0
v 2 1 -0
v -2 2 1
v -1 2 1
v -2 2 -0
v -1 2 -0
v 1 2 -0
v 2 2 -0
v 1 2 -1
v 2 2 -1
v -2 3 2
v -1 3 2
v -2 3 1
v -1 3 1
v -1 5 1
v 1 5 1
v -1 5 -0
v 1 5 -0
v 2 5 -0
v 1 5 -1
v 2 5 -1
v 3 6 2
v 4 6 2
v -4 6 1
v -3 6 1
v -4 6 -0
v -3 6 -0
v -1 6 -0
v 1 6 -0
v 3 6 -0
v 4 6 -0
v 1 6 -1
v -1 6 -2
v 1 6 -2
v -4 7 4
v -3 7 4
v 3 7 4
v 4 7 4
v -4 7 3
v -3 7 3
v 3 7 3
v 4 7 3
v -4 7 2
v -3 7 2
v -1 7 2
v 1 7 2
v 3 7 2
v 4 7 2
v -4 7 1
v -3 7 1
v -1 7 1
v 1 7 1
v 2 7 1
v 3 7 1
v 2 7 -0
v 3 7 -0
v 4 7 -0
v 2 7 -1
v 4 7 -1
v -4 8 5
v -3 8 5
v -4 8 4
v -3 8 4
v -5 8 2
v -4 8 2
v -5 8 1
v -4 8 1
v -3 8 1
v -2 8 1
v -3 8 -0
v -2 8 -0
v -1 8 -0
v 1 8 -0
v 2 8 -0
v -3 8 -1
v -2 8 -1
v -1 8 -1
v 1 8 -1
v 2 8 -1
v -3 9 2
v -2 9 2
v -3 9 1
v -2 9 1
v -2 1 1
v -1 1 1
v -2 1 -0
v -1 1 -0
v 1 2 3
v 2 2 3
v 1 2 2
v 2 2 2
v -2 2 -1
v -1 2 -1
v -2 2 -2
v -1 2 -2
v -2 3 -0
v -1 3 -0
v -2 3 -1
v -1 3 -1
v 1 4 2
v 2 4 2
v 1 4 1
v 2 4 1
v 1 4 -0
v 2 4 -0
v 1 4 -1
v 2 4 -1
v -2 6 2
v -1 6 2
v -2 6 1
v -1 6 1
v 1 6 -0
v 2 6 -0
v 1 6 -1
v 2 6 -1
v 3 8 4
v 4 8 4
v 3 8 3
v 4 8 3
v 3 8 2
v 4 8 2
v -4 9 5
v -3 9 5
v -4 9 4
v -3 9 4
v -4 9 3
v -3 9 3
v -5 9 2
v -4 9 2
v -3 9 2
v 3 9 2
v 4 9 2
v -5 9 1
v -4 9 1
v 3 9 1
v 4 9 1
v 3 9 -0
v 4 9 -0
v 3 9 -1
v 4 9 -1
v -4 10 2
v -2 10 2
v -2 10 1
v -1 10 1
v 1 10 1
v 2 10 1
v 3 10 1
v 4 10 1
v -4 10 -0
v -3 10 -0
v -1 10 -0
v 1 10 -0
v 2 10 -0
v 3 10 -0
v 4 10 -0
v -3 10 -1
v -2 10 -1
v -1 10 -1
v 2 10 -1
v 3 10 -1
v -1 11 -0
v 1 11 -0
v -1 11 -1
v 0 11 -1
v 1 11 -1
v -1 11 -2
v 0 11 -2
v 1 11 -2
v -1 12 2
v 0 12 2
v 1 12 2
v 0 12 1
v 1 12 1
v -1 12 -0
v 1 12 -0
v 1 13 -0
v 2 13 -0
v 1 13 -1
v 2 13 -1

# faces
f 3/5/1 2/5/1 1/5/1
f 4/5/1 2/5/1 3/5/1
f 10/5/1 6/5/1 5/5/1
f 12/8/1 8/8/1 7/8/1
f 13/7/1 9/7/1 8/7/1
f 13/5/1 10/5/1 9/5/1
f 14/5/1 6/5/1 10/5/1
f 14/5/1 10/5/1 13/5/1
f 15/6/1 12/6/1 11/6/1
f 16/8/1 8/8/1 12/8/1
f 16/6/1 12/6/1 15/6/1
f 17/7/1 13/7/1 8/7/1
f 17/8/1 8/8/1 16/8/1
f 18/7/1 13/7/1 17/7/1
f 19/5/1 6/5/1 14/5/1
f 20/5/1 19/5/1 18/5/1
f 21/5/1 6/5/1 19/5/1
f 21/5/1 19/5/1 20/5/1
f 24/5/1 23/5/1 22/5/1
f 25/5/1 23/5/1 24/5/1
f 28/5/1 27/5/1 26/5/1
f 29/5/1 27/5/1 28/5/1
f 31/5/1 27/5/1 29/5/1
f 32/5/1 27/5/1 31/5/1
f 33/5/1 27/5/1 32/5/1
f 35/5/1 31/5/1 30/5/1
f 35/5/1 32/5/1 31/5/1
f 36/5/1 32/5/1 35/5/1
f 37/5/1 32/5/1 36/5/1
f 38/5/1 35/5/1 34/5/1
f 38/5/1 36/5/1 35/5/1
f 39/5/1 36/5/1 38/5/1
f 40/5/1 36/5/1 39/5/1
f 41/5/1 36/5/1 40/5/1
f 46/5/1 43/5/1 42/5/1
f 47/5/1 43/5/1 46/5/1
f 48/5/1 45/5/1 44/5/1
f 49/5/1 46/5/1 42/5/1
f 50/8/1 47/8/1 46/8/1
f 50/5/1 46/5/1 49/5/1
f 51/5/1 48/5/1 44/5/1
f 52/5/1 48/5/1 51/5/1
f 53/8/1 47/8/1 50/8/1
f 54/8/1 47/8/1 53/8/1
f 55/3/1 52/3/1 51/3/1
f 57/6/1 54/6/1 53/6/1
f 58/6/1 54/6/1 57/6/1
f 59/8/1 56/8/1 55/8/1
f 59/3/1 55/3/1 51/3/1
f 60/6/1 57/6/1 56/6/1
f 60/8/1 56/8/1 59/8/1
f 61/7/1 58/7/1 57/7/1
f 61/6/1 57/6/1 60/6/1
f 62/7/1 58/7/1 61/7/1
f 63/3/1 60/3/1 59/3/1
f 63/3/1 59/3/1 51/3/1
f 64/3/1 60/3/1 63/3/1
f 67/5/1 66/5/1 65/5/1
f 68/5/1 66/5/1 67/5/1
f 69/5/1 66/5/1 68/5/1
f 70/5/1 66/5/1 69/5/1
f 72/5/1 69/5/1 68/5/1
f 72/4/1 70/4/1 69/4/1
f 73/5/1 71/5/1 70/5/1
f 73/4/1 70/4/1 72/4/1
f 74/5/1 72/5/1 68/5/1
f 74/5/1 73/5/1 72/5/1
f 75/5/1 73/5/1 74/5/1
f 76/5/1 71/5/1 73/5/1
f 76/5/1 73/5/1 75/5/1
f 77/5/1 71/5/1 76/5/1
f 78/4/1 76/4/1 75/4/1
f 79/4/1 76/4/1 78/4/1
f 81/5/1 80/5/1 79/5/1
f 82/5/1 80/5/1 81/5/1
f 85/8/1 84/8/1 83/8/1
f 86/8/1 84/8/1 85/8/1
f 87/1/1 86/1/1 85/1/1
f 88/1/1 86/1/1 87/1/1
f 91/5/1 90/5/1 89/5/1
f 92/5/1 90/5/1 91/5/1
f 97/5/1 94/5/1 93/5/1
f 98/5/1 94/5/1 97/5/1
f 99/5/1 94/5/1 98/5/1
f 100/7/1 96/7/1 95/7/1
f 101/8/1 97/8/1 96/8/1
f 101/7/1 96/7/1 100/7/1
f 102/5/1 98/5/1 97/5/1
f 102/8/1 97/8/1 101/8/1
f 103/5/1 98/5/1 102/5/1
f 104/5/1 98/5/1 103/5/1
f 105/5/2 106/5/2 110/5/2
f 107/8/2 108/8/2 112/8/2
f 109/5/2 110/5/2 113/5/2
f 110/5/2 106/5/2 113/5/2
f 113/5/2 106/5/2 114/5/2
f 111/6/2 112/6/2 115/6/2
f 112/8/2 108/8/2 116/8/2
f 115/6/2 112/6/2 116/6/2
f 108/7/2 109/7/2 117/7/2
f 116/8/2 108/8/2 117/8/2
f 109/5/2 113/5/2 118/5/2
f 117/7/2 109/7/2 118/7/2
f 118/5/2 113/5/2 119/5/2
f 120/5/2 121/5/2 122/5/2
f 122/5/2 121/5/2 123/5/2
f 124/5/2 125/5/2 126/5/2
f 126/5/2 125/5/2 127/5/2
f 127/5/2 125/5/2 129/5/2
f 129/5/2 125/5/2 130/5/2
f 130/5/2 125/5/2 131/5/2
f 128/5/2 129/5/2 133/5/2
f 129/5/2 130/5/2 133/5/2
f 133/5/2 130/5/2 134/5/2
f 134/5/2 130/5/2 135/5/2
f 132/5/2 133/5/2 136/5/2
f 133/5/2 134/5/2 136/5/2
f 136/5/2 134/5/2 137/5/2
f 132/5/2 136/5/2 138/5/2
f 138/5/2 136/5/2 139/5/2
f 140/5/2 141/5/2 145/5/2
f 141/5/2 142/5/2 145/5/2
f 145/5/2 142/5/2 146/5/2
f 146/5/2 142/5/2 147/5/2
f 143/5/2 144/5/2 148/5/2
f 145/5/2 146/5/2 149/5/2
f 146/8/2 147/8/2 150/8/2
f 149/5/2 146/5/2 150/5/2
f 150/8/2 147/8/2 151/8/2
f 143/5/2 148/5/2 152/5/2
f 152/5/2 148/5/2 153/5/2
f 150/7/2 151/7/2 154/7/2
f 154/7/2 151/7/2 155/7/2
f 152/3/2 153/3/2 156/3/2
f 156/3/2 153/3/2 157/3/2
f 154/6/2 155/6/2 159/6/2
f 159/6/2 155/6/2 160/6/2
f 157/6/2 158/6/2 161/6/2
f 156/2/2 157/2/2 161/2/2
f 161/6/2 158/6/2 162/6/2
f 159/8/2 160/8/2 163/8/2
f 163/8/2 160/8/2 164/8/2
f 156/2/2 161/2/2 165/2/2
f 161/3/2 162/3/2 166/3/2
f 165/2/2 161/2/2 166/2/2
f 166/3/2 162/3/2 167/3/2
f 168/5/2 169/5/2 170/5/2
f 170/5/2 169/5/2 171/5/2
f 171/5/2 169/5/2 172/5/2
f 172/5/2 169/5/2 173/5/2
f 171/5/2 172/5/2 175/5/2
f 172/4/2 173/4/2 175/4/2
f 173/5/2 174/5/2 176/5/2
f 175/4/2 173/4/2 176/4/2
f 171/5/2 175/5/2 177/5/2
f 175/5/2 176/5/2 177/5/2
f 177/5/2 176/5/2 178/5/2
f 176/5/2 174/5/2 179/5/2
f 178/5/2 176/5/2 179/5/2
f 179/5/2 174/5/2 180/5/2
f 178/4/2 179/4/2 181/4/2
f 181/4/2 179/4/2 182/4/2
f 181/5/2 182/5/2 184/5/2
f 182/5/2 183/5/2 184/5/2
f 184/5/2 183/5/2 185/5/2
f 185/5/2 183/5/2 186/5/2
f 184/4/2 185/4/2 187/4/2
f 187/4/2 185/4/2 188/4/2
f 189/8/2 190/8/2 191/8/2
f 191/8/2 190/8/2 192/8/2
f 191/1/2 192/1/2 193/1/2
f 193/1/2 192/1/2 194/1/2
f 195/5/2 196/5/2 197/5/2
f 197/5/2 196/5/2 198/5/2
f 199/5/2 200/5/2 203/5/2
f 203/5/2 200/5/2 204/5/2
f 201/7/2 202/7/2 206/7/2
f 202/8/2 203/8/2 207/8/2
f 206/7/2 202/7/2 207/7/2
f 204/5/2 205/5/2 208/5/2
f 207/8/2 203/8/2 208/8/2
f 203/5/2 204/5/2 208/5/2
f 208/5/2 205/5/2 209/5/2
f 209/5/2 205/5/2 210/5/2
f 210/5/2 205/5/2 211/5/2
f 211/5/2 205/5/2 212/5/2
f 210/5/2 211/5/2 213/5/2
f 213/5/2 211/5/2 214/5/2
f 217/6/3 216/6/3 215/6/3
f 218/6/3 216/6/3 217/6/3
f 221/8/3 220/8/3 219/8/3
f 222/8/3 220/8/3 221/8/3
f 225/7/3 224/7/3 223/7/3
f 226/7/3 224/7/3 225/7/3
f 229/5/3 228/5/3 227/5/3
f 230/5/3 228/5/3 229/5/3
f 233/5/3 232/5/3 231/5/3
f 234/5/3 232/5/3 233/5/3
f 236/5/3 235/5/3 234/5/3
f 239/5/3 235/5/3 236/5/3
f 240/5/3 235/5/3 239/5/3
f 241/5/3 238/5/3 237/5/3
f 242/5/3 238/5/3 241/5/3
f 246/3/3 245/3/3 244/3/3
f 247/3/3 245/3/3 246/3/3
f 250/5/3 244/5/3 243/5/3
f 251/3/3 246/3/3 244/3/3
f 251/5/3 244/5/3 250/5/3
f 252/2/3 247/2/3 246/2/3
f 252/3/3 246/3/3 251/3/3
f 253/2/3 247/2/3 252/2/3
f 254/5/3 249/5/3 248/5/3
f 255/5/3 249/5/3 254/5/3
f 260/5/3 257/5/3 256/5/3
f 261/5/3 257/5/3 260/5/3
f 262/5/3 259/5/3 258/5/3
f 263/5/3 259/5/3 262/5/3
f 266/5/3 265/5/3 264/5/3
f 267/5/3 265/5/3 266/5/3
f 275/5/3 269/5/3 268/5/3
f 276/5/3 269/5/3 275/5/3
f 278/5/3 271/5/3 270/5/3
f 279/5/3 271/5/3 278/5/3
f 280/5/3 273/5/3 272/5/3
f 281/5/3 273/5/3 280/5/3
f 283/5/3 275/5/3 274/5/3
f 284/5/3 275/5/3 283/5/3
f 285/8/3 277/8/3 276/8/3
f 285/5/3 275/5/3 284/5/3
f 285/8/3 276/8/3 275/8/3
f 286/8/3 277/8/3 285/8/3
f 287/8/3 277/8/3 286/8/3
f 289/5/3 284/5/3 283/5/3
f 289/5/3 283/5/3 282/5/3
f 290/5/3 284/5/3 289/5/3
f 291/5/3 284/5/3 290/5/3
f 295/4/3 289/4/3 288/4/3
f 296/5/3 290/5/3 289/5/3
f 296/4/3 289/4/3 295/4/3
f 297/4/3 291/4/3 290/4/3
f 297/5/3 290/5/3 296/5/3
f 298/5/3 292/5/3 291/5/3
f 298/4/3 291/4/3 297/4/3
f 299/8/3 294/8/3 293/8/3
f 299/5/3 292/5/3 298/5/3
f 299/8/3 293/8/3 292/8/3
f 300/8/3 294/8/3 299/8/3
f 301/8/3 294/8/3 300/8/3
f 302/5/3 300/5/3 299/5/3
f 302/5/3 299/5/3 298/5/3
f 303/4/3 301/4/3 300/4/3
f 303/5/3 300/5/3 302/5/3
f 304/4/3 301/4/3 303/4/3
f 305/5/3 304/5/3 303/5/3
f 306/5/3 304/5/3 305/5/3
f 309/5/3 308/5/3 307/5/3
f 310/5/3 308/5/3 309/5/3
f 315/8/3 312/8/3 311/8/3
f 315/8/3 313/8/3 312/8/3
f 316/1/3 314/1/3 313/1/3
f 316/8/3 313/8/3 315/8/3
f 317/1/3 314/1/3 316/1/3
f 318/5/4 319/5/4 320/5/4
f 320/5/4 319/5/4 321/5/4
f 322/5/4 323/5/4 324/5/4
f 324/5/4 323/5/4 325/5/4
f 325/5/4 323/5/4 326/5/4
f 327/5/4 328/5/4 329/5/4
f 329/5/4 328/5/4 330/5/4
f 330/5/4 328/5/4 331/5/4
f 331/5/4 328/5/4 332/5/4
f 330/5/4 331/5/4 338/5/4
f 338/5/4 331/5/4 339/5/4
f 333/3/4 334/3/4 342/3/4
f 342/3/4 334/3/4 343/3/4
f 335/5/4 336/5/4 344/5/4
f 344/5/4 336/5/4 345/5/4
f 337/4/4 338/4/4 346/4/4
f 346/4/4 338/4/4 347/4/4
f 339/4/4 340/4/4 348/4/4
f 340/5/4 341/5/4 349/5/4
f 348/4/4 340/4/4 349/4/4
f 349/5/4 341/5/4 350/5/4
f 351/5/4 352/5/4 355/5/4
f 355/5/4 352/5/4 356/5/4
f 353/5/4 354/5/4 357/5/4
f 357/5/4 354/5/4 358/5/4
f 359/5/4 360/5/4 363/5/4
f 363/5/4 360/5/4 364/5/4
f 361/5/4 362/5/4 365/5/4
f 365/5/4 362/5/4 366/5/4
f 363/8/4 364/8/4 367/8/4
f 367/8/4 364/8/4 368/8/4
f 368/8/4 364/8/4 369/8/4
f 370/5/4 371/5/4 380/5/4
f 380/5/4 371/5/4 381/5/4
f 372/5/4 373/5/4 382/5/4
f 382/5/4 373/5/4 383/5/4
f 375/8/4 376/8/4 385/8/4
f 374/8/4 375/8/4 385/8/4
f 376/8/4 377/8/4 385/8/4
f 377/8/4 378/8/4 385/8/4
f 385/8/4 378/8/4 386/8/4
f 378/1/4 379/1/4 387/1/4
f 386/8/4 378/8/4 387/8/4
f 387/1/4 379/1/4 388/1/4
f 385/5/4 386/5/4 389/5/4
f 384/5/4 385/5/4 389/5/4
f 389/5/4 386/5/4 390/5/4
f 384/5/4 389/5/4 391/5/4
f 391/5/4 389/5/4 392/5/4
f 393/5/4 394/5/4 395/5/4
f 395/5/4 394/5/4 396/5/4
f 398/8/4 399/8/4 402/8/4
f 399/6/4 400/6/4 403/6/4
f 402/8/4 399/8/4 403/8/4
f 400/7/4 401/7/4 404/7/4
f 403/6/4 400/6/4 404/6/4
f 404/7/4 401/7/4 405/7/4
f 397/5/4 398/5/4 406/5/4
f 398/8/4 402/8/4 407/8/4
f 406/5/4 398/5/4 407/5/4
f 402/7/4 403/7/4 408/7/4
f 407/8/4 402/8/4 408/8/4
f 403/6/4 404/6/4 409/6/4
f 408/7/4 403/7/4 409/7/4
f 404/8/4 405/8/4 410/8/4
f 409/6/4 404/6/4 410/6/4
f 410/8/4 405/8/4 411/8/4
f 414/5/5 413/5/5 412/5/5
f 415/5/5 413/5/5 414/5/5
f 418/5/5 417/5/5 416/5/5
f 419/5/5 417/5/5 418/5/5
f 422/5/5 421/5/5 420/5/5
f 423/5/5 421/5/5 422/5/5
f 426/5/5 425/5/5 424/5/5
f 427/5/5 425/5/5 426/5/5
f 430/5/5 429/5/5 428/5/5
f 431/5/5 429/5/5 430/5/5
f 434/5/5 433/5/5 432/5/5
f 435/5/5 433/5/5 434/5/5
f 437/5/5 436/5/5 435/5/5
f 438/5/5 436/5/5 437/5/5
f 443/5/5 442/5/5 441/5/5
f 444/5/5 442/5/5 443/5/5
f 447/5/5 440/5/5 439/5/5
f 448/5/5 440/5/5 447/5/5
f 449/5/5 446/5/5 445/5/5
f 450/5/5 449/5/5 445/5/5
f 451/5/5 449/5/5 450/5/5
f 456/8/5 453/8/5 452/8/5
f 457/8/5 453/8/5 456/8/5
f 458/7/5 455/7/5 454/7/5
f 459/7/5 455/7/5 458/7/5
f 460/7/5 457/7/5 456/7/5
f 461/7/5 457/7/5 460/7/5
f 464/8/5 459/8/5 458/8/5
f 465/8/5 459/8/5 464/8/5
f 466/5/5 461/5/5 460/5/5
f 467/5/5 461/5/5 466/5/5
f 468/5/5 463/5/5 462/5/5
f 469/5/5 463/5/5 468/5/5
f 472/5/5 471/5/5 470/5/5
f 473/5/5 471/5/5 472/5/5
f 475/5/5 473/5/5 472/5/5
f 475/5/5 474/5/5 473/5/5
f 476/5/5 474/5/5 475/5/5
f 479/6/5 478/6/5 477/6/5
f 480/6/5 478/6/5 479/6/5
f 483/5/5 482/5/5 481/5/5
f 484/5/5 482/5/5 483/5/5
f 487/5/5 486/5/5 485/5/5
f 488/5/5 486/5/5 487/5/5
f 492/5/5 488/5/5 487/5/5
f 493/8/5 489/8/5 488/8/5
f 493/5/5 488/5/5 492/5/5
f 494/8/5 489/8/5 493/8/5
f 495/8/5 491/8/5 490/8/5
f 496/8/5 491/8/5 495/8/5
f 499/5/5 498/5/5 497/5/5
f 500/5/5 498/5/5 499/5/5
f 501/5/6 502/5/6 503/5/6
f 503/5/6 502/5/6 504/5/6
f 505/5/6 506/5/6 507/5/6
f 507/5/6 506/5/6 508/5/6
f 509/5/6 510/5/6 511/5/6
f 511/5/6 510/5/6 512/5/6
f 513/5/6 514/5/6 515/5/6
f 515/5/6 514/5/6 516/5/6
f 517/5/6 518/5/6 519/5/6
f 519/5/6 518/5/6 520/5/6
f 521/5/6 522/5/6 523/5/6
f 523/5/6 522/5/6 524/5/6
f 525/5/6 526/5/6 527/5/6
f 527/5/6 526/5/6 528/5/6
f 529/5/6 530/5/6 531/5/6
f 531/5/6 530/5/6 532/5/6
f 533/7/6 534/7/6 535/7/6
f 535/7/6 534/7/6 536/7/6
f 535/8/6 536/8/6 537/8/6
f 537/8/6 536/8/6 538/8/6
f 539/6/6 540/6/6 541/6/6
f 541/6/6 540/6/6 542/6/6
f 541/8/6 542/8/6 543/8/6
f 543/8/6 542/8/6 544/8/6
f 543/7/6 544/7/6 546/7/6
f 546/7/6 544/7/6 547/7/6
f 545/5/6 546/5/6 550/5/6
f 550/5/6 546/5/6 551/5/6
f 548/5/6 549/5/6 552/5/6
f 552/5/6 549/5/6 553/5/6
f 554/5/6 555/5/6 556/5/6
f 556/5/6 555/5/6 557/5/6
f 558/5/6 559/5/6 560/5/6
f 558/5/6 560/5/6 566/5/6
f 566/5/6 560/5/6 567/5/6
f 560/8/6 561/8/6 568/8/6
f 562/8/6 563/8/6 569/8/6
f 563/4/6 564/4/6 570/4/6
f 569/8/6 563/8/6 570/8/6
f 564/5/6 565/5/6 571/5/6
f 570/4/6 564/4/6 571/4/6
f 571/5/6 565/5/6 572/5/6
f 567/5/6 560/5/6 573/5/6
f 560/8/6 568/8/6 574/8/6
f 573/5/6 560/5/6 574/5/6
f 574/8/6 568/8/6 575/8/6
f 570/5/6 571/5/6 576/5/6
f 576/5/6 571/5/6 577/5/6
f 578/6/6 579/6/6 580/6/6
f 580/6/6 579/6/6 581/6/6
f 581/6/6 579/6/6 582/6/6
f 580/7/6 581/7/6 583/7/6
f 581/8/6 582/8/6 584/8/6
f 583/7/6 581/7/6 584/7/6
f 584/8/6 582/8/6 585/8/6
f 586/3/6 587/3/6 589/3/6
f 587/2/6 588/2/6 589/2/6
f 589/2/6 588/2/6 590/2/6
f 586/3/6 589/3/6 591/3/6
f 589/3/6 590/3/6 591/3/6
f 591/3/6 590/3/6 592/3/6
f 593/1/6 594/1/6 595/1/6
f 595/1/6 594/1/6 596/1/6
