# MagicaVoxel @ Ephtracy

# material
mtllib infantry02-00.mtl
usemtl palette

# normals
vn -1 0 0
vn 1 0 0
vn 0 0 1
vn 0 0 -1
vn 0 -1 0
vn 0 1 0

# texcoords
vt 0.138672 0.5
vt 0.283203 0.5
vt 0.447266 0.5
vt 0.630859 0.5
vt 0.654297 0.5
vt 0.978516 0.5
vt 0.982422 0.5
vt 0.986328 0.5

# verts
v -5 7 2
v -5 7 1
v -5 8 2
v -5 8 1
v -4 5 1
v -4 5 -0
v -4 6 4
v -4 6 3
v -4 6 2
v -4 6 1
v -4 7 5
v -4 7 4
v -4 7 2
v -4 7 1
v -4 8 5
v -4 8 4
v -4 8 3
v -4 8 2
v -4 8 1
v -4 9 2
v -4 9 -0
v -3 7 -0
v -3 7 -1
v -3 9 -0
v -3 9 -1
v -2 0 3
v -2 0 -1
v -2 1 3
v -2 1 2
v -2 2 -0
v -2 2 -1
v -2 5 2
v -2 5 1
v -2 7 1
v -2 7 -0
v -1 5 -0
v -1 5 -2
v -1 6 2
v -1 6 1
v -1 6 -1
v -1 6 -2
v -1 7 1
v -1 7 -0
v -1 7 -1
v -1 8 2
v -1 8 1
v -1 8 -1
v -1 8 -2
v -1 9 1
v -1 9 -0
v -1 9 -1
v -1 9 -2
v -1 10 1
v -1 10 -0
v -1 10 -1
v -1 10 -2
v -1 11 2
v -1 11 -0
v 1 0 2
v 1 0 -2
v 1 1 2
v 1 1 1
v 1 1 -0
v 1 1 -1
v 1 2 1
v 1 2 -0
v 1 2 -1
v 1 3 -0
v 1 3 -1
v 1 3 -2
v 1 4 -0
v 1 4 -1
v 1 5 -0
v 1 5 -1
v 1 10 -0
v 1 10 -1
v 1 11 -0
v 1 11 -1
v 1 12 -0
v 1 12 -1
v 2 6 -0
v 2 6 -1
v 2 7 -0
v 2 7 -1
v 3 5 2
v 3 5 -0
v 3 6 4
v 3 6 3
v 3 6 2
v 3 6 1
v 3 6 -0
v 3 7 4
v 3 7 3
v 3 7 2
v 3 8 2
v 3 8 1
v -3 5 1
v -3 5 -0
v -3 6 4
v -3 6 3
v -3 6 2
v -3 6 1
v -3 7 5
v -3 7 4
v -3 7 1
v -3 7 -0
v -3 8 5
v -3 8 4
v -3 8 3
v -3 8 2
v -3 8 1
v -2 8 2
v -2 8 1
v -2 9 2
v -2 9 1
v -1 0 3
v -1 0 -1
v -1 1 3
v -1 1 2
v -1 2 -0
v -1 2 -1
v -1 4 1
v -1 4 -0
v -1 5 2
v -1 5 1
v 1 5 -0
v 1 5 -1
v 1 5 -2
v 1 6 2
v 1 6 1
v 1 6 -0
v 1 6 -1
v 1 6 -2
v 1 7 1
v 1 7 -0
v 1 7 -1
v 1 7 -2
v 1 8 2
v 1 8 1
v 1 8 -1
v 1 8 -2
v 1 9 2
v 1 9 1
v 1 9 -0
v 1 9 -1
v 1 9 -2
v 1 10 1
v 1 10 -0
v 1 10 -1
v 1 10 -2
v 1 11 2
v 1 11 1
v 1 11 -0
v 2 0 2
v 2 0 -2
v 2 1 2
v 2 1 1
v 2 1 -0
v 2 1 -1
v 2 2 1
v 2 2 -0
v 2 2 -1
v 2 3 -0
v 2 3 -1
v 2 3 -2
v 2 4 1
v 2 4 -0
v 2 4 -1
v 2 5 1
v 2 5 -0
v 2 5 -1
v 2 6 1
v 2 6 -0
v 2 9 -0
v 2 9 -1
v 2 11 -0
v 2 11 -1
v 2 12 -0
v 2 12 -1
v 3 8 -0
v 3 8 -1
v 3 9 -0
v 3 9 -1
v 4 5 2
v 4 5 -0
v 4 6 4
v 4 6 3
v 4 6 2
v 4 6 -0
v 4 6 -1
v 4 7 4
v 4 7 3
v 4 7 2
v 4 8 2
v 4 8 1
v 4 8 -0
v 4 8 -1
v 4 9 1
v 4 9 -0
v -4 7 5
v -4 8 5
v -3 7 5
v -3 8 5
v -4 6 4
v -4 7 4
v -3 6 4
v -3 7 4
v 3 6 4
v 3 7 4
v 4 6 4
v 4 7 4
v -2 0 3
v -2 1 3
v -1 0 3
v -1 1 3
v -5 7 2
v -5 8 2
v -4 7 2
v -4 8 2
v -4 9 2
v -3 8 2
v -2 1 2
v -2 5 2
v -2 8 2
v -2 9 2
v -1 1 2
v -1 5 2
v -1 6 2
v -1 8 2
v -1 11 2
v 0 9 2
v 0 11 2
v 1 0 2
v 1 1 2
v 1 6 2
v 1 8 2
v 1 9 2
v 1 11 2
v 2 0 2
v 2 1 2
v 3 5 2
v 3 6 2
v 3 7 2
v 3 8 2
v 4 5 2
v 4 6 2
v 4 7 2
v 4 8 2
v -4 5 1
v -4 6 1
v -3 5 1
v -3 6 1
v -3 7 1
v -3 8 1
v -2 5 1
v -2 7 1
v -2 8 1
v -2 9 1
v -1 4 1
v -1 5 1
v -1 6 1
v -1 7 1
v -1 8 1
v -1 9 1
v 1 1 1
v 1 2 1
v 1 5 1
v 1 6 1
v 1 7 1
v 1 8 1
v 1 9 1
v 2 1 1
v 2 2 1
v 2 4 1
v 2 5 1
v 2 6 1
v 2 7 1
v 2 8 1
v 2 9 1
v 3 6 1
v 3 8 1
v 3 9 1
v 4 8 1
v 4 9 1
v 1 2 -0
v 1 3 -0
v 1 4 -0
v 1 9 -0
v 1 10 -0
v 1 11 -0
v 1 12 -0
v 2 2 -0
v 2 3 -0
v 2 4 -0
v 2 9 -0
v 2 11 -0
v 2 12 -0
v -5 7 1
v -5 8 1
v -4 7 1
v -4 8 1
v -4 5 -0
v -4 9 -0
v -3 5 -0
v -3 7 -0
v -3 9 -0
v -2 2 -0
v -2 7 -0
v -1 2 -0
v -1 4 -0
v -1 5 -0
v -1 7 -0
v -1 10 -0
v -1 11 -0
v 1 4 -0
v 1 5 -0
v 1 6 -0
v 1 7 -0
v 1 10 -0
v 1 11 -0
v 2 5 -0
v 2 6 -0
v 2 7 -0
v 3 5 -0
v 3 6 -0
v 3 8 -0
v 3 9 -0
v 4 5 -0
v 4 6 -0
v 4 8 -0
v 4 9 -0
v -3 7 -1
v -3 9 -1
v -2 0 -1
v -2 2 -1
v -2 7 -1
v -2 9 -1
v -1 0 -1
v -1 2 -1
v -1 7 -1
v -1 8 -1
v -1 9 -1
v 1 3 -1
v 1 4 -1
v 1 5 -1
v 1 7 -1
v 1 8 -1
v 1 9 -1
v 1 10 -1
v 1 11 -1
v 1 12 -1
v 2 3 -1
v 2 4 -1
v 2 5 -1
v 2 6 -1
v 2 7 -1
v 2 9 -1
v 2 11 -1
v 2 12 -1
v 3 8 -1
v 3 9 -1
v 4 6 -1
v 4 8 -1
v -1 5 -2
v -1 6 -2
v -1 8 -2
v -1 9 -2
v -1 10 -2
v 0 7 -2
v 0 8 -2
v 0 9 -2
v 0 10 -2
v 1 0 -2
v 1 3 -2
v 1 5 -2
v 1 6 -2
v 1 7 -2
v 1 8 -2
v 1 9 -2
v 1 10 -2
v 2 0 -2
v 2 3 -2
v -2 0 3
v -1 0 3
v 1 0 2
v 2 0 2
v -2 0 -1
v -1 0 -1
v 1 0 -2
v 2 0 -2
v -1 4 1
v 2 4 1
v -1 4 -0
v 1 4 -0
v 2 4 -0
v 3 5 2
v 4 5 2
v -4 5 1
v -3 5 1
v -4 5 -0
v -3 5 -0
v -1 5 -0
v 1 5 -0
v 3 5 -0
v 4 5 -0
v 1 5 -1
v -1 5 -2
v 1 5 -2
v -4 6 4
v -3 6 4
v 3 6 4
v 4 6 4
v -4 6 3
v -3 6 3
v 3 6 3
v 4 6 3
v -4 6 2
v -3 6 2
v -1 6 2
v 1 6 2
v 3 6 2
v 4 6 2
v -4 6 1
v -3 6 1
v -1 6 1
v 1 6 1
v 2 6 1
v 3 6 1
v 2 6 -0
v 3 6 -0
v 4 6 -0
v 2 6 -1
v 4 6 -1
v -4 7 5
v -3 7 5
v -4 7 4
v -3 7 4
v -5 7 2
v -4 7 2
v -5 7 1
v -4 7 1
v -3 7 1
v -2 7 1
v -3 7 -0
v -2 7 -0
v -1 7 -0
v 1 7 -0
v 2 7 -0
v -3 7 -1
v -2 7 -1
v -1 7 -1
v 1 7 -1
v 2 7 -1
v -3 8 2
v -2 8 2
v -3 8 1
v -2 8 1
v -2 1 3
v -1 1 3
v -2 1 2
v -1 1 2
v 1 1 2
v 2 1 2
v 1 1 1
v 2 1 1
v 1 2 1
v 2 2 1
v -2 2 -0
v -1 2 -0
v 1 2 -0
v 2 2 -0
v -2 2 -1
v -1 2 -1
v 1 3 -1
v 2 3 -1
v 1 3 -2
v 2 3 -2
v -2 5 2
v -1 5 2
v -2 5 1
v -1 5 1
v 1 5 -0
v 2 5 -0
v 1 5 -1
v 2 5 -1
v 3 7 4
v 4 7 4
v 3 7 3
v 4 7 3
v 3 7 2
v 4 7 2
v -4 8 5
v -3 8 5
v -4 8 4
v -3 8 4
v -4 8 3
v -3 8 3
v -5 8 2
v -4 8 2
v -3 8 2
v 3 8 2
v 4 8 2
v -5 8 1
v -4 8 1
v 3 8 1
v 4 8 1
v 3 8 -0
v 4 8 -0
v 3 8 -1
v 4 8 -1
v -4 9 2
v -2 9 2
v -2 9 1
v -1 9 1
v 1 9 1
v 2 9 1
v 3 9 1
v 4 9 1
v -4 9 -0
v -3 9 -0
v -1 9 -0
v 1 9 -0
v 2 9 -0
v 3 9 -0
v 4 9 -0
v -3 9 -1
v -2 9 -1
v -1 9 -1
v 2 9 -1
v 3 9 -1
v -1 10 -0
v 1 10 -0
v -1 10 -1
v 0 10 -1
v 1 10 -1
v -1 10 -2
v 0 10 -2
v 1 10 -2
v -1 11 2
v 0 11 2
v 1 11 2
v 0 11 1
v 1 11 1
v -1 11 -0
v 1 11 -0
v 1 12 -0
v 2 12 -0
v 1 12 -1
v 2 12 -1

# faces
f 3/5/1 2/5/1 1/5/1
f 4/5/1 2/5/1 3/5/1
f 10/5/1 6/5/1 5/5/1
f 12/8/1 8/8/1 7/8/1
f 13/7/1 9/7/1 8/7/1
f 13/5/1 10/5/1 9/5/1
f 14/5/1 6/5/1 10/5/1
f 14/5/1 10/5/1 13/5/1
f 15/6/1 12/6/1 11/6/1
f 16/8/1 8/8/1 12/8/1
f 16/6/1 12/6/1 15/6/1
f 17/7/1 13/7/1 8/7/1
f 17/8/1 8/8/1 16/8/1
f 18/7/1 13/7/1 17/7/1
f 19/5/1 6/5/1 14/5/1
f 20/5/1 19/5/1 18/5/1
f 21/5/1 6/5/1 19/5/1
f 21/5/1 19/5/1 20/5/1
f 24/5/1 23/5/1 22/5/1
f 25/5/1 23/5/1 24/5/1
f 28/5/1 27/5/1 26/5/1
f 29/5/1 27/5/1 28/5/1
f 30/5/1 27/5/1 29/5/1
f 31/5/1 27/5/1 30/5/1
f 32/5/1 30/5/1 29/5/1
f 33/5/1 30/5/1 32/5/1
f 34/5/1 30/5/1 33/5/1
f 35/5/1 30/5/1 34/5/1
f 40/5/1 37/5/1 36/5/1
f 41/5/1 37/5/1 40/5/1
f 42/5/1 39/5/1 38/5/1
f 43/5/1 40/5/1 36/5/1
f 44/8/1 41/8/1 40/8/1
f 44/5/1 40/5/1 43/5/1
f 45/5/1 42/5/1 38/5/1
f 46/5/1 42/5/1 45/5/1
f 47/8/1 41/8/1 44/8/1
f 48/8/1 41/8/1 47/8/1
f 49/3/1 46/3/1 45/3/1
f 51/6/1 48/6/1 47/6/1
f 52/6/1 48/6/1 51/6/1
f 53/8/1 50/8/1 49/8/1
f 53/3/1 49/3/1 45/3/1
f 54/6/1 51/6/1 50/6/1
f 54/8/1 50/8/1 53/8/1
f 55/7/1 52/7/1 51/7/1
f 55/6/1 51/6/1 54/6/1
f 56/7/1 52/7/1 55/7/1
f 57/3/1 54/3/1 53/3/1
f 57/3/1 53/3/1 45/3/1
f 58/3/1 54/3/1 57/3/1
f 61/5/1 60/5/1 59/5/1
f 62/5/1 60/5/1 61/5/1
f 63/5/1 60/5/1 62/5/1
f 64/5/1 60/5/1 63/5/1
f 65/5/1 63/5/1 62/5/1
f 66/4/1 64/4/1 63/4/1
f 66/5/1 63/5/1 65/5/1
f 67/5/1 60/5/1 64/5/1
f 67/4/1 64/4/1 66/4/1
f 68/5/1 67/5/1 66/5/1
f 69/5/1 60/5/1 67/5/1
f 69/5/1 67/5/1 68/5/1
f 70/5/1 60/5/1 69/5/1
f 71/4/1 69/4/1 68/4/1
f 72/4/1 69/4/1 71/4/1
f 73/5/1 72/5/1 71/5/1
f 74/5/1 72/5/1 73/5/1
f 77/8/1 76/8/1 75/8/1
f 78/8/1 76/8/1 77/8/1
f 79/1/1 78/1/1 77/1/1
f 80/1/1 78/1/1 79/1/1
f 83/5/1 82/5/1 81/5/1
f 84/5/1 82/5/1 83/5/1
f 89/5/1 86/5/1 85/5/1
f 90/5/1 86/5/1 89/5/1
f 91/5/1 86/5/1 90/5/1
f 92/7/1 88/7/1 87/7/1
f 93/8/1 89/8/1 88/8/1
f 93/7/1 88/7/1 92/7/1
f 94/5/1 90/5/1 89/5/1
f 94/8/1 89/8/1 93/8/1
f 95/5/1 90/5/1 94/5/1
f 96/5/1 90/5/1 95/5/1
f 97/5/2 98/5/2 102/5/2
f 99/8/2 100/8/2 104/8/2
f 101/5/2 102/5/2 105/5/2
f 102/5/2 98/5/2 105/5/2
f 105/5/2 98/5/2 106/5/2
f 103/6/2 104/6/2 107/6/2
f 104/8/2 100/8/2 108/8/2
f 107/6/2 104/6/2 108/6/2
f 100/7/2 101/7/2 109/7/2
f 108/8/2 100/8/2 109/8/2
f 101/5/2 105/5/2 110/5/2
f 109/7/2 101/7/2 110/7/2
f 110/5/2 105/5/2 111/5/2
f 112/5/2 113/5/2 114/5/2
f 114/5/2 113/5/2 115/5/2
f 116/5/2 117/5/2 118/5/2
f 118/5/2 117/5/2 119/5/2
f 119/5/2 117/5/2 120/5/2
f 120/5/2 117/5/2 121/5/2
f 119/5/2 120/5/2 122/5/2
f 122/5/2 120/5/2 123/5/2
f 119/5/2 122/5/2 124/5/2
f 124/5/2 122/5/2 125/5/2
f 126/5/2 127/5/2 131/5/2
f 127/5/2 128/5/2 131/5/2
f 131/5/2 128/5/2 132/5/2
f 132/5/2 128/5/2 133/5/2
f 129/5/2 130/5/2 134/5/2
f 131/5/2 132/5/2 135/5/2
f 132/8/2 133/8/2 136/8/2
f 135/5/2 132/5/2 136/5/2
f 136/8/2 133/8/2 137/8/2
f 129/5/2 134/5/2 138/5/2
f 138/5/2 134/5/2 139/5/2
f 136/7/2 137/7/2 140/7/2
f 140/7/2 137/7/2 141/7/2
f 138/3/2 139/3/2 142/3/2
f 142/3/2 139/3/2 143/3/2
f 140/6/2 141/6/2 145/6/2
f 145/6/2 141/6/2 146/6/2
f 143/6/2 144/6/2 147/6/2
f 142/2/2 143/2/2 147/2/2
f 147/6/2 144/6/2 148/6/2
f 145/8/2 146/8/2 149/8/2
f 149/8/2 146/8/2 150/8/2
f 142/2/2 147/2/2 151/2/2
f 147/3/2 148/3/2 152/3/2
f 151/2/2 147/2/2 152/2/2
f 152/3/2 148/3/2 153/3/2
f 154/5/2 155/5/2 156/5/2
f 156/5/2 155/5/2 157/5/2
f 157/5/2 155/5/2 158/5/2
f 158/5/2 155/5/2 159/5/2
f 157/5/2 158/5/2 160/5/2
f 158/4/2 159/4/2 161/4/2
f 160/5/2 158/5/2 161/5/2
f 159/5/2 155/5/2 162/5/2
f 161/4/2 159/4/2 162/4/2
f 161/5/2 162/5/2 163/5/2
f 162/5/2 155/5/2 164/5/2
f 163/5/2 162/5/2 164/5/2
f 164/5/2 155/5/2 165/5/2
f 163/4/2 164/4/2 167/4/2
f 167/4/2 164/4/2 168/4/2
f 166/5/2 167/5/2 169/5/2
f 167/5/2 168/5/2 169/5/2
f 169/5/2 168/5/2 170/5/2
f 170/5/2 168/5/2 171/5/2
f 169/4/2 170/4/2 172/4/2
f 172/4/2 170/4/2 173/4/2
f 174/8/2 175/8/2 176/8/2
f 176/8/2 175/8/2 177/8/2
f 176/1/2 177/1/2 178/1/2
f 178/1/2 177/1/2 179/1/2
f 180/5/2 181/5/2 182/5/2
f 182/5/2 181/5/2 183/5/2
f 184/5/2 185/5/2 188/5/2
f 188/5/2 185/5/2 189/5/2
f 186/7/2 187/7/2 191/7/2
f 187/8/2 188/8/2 192/8/2
f 191/7/2 187/7/2 192/7/2
f 189/5/2 190/5/2 193/5/2
f 192/8/2 188/8/2 193/8/2
f 188/5/2 189/5/2 193/5/2
f 193/5/2 190/5/2 194/5/2
f 194/5/2 190/5/2 195/5/2
f 195/5/2 190/5/2 196/5/2
f 196/5/2 190/5/2 197/5/2
f 195/5/2 196/5/2 198/5/2
f 198/5/2 196/5/2 199/5/2
f 202/6/3 201/6/3 200/6/3
f 203/6/3 201/6/3 202/6/3
f 206/8/3 205/8/3 204/8/3
f 207/8/3 205/8/3 206/8/3
f 210/7/3 209/7/3 208/7/3
f 211/7/3 209/7/3 210/7/3
f 214/5/3 213/5/3 212/5/3
f 215/5/3 213/5/3 214/5/3
f 218/5/3 217/5/3 216/5/3
f 219/5/3 217/5/3 218/5/3
f 221/5/3 220/5/3 219/5/3
f 224/5/3 220/5/3 221/5/3
f 225/5/3 220/5/3 224/5/3
f 226/5/3 223/5/3 222/5/3
f 227/5/3 223/5/3 226/5/3
f 231/3/3 230/3/3 229/3/3
f 232/3/3 230/3/3 231/3/3
f 235/5/3 229/5/3 228/5/3
f 236/3/3 231/3/3 229/3/3
f 236/5/3 229/5/3 235/5/3
f 237/2/3 232/2/3 231/2/3
f 237/3/3 231/3/3 236/3/3
f 238/2/3 232/2/3 237/2/3
f 239/5/3 234/5/3 233/5/3
f 240/5/3 234/5/3 239/5/3
f 245/5/3 242/5/3 241/5/3
f 246/5/3 242/5/3 245/5/3
f 247/5/3 244/5/3 243/5/3
f 248/5/3 244/5/3 247/5/3
f 251/5/3 250/5/3 249/5/3
f 252/5/3 250/5/3 251/5/3
f 256/5/3 254/5/3 253/5/3
f 257/5/3 254/5/3 256/5/3
f 260/5/3 256/5/3 255/5/3
f 261/5/3 256/5/3 260/5/3
f 262/8/3 258/8/3 257/8/3
f 262/5/3 256/5/3 261/5/3
f 262/8/3 257/8/3 256/8/3
f 263/8/3 258/8/3 262/8/3
f 264/8/3 258/8/3 263/8/3
f 267/5/3 261/5/3 260/5/3
f 267/5/3 260/5/3 259/5/3
f 268/5/3 261/5/3 267/5/3
f 272/5/3 266/5/3 265/5/3
f 273/5/3 266/5/3 272/5/3
f 274/5/3 267/5/3 259/5/3
f 275/4/3 268/4/3 267/4/3
f 275/5/3 267/5/3 274/5/3
f 276/5/3 269/5/3 268/5/3
f 276/4/3 268/4/3 275/4/3
f 277/8/3 271/8/3 270/8/3
f 277/5/3 269/5/3 276/5/3
f 277/8/3 270/8/3 269/8/3
f 278/8/3 271/8/3 277/8/3
f 279/8/3 271/8/3 278/8/3
f 280/5/3 278/5/3 277/5/3
f 280/5/3 277/5/3 276/5/3
f 281/4/3 279/4/3 278/4/3
f 281/5/3 278/5/3 280/5/3
f 282/4/3 279/4/3 281/4/3
f 283/5/3 282/5/3 281/5/3
f 284/5/3 282/5/3 283/5/3
f 292/5/3 286/5/3 285/5/3
f 293/4/3 287/4/3 286/4/3
f 293/5/3 286/5/3 292/5/3
f 294/4/3 287/4/3 293/4/3
f 295/8/3 289/8/3 288/8/3
f 295/8/3 290/8/3 289/8/3
f 296/1/3 291/1/3 290/1/3
f 296/8/3 290/8/3 295/8/3
f 297/1/3 291/1/3 296/1/3
f 298/5/4 299/5/4 300/5/4
f 300/5/4 299/5/4 301/5/4
f 302/5/4 303/5/4 304/5/4
f 304/5/4 303/5/4 305/5/4
f 305/5/4 303/5/4 306/5/4
f 307/5/4 308/5/4 309/5/4
f 309/5/4 308/5/4 310/5/4
f 310/5/4 308/5/4 311/5/4
f 311/5/4 308/5/4 312/5/4
f 310/5/4 311/5/4 315/5/4
f 315/5/4 311/5/4 316/5/4
f 313/3/4 314/3/4 319/3/4
f 319/3/4 314/3/4 320/3/4
f 316/4/4 317/4/4 321/4/4
f 317/5/4 318/5/4 322/5/4
f 321/4/4 317/4/4 322/4/4
f 322/5/4 318/5/4 323/5/4
f 324/5/4 325/5/4 328/5/4
f 328/5/4 325/5/4 329/5/4
f 326/5/4 327/5/4 330/5/4
f 330/5/4 327/5/4 331/5/4
f 332/5/4 333/5/4 336/5/4
f 336/5/4 333/5/4 337/5/4
f 334/5/4 335/5/4 338/5/4
f 338/5/4 335/5/4 339/5/4
f 336/8/4 337/8/4 340/8/4
f 340/8/4 337/8/4 341/8/4
f 341/8/4 337/8/4 342/8/4
f 343/4/4 344/4/4 352/4/4
f 344/5/4 345/5/4 353/5/4
f 352/4/4 344/4/4 353/4/4
f 353/5/4 345/5/4 354/5/4
f 347/8/4 348/8/4 356/8/4
f 346/8/4 347/8/4 356/8/4
f 348/8/4 349/8/4 356/8/4
f 349/8/4 350/8/4 356/8/4
f 356/8/4 350/8/4 357/8/4
f 350/1/4 351/1/4 358/1/4
f 357/8/4 350/8/4 358/8/4
f 358/1/4 351/1/4 359/1/4
f 355/5/4 356/5/4 360/5/4
f 356/5/4 357/5/4 360/5/4
f 360/5/4 357/5/4 361/5/4
f 355/5/4 360/5/4 362/5/4
f 362/5/4 360/5/4 363/5/4
f 365/8/4 366/8/4 369/8/4
f 366/6/4 367/6/4 370/6/4
f 369/8/4 366/8/4 370/8/4
f 367/7/4 368/7/4 371/7/4
f 370/6/4 367/6/4 371/6/4
f 371/7/4 368/7/4 372/7/4
f 364/5/4 365/5/4 375/5/4
f 365/8/4 369/8/4 376/8/4
f 375/5/4 365/5/4 376/5/4
f 369/7/4 370/7/4 377/7/4
f 376/8/4 369/8/4 377/8/4
f 370/6/4 371/6/4 378/6/4
f 377/7/4 370/7/4 378/7/4
f 371/8/4 372/8/4 379/8/4
f 378/6/4 371/6/4 379/6/4
f 379/8/4 372/8/4 380/8/4
f 373/5/4 374/5/4 381/5/4
f 381/5/4 374/5/4 382/5/4
f 387/5/5 384/5/5 383/5/5
f 388/5/5 384/5/5 387/5/5
f 389/5/5 386/5/5 385/5/5
f 390/5/5 386/5/5 389/5/5
f 393/5/5 392/5/5 391/5/5
f 394/5/5 392/5/5 393/5/5
f 395/5/5 392/5/5 394/5/5
f 400/5/5 399/5/5 398/5/5
f 401/5/5 399/5/5 400/5/5
f 404/5/5 397/5/5 396/5/5
f 405/5/5 397/5/5 404/5/5
f 406/5/5 403/5/5 402/5/5
f 407/5/5 406/5/5 402/5/5
f 408/5/5 406/5/5 407/5/5
f 413/8/5 410/8/5 409/8/5
f 414/8/5 410/8/5 413/8/5
f 415/7/5 412/7/5 411/7/5
f 416/7/5 412/7/5 415/7/5
f 417/7/5 414/7/5 413/7/5
f 418/7/5 414/7/5 417/7/5
f 421/8/5 416/8/5 415/8/5
f 422/8/5 416/8/5 421/8/5
f 423/5/5 418/5/5 417/5/5
f 424/5/5 418/5/5 423/5/5
f 425/5/5 420/5/5 419/5/5
f 426/5/5 420/5/5 425/5/5
f 429/5/5 428/5/5 427/5/5
f 430/5/5 428/5/5 429/5/5
f 432/5/5 430/5/5 429/5/5
f 432/5/5 431/5/5 430/5/5
f 433/5/5 431/5/5 432/5/5
f 436/6/5 435/6/5 434/6/5
f 437/6/5 435/6/5 436/6/5
f 440/5/5 439/5/5 438/5/5
f 441/5/5 439/5/5 440/5/5
f 444/5/5 443/5/5 442/5/5
f 445/5/5 443/5/5 444/5/5
f 449/5/5 445/5/5 444/5/5
f 450/8/5 446/8/5 445/8/5
f 450/5/5 445/5/5 449/5/5
f 451/8/5 446/8/5 450/8/5
f 452/8/5 448/8/5 447/8/5
f 453/8/5 448/8/5 452/8/5
f 456/5/5 455/5/5 454/5/5
f 457/5/5 455/5/5 456/5/5
f 458/5/6 459/5/6 460/5/6
f 460/5/6 459/5/6 461/5/6
f 462/5/6 463/5/6 464/5/6
f 464/5/6 463/5/6 465/5/6
f 466/5/6 467/5/6 470/5/6
f 470/5/6 467/5/6 471/5/6
f 468/5/6 469/5/6 472/5/6
f 472/5/6 469/5/6 473/5/6
f 474/5/6 475/5/6 476/5/6
f 476/5/6 475/5/6 477/5/6
f 478/5/6 479/5/6 480/5/6
f 480/5/6 479/5/6 481/5/6
f 482/5/6 483/5/6 484/5/6
f 484/5/6 483/5/6 485/5/6
f 486/7/6 487/7/6 488/7/6
f 488/7/6 487/7/6 489/7/6
f 488/8/6 489/8/6 490/8/6
f 490/8/6 489/8/6 491/8/6
f 492/6/6 493/6/6 494/6/6
f 494/6/6 493/6/6 495/6/6
f 494/8/6 495/8/6 496/8/6
f 496/8/6 495/8/6 497/8/6
f 496/7/6 497/7/6 499/7/6
f 499/7/6 497/7/6 500/7/6
f 498/5/6 499/5/6 503/5/6
f 503/5/6 499/5/6 504/5/6
f 501/5/6 502/5/6 505/5/6
f 505/5/6 502/5/6 506/5/6
f 507/5/6 508/5/6 509/5/6
f 509/5/6 508/5/6 510/5/6
f 511/5/6 512/5/6 513/5/6
f 511/5/6 513/5/6 519/5/6
f 519/5/6 513/5/6 520/5/6
f 513/8/6 514/8/6 521/8/6
f 515/8/6 516/8/6 522/8/6
f 516/4/6 517/4/6 523/4/6
f 522/8/6 516/8/6 523/8/6
f 517/5/6 518/5/6 524/5/6
f 523/4/6 517/4/6 524/4/6
f 524/5/6 518/5/6 525/5/6
f 520/5/6 513/5/6 526/5/6
f 513/8/6 521/8/6 527/8/6
f 526/5/6 513/5/6 527/5/6
f 527/8/6 521/8/6 528/8/6
f 523/5/6 524/5/6 529/5/6
f 529/5/6 524/5/6 530/5/6
f 531/6/6 532/6/6 533/6/6
f 533/6/6 532/6/6 534/6/6
f 534/6/6 532/6/6 535/6/6
f 533/7/6 534/7/6 536/7/6
f 534/8/6 535/8/6 537/8/6
f 536/7/6 534/7/6 537/7/6
f 537/8/6 535/8/6 538/8/6
f 539/3/6 540/3/6 542/3/6
f 540/2/6 541/2/6 542/2/6
f 542/2/6 541/2/6 543/2/6
f 539/3/6 542/3/6 544/3/6
f 542/3/6 543/3/6 544/3/6
f 544/3/6 543/3/6 545/3/6
f 546/1/6 547/1/6 548/1/6
f 548/1/6 547/1/6 549/1/6
